"Checked"	"Study File ID"	"Trace/Detector Type"	"Custom Label"	"Description"	"Scan Filter"	"Spectrum File"
"False"	"F2"	"TIC"	""	"MS Order: MS1"	"FTMS + p NSI Full ms [400.00-1650.00]"	"acE77_TiO2_20_rep1_A15.raw"
"False"	"F2"	"BPC"	""	"MS Order: MS1"	"FTMS + p NSI Full ms [400.00-1650.00]"	"acE77_TiO2_20_rep1_A15.raw"
