"Study File ID"	"File Name"	"Creation Date"	"RT Range [min]"	"Instrument Name"	"Software Revision"	"Instrument Hardware"
""	"Z:\Curso python4proteomics\PD\acE23_77\acE23_FASP01_short-pre-run-(1).msf"	"11/27/2018 1:22:25 PM"	""	""	"Created with Discoverer version: 2.3.0.480"	""
"F1"	"Z:\Curso python4proteomics\PD\acE23_FASP01_short-pre-run.raw"	"6/14/2016 5:32:06 PM"	"5.00 - 140.00"	"LTQ Orbitrap XL"	"2.5.5 SP2"	""
