<?xml version="1.0" encoding="UTF-8"?>
<!DOCTYPE svg PUBLIC "-//W3C//DTD SVG 1.1//EN" "http://www.w3.org/Graphics/SVG/1.1/DTD/svg11.dtd">
<svg version="1.2" width="59.5mm" height="21.52mm" viewBox="2397 3293 5950 2152" preserveAspectRatio="xMidYMid" fill-rule="evenodd" stroke-width="28.222" stroke-linejoin="round" xmlns="http://www.w3.org/2000/svg" xmlns:ooo="http://xml.openoffice.org/svg/export" xmlns:xlink="http://www.w3.org/1999/xlink" xmlns:presentation="http://sun.com/xmlns/staroffice/presentation" xmlns:smil="http://www.w3.org/2001/SMIL20/" xmlns:anim="urn:oasis:names:tc:opendocument:xmlns:animation:1.0" xml:space="preserve">
 <defs class="ClipPathGroup">
  <clipPath id="presentation_clip_path" clipPathUnits="userSpaceOnUse">
   <rect x="2397" y="3293" width="5950" height="2152"/>
  </clipPath>
  <clipPath id="presentation_clip_path_shrink" clipPathUnits="userSpaceOnUse">
   <rect x="2402" y="3295" width="5939" height="2148"/>
  </clipPath>
 </defs>
 <defs>
  <font id="EmbeddedFont_1" horiz-adv-x="2048">
   <font-face font-family="Liberation Sans embedded" units-per-em="2048" font-weight="bold" font-style="normal" ascent="1852" descent="423"/>
   <missing-glyph horiz-adv-x="2048" d="M 0,0 L 2047,0 2047,2047 0,2047 0,0 Z"/>
   <glyph unicode="u" horiz-adv-x="1006" d="M 408,1082 L 408,475 C 408,285 472,190 600,190 668,190 723,219 765,278 806,336 827,411 827,502 L 827,1082 1108,1082 1108,242 C 1108,150 1111,69 1116,0 L 848,0 C 840,96 836,168 836,215 L 831,215 C 794,133 746,73 689,36 631,-1 562,-20 483,-20 368,-20 280,15 219,86 158,156 127,259 127,395 L 127,1082 408,1082 Z"/>
   <glyph unicode="s" horiz-adv-x="1006" d="M 1055,316 C 1055,211 1012,129 927,70 841,10 722,-20 571,-20 422,-20 309,4 230,51 151,98 98,171 72,270 L 319,307 C 333,256 357,219 392,198 426,177 486,166 571,166 650,166 707,176 743,196 779,216 797,247 797,290 797,325 783,352 754,373 725,393 675,410 606,424 447,455 340,485 285,512 230,539 188,574 159,617 130,660 115,712 115,775 115,878 155,959 235,1017 314,1074 427,1103 573,1103 702,1103 805,1078 884,1028 962,978 1011,906 1030,811 L 781,785 C 773,829 753,862 722,884 691,905 641,916 573,916 506,916 456,908 423,891 390,874 373,845 373,805 373,774 386,749 412,731 437,712 480,697 541,685 626,668 701,650 767,632 832,613 885,591 925,566 964,541 996,508 1020,469 1043,429 1055,378 1055,316 Z"/>
   <glyph unicode="r" horiz-adv-x="636" d="M 143,0 L 143,828 C 143,887 142,937 141,977 139,1016 137,1051 135,1082 L 403,1082 C 405,1070 408,1034 411,973 414,912 416,871 416,851 L 420,851 C 447,927 472,981 493,1012 514,1043 540,1066 569,1081 598,1096 635,1103 679,1103 715,1103 744,1098 766,1088 L 766,853 C 721,863 681,868 646,868 576,868 522,840 483,783 444,726 424,642 424,531 L 424,0 143,0 Z"/>
   <glyph unicode="l" horiz-adv-x="292" d="M 143,0 L 143,1484 424,1484 424,0 143,0 Z"/>
   <glyph unicode="e" horiz-adv-x="1007" d="M 586,-20 C 423,-20 298,28 211,125 124,221 80,361 80,546 80,725 124,862 213,958 302,1054 427,1102 590,1102 745,1102 864,1051 946,948 1028,845 1069,694 1069,495 L 1069,487 375,487 C 375,382 395,302 434,249 473,195 528,168 600,168 699,168 762,211 788,297 L 1053,274 C 976,78 821,-20 586,-20 Z M 586,925 C 520,925 469,902 434,856 398,810 379,746 377,663 L 797,663 C 792,750 771,816 734,860 697,903 648,925 586,925 Z"/>
   <glyph unicode="a" horiz-adv-x="1112" d="M 393,-20 C 288,-20 207,9 148,66 89,123 60,203 60,306 60,418 97,503 170,562 243,621 348,651 487,652 L 720,656 720,711 C 720,782 708,834 683,869 658,903 618,920 562,920 510,920 472,908 448,885 423,861 408,822 402,767 L 109,781 C 127,886 175,966 254,1021 332,1075 439,1102 574,1102 711,1102 816,1068 890,1001 964,934 1001,838 1001,714 L 1001,320 C 1001,259 1008,218 1022,195 1035,172 1058,160 1090,160 1111,160 1132,162 1152,166 L 1152,14 C 1135,10 1120,6 1107,3 1094,0 1080,-3 1067,-5 1054,-7 1040,-9 1025,-10 1010,-11 992,-12 972,-12 901,-12 849,5 816,40 782,75 762,126 755,193 L 749,193 C 670,51 552,-20 393,-20 Z M 720,501 L 576,499 C 511,496 464,489 437,478 410,466 389,448 375,424 360,400 353,368 353,328 353,277 365,239 389,214 412,189 444,176 483,176 527,176 567,188 604,212 640,236 668,269 689,312 710,354 720,399 720,446 L 720,501 Z"/>
   <glyph unicode="T" horiz-adv-x="1245" d="M 773,1181 L 773,0 478,0 478,1181 23,1181 23,1409 1229,1409 1229,1181 773,1181 Z"/>
   <glyph unicode="F" horiz-adv-x="1060" d="M 432,1181 L 432,745 1153,745 1153,517 432,517 432,0 137,0 137,1409 1176,1409 1176,1181 432,1181 Z"/>
  </font>
 </defs>
 <defs class="TextShapeIndex">
  <g ooo:slide="id1" ooo:id-list="id3 id4 id5 id6"/>
 </defs>
 <defs class="EmbeddedBulletChars">
  <g id="bullet-char-template-57356" transform="scale(0.00048828125,-0.00048828125)">
   <path d="M 580,1141 L 1163,571 580,0 -4,571 580,1141 Z"/>
  </g>
  <g id="bullet-char-template-57354" transform="scale(0.00048828125,-0.00048828125)">
   <path d="M 8,1128 L 1137,1128 1137,0 8,0 8,1128 Z"/>
  </g>
  <g id="bullet-char-template-10146" transform="scale(0.00048828125,-0.00048828125)">
   <path d="M 174,0 L 602,739 174,1481 1456,739 174,0 Z M 1358,739 L 309,1346 659,739 1358,739 Z"/>
  </g>
  <g id="bullet-char-template-10132" transform="scale(0.00048828125,-0.00048828125)">
   <path d="M 2015,739 L 1276,0 717,0 1260,543 174,543 174,936 1260,936 717,1481 1274,1481 2015,739 Z"/>
  </g>
  <g id="bullet-char-template-10007" transform="scale(0.00048828125,-0.00048828125)">
   <path d="M 0,-2 C -7,14 -16,27 -25,37 L 356,567 C 262,823 215,952 215,954 215,979 228,992 255,992 264,992 276,990 289,987 310,991 331,999 354,1012 L 381,999 492,748 772,1049 836,1024 860,1049 C 881,1039 901,1025 922,1006 886,937 835,863 770,784 769,783 710,716 594,584 L 774,223 C 774,196 753,168 711,139 L 727,119 C 717,90 699,76 672,76 641,76 570,178 457,381 L 164,-76 C 142,-110 111,-127 72,-127 30,-127 9,-110 8,-76 1,-67 -2,-52 -2,-32 -2,-23 -1,-13 0,-2 Z"/>
  </g>
  <g id="bullet-char-template-10004" transform="scale(0.00048828125,-0.00048828125)">
   <path d="M 285,-33 C 182,-33 111,30 74,156 52,228 41,333 41,471 41,549 55,616 82,672 116,743 169,778 240,778 293,778 328,747 346,684 L 369,508 C 377,444 397,411 428,410 L 1163,1116 C 1174,1127 1196,1133 1229,1133 1271,1133 1292,1118 1292,1087 L 1292,965 C 1292,929 1282,901 1262,881 L 442,47 C 390,-6 338,-33 285,-33 Z"/>
  </g>
  <g id="bullet-char-template-9679" transform="scale(0.00048828125,-0.00048828125)">
   <path d="M 813,0 C 632,0 489,54 383,161 276,268 223,411 223,592 223,773 276,916 383,1023 489,1130 632,1184 813,1184 992,1184 1136,1130 1245,1023 1353,916 1407,772 1407,592 1407,412 1353,268 1245,161 1136,54 992,0 813,0 Z"/>
  </g>
  <g id="bullet-char-template-8226" transform="scale(0.00048828125,-0.00048828125)">
   <path d="M 346,457 C 273,457 209,483 155,535 101,586 74,649 74,723 74,796 101,859 155,911 209,963 273,989 346,989 419,989 480,963 531,910 582,859 608,796 608,723 608,648 583,586 532,535 482,483 420,457 346,457 Z"/>
  </g>
  <g id="bullet-char-template-8211" transform="scale(0.00048828125,-0.00048828125)">
   <path d="M -4,459 L 1135,459 1135,606 -4,606 -4,459 Z"/>
  </g>
  <g id="bullet-char-template-61548" transform="scale(0.00048828125,-0.00048828125)">
   <path d="M 173,740 C 173,903 231,1043 346,1159 462,1274 601,1332 765,1332 928,1332 1067,1274 1183,1159 1299,1043 1357,903 1357,740 1357,577 1299,437 1183,322 1067,206 928,148 765,148 601,148 462,206 346,322 231,437 173,577 173,740 Z"/>
  </g>
 </defs>
 <defs class="TextEmbeddedBitmaps"/>
 <g class="SlideGroup">
  <g>
   <g id="container-id1">
    <g id="id1" class="Slide" clip-path="url(#presentation_clip_path)">
     <g class="Page">
      <g class="Group">
       <g class="Graphic">
        <g id="id3">
         <rect class="BoundingBox" stroke="none" fill="none" x="2397" y="3794" width="2693" height="1652"/>
         <defs>
          <clipPath id="clip_path_1" clipPathUnits="userSpaceOnUse">
           <path d="M 2397,3794 L 5089,3794 5089,5445 2397,5445 2397,3794 Z"/>
          </clipPath>
         </defs>
         <g clip-path="url(#clip_path_1)">
          <path fill="rgb(225,179,125)" stroke="none" d="M 3725,4027 C 3707,4016 3370,3822 3370,3822 3365,3819 3361,3818 3357,3819 L 2428,4001 C 2422,4001 2416,4006 2415,4012 2415,4013 2415,4014 2415,4015 2415,4020 2417,4024 2423,4027 2423,4027 2769,4228 2796,4244 2777,4267 2539,4563 2539,4563 2537,4566 2536,4569 2536,4572 2536,4573 2537,4575 2537,4576 2539,4581 2543,4585 2548,4586 2548,4586 2784,4650 2806,4656 2806,4677 2807,5159 2807,5159 2807,5165 2813,5171 2820,5174 L 3817,5429 C 3820,5431 3824,5431 3827,5430 L 4712,5217 C 4719,5214 4725,5209 4725,5202 4725,5202 4728,4686 4728,4666 4750,4659 5002,4586 5002,4586 5008,4584 5011,4580 5013,4576 5014,4574 5014,4573 5014,4572 5014,4568 5012,4564 5010,4562 5010,4562 4758,4306 4738,4286 4762,4267 5065,4041 5065,4041 5070,4038 5071,4034 5071,4030 5071,4029 5071,4027 5071,4027 5070,4021 5064,4017 5058,4015 L 4107,3809 C 4102,3809 4098,3809 4093,3812 4093,3812 3744,4016 3725,4027 Z"/>
          <path fill="rgb(153,116,72)" stroke="none" d="M 4084,3799 L 3725,4008 3380,3809 C 3373,3805 3367,3804 3360,3804 3357,3804 3355,3804 3352,3805 L 2424,3985 C 2410,3988 2400,3997 2397,4009 2395,4021 2401,4033 2412,4040 L 2772,4248 2525,4554 C 2519,4562 2517,4572 2521,4581 2524,4590 2533,4597 2543,4600 L 2789,4667 2790,5159 C 2790,5172 2800,5184 2814,5187 L 3812,5444 C 3816,5445 3818,5445 3822,5445 3825,5445 3828,5445 3831,5444 L 4717,5231 C 4732,5227 4742,5216 4742,5202 L 4746,4677 5008,4600 C 5018,4597 5026,4589 5030,4579 5033,4570 5030,4560 5023,4552 L 4762,4287 5077,4053 C 5087,4045 5091,4033 5088,4023 5086,4012 5076,4003 5063,4001 L 4111,3795 C 4108,3794 4106,3794 4103,3794 4096,3794 4089,3796 4084,3799 Z M 4103,3824 L 5055,4030 4713,4284 4996,4572 4711,4654 4708,5202 3822,5415 2825,5159 2824,4645 2554,4572 2801,4265 2821,4241 2431,4015 3360,3834 3726,4045 4103,3824 Z"/>
         </g>
         <defs>
          <clipPath id="clip_path_2" clipPathUnits="userSpaceOnUse">
           <path d="M 3824,4486 L 3822,5415 2825,5159 2823,4241 3824,4486 Z"/>
          </clipPath>
         </defs>
         <g clip-path="url(#clip_path_2)">
          <path fill="rgb(193,142,78)" stroke="none" d="M 3550,3954 L 3677,4199 2554,4632 2427,4387 3550,3954 Z"/>
          <path fill="rgb(193,142,78)" stroke="none" d="M 3671,4188 L 3685,4215 2561,4648 2547,4621 3671,4188 Z"/>
          <path fill="rgb(194,143,79)" stroke="none" d="M 3678,4204 L 3693,4231 2569,4664 2555,4637 3678,4204 Z"/>
          <path fill="rgb(194,143,79)" stroke="none" d="M 3686,4219 L 3701,4246 2577,4679 2563,4652 3686,4219 Z"/>
          <path fill="rgb(195,144,80)" stroke="none" d="M 3694,4235 L 3709,4262 2585,4695 2571,4668 3694,4235 Z"/>
          <path fill="rgb(195,144,80)" stroke="none" d="M 3702,4251 L 3717,4277 2593,4710 2579,4683 3702,4251 Z"/>
          <path fill="rgb(195,145,81)" stroke="none" d="M 3710,4266 L 3724,4293 2601,4726 2587,4700 3710,4266 Z"/>
          <path fill="rgb(195,145,83)" stroke="none" d="M 3719,4282 L 3732,4309 2609,4742 2596,4715 3719,4282 Z"/>
          <path fill="rgb(196,146,83)" stroke="none" d="M 3726,4297 L 3740,4325 2617,4758 2603,4731 3726,4297 Z"/>
          <path fill="rgb(197,146,84)" stroke="none" d="M 3735,4313 L 3749,4340 2626,4773 2612,4746 3735,4313 Z"/>
          <path fill="rgb(197,146,84)" stroke="none" d="M 3743,4329 L 3757,4355 2634,4789 2620,4761 3743,4329 Z"/>
          <path fill="rgb(198,147,85)" stroke="none" d="M 3751,4345 L 3765,4371 2642,4804 2628,4778 3751,4345 Z"/>
          <path fill="rgb(198,147,85)" stroke="none" d="M 3759,4360 L 3773,4387 2650,4820 2636,4793 3759,4360 Z"/>
          <path fill="rgb(198,148,86)" stroke="none" d="M 3767,4376 L 3781,4403 2658,4836 2644,4809 3767,4376 Z"/>
          <path fill="rgb(198,148,87)" stroke="none" d="M 3775,4391 L 3789,4418 2666,4852 2652,4824 3775,4391 Z"/>
          <path fill="rgb(199,149,87)" stroke="none" d="M 3784,4407 L 3797,4434 2674,4867 2661,4840 3784,4407 Z"/>
          <path fill="rgb(200,150,88)" stroke="none" d="M 3792,4423 L 3805,4449 2682,4883 2669,4856 3792,4423 Z"/>
          <path fill="rgb(200,150,88)" stroke="none" d="M 3800,4439 L 3814,4466 2691,4898 2676,4871 3800,4439 Z"/>
          <path fill="rgb(201,151,89)" stroke="none" d="M 3808,4454 L 3822,4481 2699,4914 2684,4887 3808,4454 Z"/>
          <path fill="rgb(201,151,91)" stroke="none" d="M 3816,4469 L 3829,4497 2707,4930 2692,4902 3816,4469 Z"/>
          <path fill="rgb(201,152,91)" stroke="none" d="M 3824,4485 L 3838,4512 2714,4945 2700,4918 3824,4485 Z"/>
          <path fill="rgb(201,152,92)" stroke="none" d="M 3831,4501 L 3846,4528 2722,4961 2708,4934 3831,4501 Z"/>
          <path fill="rgb(202,153,92)" stroke="none" d="M 3839,4517 L 3854,4544 2730,4976 2716,4949 3839,4517 Z"/>
          <path fill="rgb(203,153,93)" stroke="none" d="M 3847,4532 L 3862,4560 2738,4992 2724,4965 3847,4532 Z"/>
          <path fill="rgb(203,153,93)" stroke="none" d="M 3856,4547 L 3870,4575 2746,5008 2733,4980 3856,4547 Z"/>
          <path fill="rgb(204,154,94)" stroke="none" d="M 3863,4563 L 3877,4590 2754,5023 2740,4996 3863,4563 Z"/>
          <path fill="rgb(204,154,95)" stroke="none" d="M 3872,4579 L 3886,4606 2763,5039 2749,5012 3872,4579 Z"/>
          <path fill="rgb(204,155,95)" stroke="none" d="M 3880,4595 L 3894,4622 2771,5054 2757,5028 3880,4595 Z"/>
          <path fill="rgb(204,155,96)" stroke="none" d="M 3888,4610 L 3902,4638 2779,5070 2765,5043 3888,4610 Z"/>
          <path fill="rgb(205,156,96)" stroke="none" d="M 3896,4625 L 3910,4653 2787,5086 2773,5059 3896,4625 Z"/>
          <path fill="rgb(206,157,97)" stroke="none" d="M 3904,4641 L 3918,4669 2795,5101 2781,5074 3904,4641 Z"/>
          <path fill="rgb(206,157,98)" stroke="none" d="M 3912,4657 L 3926,4684 2803,5117 2789,5090 3912,4657 Z"/>
          <path fill="rgb(207,158,98)" stroke="none" d="M 3921,4673 L 3934,4700 2811,5132 2798,5106 3921,4673 Z"/>
          <path fill="rgb(207,158,99)" stroke="none" d="M 3929,4688 L 3942,4716 2819,5148 2806,5121 3929,4688 Z"/>
          <path fill="rgb(207,159,99)" stroke="none" d="M 3937,4704 L 3951,4731 2828,5164 2814,5137 3937,4704 Z"/>
          <path fill="rgb(207,159,100)" stroke="none" d="M 3945,4719 L 3959,4747 2836,5180 2822,5152 3945,4719 Z"/>
          <path fill="rgb(208,159,100)" stroke="none" d="M 3953,4735 L 3966,4762 2843,5195 2829,5168 3953,4735 Z"/>
          <path fill="rgb(209,160,101)" stroke="none" d="M 3961,4751 L 3975,4778 2852,5210 2837,5184 3961,4751 Z"/>
          <path fill="rgb(209,160,103)" stroke="none" d="M 3969,4767 L 3983,4794 2860,5226 2845,5200 3969,4767 Z"/>
          <path fill="rgb(210,161,103)" stroke="none" d="M 3977,4782 L 3991,4809 2868,5242 2853,5215 3977,4782 Z"/>
          <path fill="rgb(210,161,104)" stroke="none" d="M 3984,4797 L 3999,4825 2875,5258 2861,5231 3984,4797 Z"/>
          <path fill="rgb(210,162,104)" stroke="none" d="M 3993,4813 L 4007,4840 2883,5273 2870,5246 3993,4813 Z"/>
          <path fill="rgb(210,162,105)" stroke="none" d="M 4000,4829 L 4015,4856 2891,5289 2877,5262 4000,4829 Z"/>
          <path fill="rgb(211,163,106)" stroke="none" d="M 4009,4845 L 4023,4872 2900,5305 2886,5278 4009,4845 Z"/>
          <path fill="rgb(212,164,106)" stroke="none" d="M 4017,4860 L 4031,4887 2908,5321 2894,5294 4017,4860 Z"/>
          <path fill="rgb(212,164,107)" stroke="none" d="M 4025,4876 L 4039,4903 2916,5336 2902,5309 4025,4876 Z"/>
          <path fill="rgb(213,164,107)" stroke="none" d="M 4033,4892 L 4047,4918 2924,5352 2910,5324 4033,4892 Z"/>
          <path fill="rgb(213,164,108)" stroke="none" d="M 4041,4908 L 4055,4934 2932,5367 2918,5340 4041,4908 Z"/>
          <path fill="rgb(213,165,108)" stroke="none" d="M 4049,4923 L 4063,4950 2940,5383 2926,5356 4049,4923 Z"/>
          <path fill="rgb(213,165,109)" stroke="none" d="M 4058,4939 L 4071,4966 2948,5399 2935,5372 4058,4939 Z"/>
          <path fill="rgb(214,166,110)" stroke="none" d="M 4066,4954 L 4079,4981 2956,5415 2943,5387 4066,4954 Z"/>
          <path fill="rgb(215,167,110)" stroke="none" d="M 4073,4970 L 4087,4997 2965,5430 2951,5402 4073,4970 Z"/>
          <path fill="rgb(215,167,111)" stroke="none" d="M 4082,4986 L 4096,5012 2973,5445 2959,5418 4082,4986 Z"/>
          <path fill="rgb(215,168,111)" stroke="none" d="M 4090,5001 L 4103,5028 2980,5461 2967,5434 4090,5001 Z"/>
          <path fill="rgb(215,168,112)" stroke="none" d="M 4098,5017 L 4112,5044 2989,5477 2975,5450 4098,5017 Z"/>
          <path fill="rgb(216,169,113)" stroke="none" d="M 4106,5032 L 4120,5060 2997,5493 2982,5465 4106,5032 Z"/>
          <path fill="rgb(216,169,113)" stroke="none" d="M 4114,5048 L 4128,5075 3005,5508 2990,5481 4114,5048 Z"/>
          <path fill="rgb(217,169,114)" stroke="none" d="M 4122,5064 L 4136,5091 3013,5524 2998,5496 4122,5064 Z"/>
          <path fill="rgb(218,170,114)" stroke="none" d="M 4130,5080 L 4144,5106 3021,5539 3007,5512 4130,5080 Z"/>
          <path fill="rgb(218,170,115)" stroke="none" d="M 4138,5095 L 4152,5122 3028,5555 3014,5528 4138,5095 Z"/>
          <path fill="rgb(218,171,115)" stroke="none" d="M 4146,5110 L 4160,5138 3037,5571 3023,5543 4146,5110 Z"/>
          <path fill="rgb(218,171,116)" stroke="none" d="M 4154,5126 L 4168,5153 3044,5586 3031,5559 4154,5126 Z"/>
          <path fill="rgb(219,172,117)" stroke="none" d="M 4162,5142 L 4176,5169 3053,5602 3039,5574 4162,5142 Z"/>
          <path fill="rgb(219,172,117)" stroke="none" d="M 4170,5158 L 4184,5184 3061,5617 3047,5591 4170,5158 Z"/>
          <path fill="rgb(220,173,118)" stroke="none" d="M 4178,5173 L 4192,5200 3069,5633 3055,5606 4178,5173 Z"/>
          <path fill="rgb(220,173,118)" stroke="none" d="M 4186,5188 L 4200,5216 3077,5649 3063,5622 4186,5188 Z"/>
          <path fill="rgb(220,173,119)" stroke="none" d="M 4195,5204 L 4208,5232 3085,5664 3072,5637 4195,5204 Z"/>
          <path fill="rgb(221,174,120)" stroke="none" d="M 4203,5220 L 4216,5247 3093,5680 3079,5653 4203,5220 Z"/>
          <path fill="rgb(221,174,120)" stroke="none" d="M 4210,5236 L 4224,5262 3101,5695 3087,5669 4210,5236 Z"/>
          <path fill="rgb(222,175,121)" stroke="none" d="M 4219,5251 L 4233,5279 3110,5711 3096,5684 4219,5251 Z"/>
          <path fill="rgb(222,175,121)" stroke="none" d="M 4227,5267 L 4240,5294 3117,5727 3104,5700 4227,5267 Z"/>
          <path fill="rgb(223,176,122)" stroke="none" d="M 4235,5282 L 4249,5310 3126,5742 3112,5715 4235,5282 Z"/>
          <path fill="rgb(223,177,122)" stroke="none" d="M 4243,5298 L 4257,5325 3134,5758 3120,5731 4243,5298 Z"/>
          <path fill="rgb(223,177,123)" stroke="none" d="M 4251,5314 L 4265,5340 3142,5773 3128,5747 4251,5314 Z"/>
          <path fill="rgb(224,177,124)" stroke="none" d="M 4259,5329 L 4273,5357 3150,5789 3135,5763 4259,5329 Z"/>
          <path fill="rgb(224,177,124)" stroke="none" d="M 4268,5345 L 4281,5372 3158,5805 3144,5778 4268,5345 Z"/>
          <path fill="rgb(225,178,125)" stroke="none" d="M 4275,5360 L 4289,5388 3166,5821 3151,5794 4275,5360 Z"/>
          <path fill="rgb(225,178,125)" stroke="none" d="M 4283,5376 L 4298,5403 3174,5836 3160,5809 4283,5376 Z"/>
         </g>
         <defs>
          <clipPath id="clip_path_3" clipPathUnits="userSpaceOnUse">
           <path d="M 3824,4486 L 4713,4282 4708,5202 3822,5415 3824,4486 Z"/>
          </clipPath>
         </defs>
         <g clip-path="url(#clip_path_3)">
          <path fill="rgb(193,142,78)" stroke="none" d="M 4499,4040 L 4583,4135 3388,4924 3304,4828 4499,4040 Z"/>
          <path fill="rgb(193,142,78)" stroke="none" d="M 4581,4133 L 4592,4145 3396,4934 3386,4922 4581,4133 Z"/>
          <path fill="rgb(194,143,79)" stroke="none" d="M 4590,4143 L 4601,4154 3405,4944 3395,4932 4590,4143 Z"/>
          <path fill="rgb(194,143,79)" stroke="none" d="M 4599,4152 L 4609,4164 3414,4953 3403,4941 4599,4152 Z"/>
          <path fill="rgb(195,144,80)" stroke="none" d="M 4607,4162 L 4618,4174 3422,4963 3412,4951 4607,4162 Z"/>
          <path fill="rgb(195,144,80)" stroke="none" d="M 4616,4172 L 4626,4183 3431,4973 3420,4960 4616,4172 Z"/>
          <path fill="rgb(195,145,81)" stroke="none" d="M 4624,4181 L 4635,4193 3440,4982 3429,4970 4624,4181 Z"/>
          <path fill="rgb(195,145,83)" stroke="none" d="M 4633,4191 L 4643,4202 3448,4992 3437,4979 4633,4191 Z"/>
          <path fill="rgb(196,146,83)" stroke="none" d="M 4642,4201 L 4651,4212 3457,5002 3446,4989 4642,4201 Z"/>
          <path fill="rgb(197,146,84)" stroke="none" d="M 4650,4210 L 4660,4222 3464,5011 3454,4999 4650,4210 Z"/>
          <path fill="rgb(197,146,84)" stroke="none" d="M 4658,4220 L 4669,4231 3473,5021 3463,5009 4658,4220 Z"/>
          <path fill="rgb(198,147,85)" stroke="none" d="M 4667,4229 L 4677,4241 3482,5031 3472,5018 4667,4229 Z"/>
          <path fill="rgb(198,147,85)" stroke="none" d="M 4675,4239 L 4686,4251 3490,5040 3480,5028 4675,4239 Z"/>
          <path fill="rgb(198,148,86)" stroke="none" d="M 4684,4249 L 4694,4261 3499,5050 3488,5038 4684,4249 Z"/>
          <path fill="rgb(198,148,87)" stroke="none" d="M 4692,4258 L 4703,4270 3508,5059 3497,5048 4692,4258 Z"/>
          <path fill="rgb(199,149,87)" stroke="none" d="M 4701,4268 L 4711,4280 3516,5069 3505,5057 4701,4268 Z"/>
          <path fill="rgb(200,150,88)" stroke="none" d="M 4710,4277 L 4719,4290 3525,5079 3514,5067 4710,4277 Z"/>
          <path fill="rgb(200,150,88)" stroke="none" d="M 4718,4287 L 4728,4299 3533,5088 3522,5077 4718,4287 Z"/>
          <path fill="rgb(201,151,89)" stroke="none" d="M 4727,4296 L 4737,4309 3541,5098 3531,5086 4727,4296 Z"/>
          <path fill="rgb(201,151,91)" stroke="none" d="M 4735,4306 L 4745,4319 3550,5107 3540,5096 4735,4306 Z"/>
          <path fill="rgb(201,152,91)" stroke="none" d="M 4743,4316 L 4754,4328 3558,5117 3548,5105 4743,4316 Z"/>
          <path fill="rgb(201,152,92)" stroke="none" d="M 4752,4326 L 4762,4338 3567,5126 3556,5115 4752,4326 Z"/>
          <path fill="rgb(202,153,92)" stroke="none" d="M 4760,4335 L 4771,4348 3576,5136 3565,5125 4760,4335 Z"/>
          <path fill="rgb(203,153,93)" stroke="none" d="M 4769,4345 L 4780,4357 3584,5146 3573,5134 4769,4345 Z"/>
          <path fill="rgb(203,153,93)" stroke="none" d="M 4778,4355 L 4788,4367 3593,5155 3582,5144 4778,4355 Z"/>
          <path fill="rgb(204,154,94)" stroke="none" d="M 4786,4365 L 4796,4376 3601,5165 3590,5153 4786,4365 Z"/>
          <path fill="rgb(204,154,95)" stroke="none" d="M 4795,4374 L 4805,4386 3610,5175 3599,5163 4795,4374 Z"/>
          <path fill="rgb(204,155,95)" stroke="none" d="M 4803,4384 L 4813,4395 3618,5184 3608,5173 4803,4384 Z"/>
          <path fill="rgb(204,155,96)" stroke="none" d="M 4811,4394 L 4822,4405 3626,5194 3617,5182 4811,4394 Z"/>
          <path fill="rgb(205,156,96)" stroke="none" d="M 4820,4403 L 4830,4414 3635,5204 3625,5192 4820,4403 Z"/>
          <path fill="rgb(206,157,97)" stroke="none" d="M 4828,4413 L 4839,4424 3644,5213 3633,5202 4828,4413 Z"/>
          <path fill="rgb(206,157,98)" stroke="none" d="M 4837,4422 L 4848,4434 3652,5223 3641,5211 4837,4422 Z"/>
          <path fill="rgb(207,158,98)" stroke="none" d="M 4846,4432 L 4856,4443 3661,5233 3650,5221 4846,4432 Z"/>
          <path fill="rgb(207,158,99)" stroke="none" d="M 4854,4442 L 4864,4453 3669,5243 3658,5230 4854,4442 Z"/>
          <path fill="rgb(207,159,99)" stroke="none" d="M 4863,4451 L 4873,4463 3678,5252 3667,5240 4863,4451 Z"/>
          <path fill="rgb(207,159,100)" stroke="none" d="M 4872,4461 L 4882,4472 3686,5262 3676,5250 4872,4461 Z"/>
          <path fill="rgb(208,159,100)" stroke="none" d="M 4880,4471 L 4890,4482 3694,5271 3685,5259 4880,4471 Z"/>
          <path fill="rgb(209,160,101)" stroke="none" d="M 4888,4480 L 4899,4492 3703,5281 3693,5269 4888,4480 Z"/>
          <path fill="rgb(209,160,103)" stroke="none" d="M 4896,4490 L 4907,4501 3712,5291 3701,5279 4896,4490 Z"/>
          <path fill="rgb(210,161,103)" stroke="none" d="M 4905,4500 L 4916,4511 3720,5300 3709,5288 4905,4500 Z"/>
          <path fill="rgb(210,161,104)" stroke="none" d="M 4914,4509 L 4924,4521 3729,5310 3718,5298 4914,4509 Z"/>
          <path fill="rgb(210,162,104)" stroke="none" d="M 4922,4519 L 4933,4531 3737,5320 3726,5308 4922,4519 Z"/>
          <path fill="rgb(210,162,105)" stroke="none" d="M 4931,4528 L 4941,4540 3746,5329 3735,5318 4931,4528 Z"/>
          <path fill="rgb(211,163,106)" stroke="none" d="M 4940,4538 L 4950,4550 3755,5339 3744,5327 4940,4538 Z"/>
          <path fill="rgb(212,164,106)" stroke="none" d="M 4948,4547 L 4958,4560 3763,5349 3753,5337 4948,4547 Z"/>
          <path fill="rgb(212,164,107)" stroke="none" d="M 4956,4557 L 4967,4569 3771,5358 3761,5347 4956,4557 Z"/>
          <path fill="rgb(213,164,107)" stroke="none" d="M 4964,4566 L 4975,4579 3780,5368 3770,5356 4964,4566 Z"/>
          <path fill="rgb(213,164,108)" stroke="none" d="M 4973,4576 L 4984,4589 3788,5377 3778,5366 4973,4576 Z"/>
          <path fill="rgb(213,165,108)" stroke="none" d="M 4982,4586 L 4992,4598 3797,5387 3786,5376 4982,4586 Z"/>
          <path fill="rgb(213,165,109)" stroke="none" d="M 4990,4596 L 5001,4608 3805,5396 3794,5385 4990,4596 Z"/>
          <path fill="rgb(214,166,110)" stroke="none" d="M 4999,4605 L 5010,4618 3814,5406 3803,5395 4999,4605 Z"/>
          <path fill="rgb(215,167,110)" stroke="none" d="M 5008,4615 L 5018,4627 3823,5415 3812,5404 5008,4615 Z"/>
          <path fill="rgb(215,167,111)" stroke="none" d="M 5016,4625 L 5026,4637 3831,5425 3821,5414 5016,4625 Z"/>
          <path fill="rgb(215,168,111)" stroke="none" d="M 5025,4635 L 5035,4646 3839,5435 3829,5423 5025,4635 Z"/>
          <path fill="rgb(215,168,112)" stroke="none" d="M 5033,4644 L 5043,4656 3848,5445 3838,5433 5033,4644 Z"/>
          <path fill="rgb(216,169,113)" stroke="none" d="M 5041,4654 L 5052,4665 3856,5454 3846,5443 5041,4654 Z"/>
          <path fill="rgb(216,169,113)" stroke="none" d="M 5050,4664 L 5060,4675 3865,5464 3854,5452 5050,4664 Z"/>
          <path fill="rgb(217,169,114)" stroke="none" d="M 5058,4673 L 5069,4684 3873,5474 3862,5462 5058,4673 Z"/>
          <path fill="rgb(218,170,114)" stroke="none" d="M 5067,4683 L 5078,4694 3882,5483 3871,5472 5067,4683 Z"/>
          <path fill="rgb(218,170,115)" stroke="none" d="M 5076,4692 L 5086,4704 3891,5493 3880,5481 5076,4692 Z"/>
          <path fill="rgb(218,171,115)" stroke="none" d="M 5084,4702 L 5094,4713 3899,5503 3889,5491 5084,4702 Z"/>
          <path fill="rgb(218,171,116)" stroke="none" d="M 5093,4711 L 5103,4723 3908,5513 3897,5501 5093,4711 Z"/>
          <path fill="rgb(219,172,117)" stroke="none" d="M 5101,4721 L 5111,4733 3916,5522 3906,5510 5101,4721 Z"/>
          <path fill="rgb(219,172,117)" stroke="none" d="M 5109,4731 L 5120,4742 3924,5532 3915,5520 5109,4731 Z"/>
          <path fill="rgb(220,173,118)" stroke="none" d="M 5118,4740 L 5128,4752 3933,5541 3923,5529 5118,4740 Z"/>
          <path fill="rgb(220,173,118)" stroke="none" d="M 5126,4750 L 5137,4762 3941,5551 3931,5539 5126,4750 Z"/>
          <path fill="rgb(220,173,119)" stroke="none" d="M 5135,4760 L 5146,4771 3950,5561 3939,5548 5135,4760 Z"/>
          <path fill="rgb(221,174,120)" stroke="none" d="M 5144,4769 L 5155,4781 3959,5570 3948,5558 5144,4769 Z"/>
          <path fill="rgb(221,174,120)" stroke="none" d="M 5152,4779 L 5163,4791 3967,5580 3957,5568 5152,4779 Z"/>
          <path fill="rgb(222,175,121)" stroke="none" d="M 5161,4789 L 5171,4800 3976,5590 3965,5578 5161,4789 Z"/>
          <path fill="rgb(222,175,121)" stroke="none" d="M 5169,4798 L 5179,4810 3984,5599 3974,5587 5169,4798 Z"/>
          <path fill="rgb(223,176,122)" stroke="none" d="M 5178,4808 L 5188,4820 3992,5609 3983,5597 5178,4808 Z"/>
          <path fill="rgb(223,177,122)" stroke="none" d="M 5186,4817 L 5196,4830 4001,5619 3991,5607 5186,4817 Z"/>
          <path fill="rgb(223,177,123)" stroke="none" d="M 5194,4827 L 5205,4839 4009,5628 4000,5617 5194,4827 Z"/>
          <path fill="rgb(224,177,124)" stroke="none" d="M 5203,4836 L 5214,4849 4018,5638 4007,5626 5203,4836 Z"/>
          <path fill="rgb(224,177,124)" stroke="none" d="M 5212,4846 L 5223,4858 4027,5647 4016,5636 5212,4846 Z"/>
          <path fill="rgb(225,178,125)" stroke="none" d="M 5220,4856 L 5231,4868 4035,5657 4025,5646 5220,4856 Z"/>
          <path fill="rgb(225,178,125)" stroke="none" d="M 5229,4866 L 5239,4878 4044,5666 4033,5655 5229,4866 Z"/>
         </g>
         <path fill="rgb(225,179,125)" stroke="none" d="M 3843,4536 L 3843,5410 C 3843,5410 3834,5415 3819,5415 3804,5414 3797,5410 3787,5406 3787,5405 3787,4691 3787,4522 3800,4496 3804,4486 3804,4486 L 3817,4486 3843,4536 Z"/>
         <path fill="rgb(225,179,125)" stroke="none" d="M 2539,4563 C 2536,4566 2535,4572 2537,4576 2539,4581 2543,4585 2548,4586 L 3616,4877 C 3625,4879 3633,4875 3637,4869 L 3823,4487 C 3825,4483 3825,4479 3823,4475 3821,4471 3816,4468 3812,4467 L 2825,4226 C 2818,4225 2810,4227 2806,4232 L 2539,4563 Z"/>
         <path fill="rgb(153,116,72)" stroke="none" d="M 2792,4223 L 2525,4554 C 2519,4562 2516,4572 2521,4581 2524,4590 2533,4597 2543,4600 L 3610,4891 C 3614,4892 3617,4892 3621,4892 3635,4892 3648,4885 3654,4874 L 3839,4493 C 3843,4485 3843,4476 3839,4469 3834,4460 3826,4455 3816,4453 L 2830,4212 C 2827,4211 2823,4210 2821,4210 2809,4210 2799,4215 2792,4223 Z M 2554,4572 L 2821,4241 3807,4481 3621,4862 2554,4572 Z"/>
         <path fill="rgb(225,179,125)" stroke="none" d="M 3807,4481 L 2821,4241 2554,4572 3621,4862 3807,4481 Z"/>
         <path fill="rgb(225,179,125)" stroke="none" d="M 3811,4474 C 3806,4475 3801,4479 3800,4483 3797,4487 3798,4492 3801,4496 L 4035,4855 C 4039,4861 4048,4864 4056,4862 L 5002,4586 C 5008,4584 5011,4580 5013,4576 5015,4571 5013,4566 5010,4562 L 4727,4274 C 4722,4270 4715,4268 4709,4270 L 3811,4474 Z"/>
         <path fill="rgb(153,116,72)" stroke="none" d="M 4704,4255 L 3807,4459 C 3796,4462 3787,4469 3784,4477 3779,4485 3780,4495 3786,4504 L 4021,4862 C 4027,4872 4038,4878 4051,4878 4054,4878 4058,4877 4061,4876 L 5008,4600 C 5018,4597 5026,4589 5030,4579 5033,4570 5030,4560 5023,4552 L 4740,4265 C 4734,4258 4723,4254 4713,4254 4711,4254 4708,4254 4704,4255 Z M 3816,4488 L 4713,4284 4996,4572 4051,4847 3816,4488 Z"/>
         <path fill="rgb(225,179,125)" stroke="none" d="M 4713,4284 L 3816,4488 4051,4847 4996,4572 4713,4284 Z"/>
         <path fill="rgb(225,179,125)" stroke="none" d="M 2821,4241 L 3726,4045 3360,3834 2431,4015 2821,4241 Z"/>
         <defs>
          <mask id="mask1">
           <g>
            <defs>
             <linearGradient id="gradient1" x1="3743" y1="3794" x2="3743" y2="5445" gradientUnits="userSpaceOnUse">
              <stop offset="0.5" style="stop-color:rgb(217,217,217)"/>
              <stop offset="0.5" style="stop-color:rgb(217,217,217)"/>
              <stop offset="1" style="stop-color:rgb(217,217,217)"/>
              <stop offset="1" style="stop-color:rgb(217,217,217)"/>
             </linearGradient>
            </defs>
            <path style="fill:url(#gradient1)" d="M 2397,3794 L 5089,3794 5089,5445 2397,5445 2397,3794 Z"/>
           </g>
          </mask>
         </defs>
         <g style="mask:url(#mask1)">
          <defs>
           <clipPath id="clip_path_4" clipPathUnits="userSpaceOnUse">
            <path d="M 2397,3794 L 5089,3794 5089,5445 2397,5445 2397,3794 Z"/>
           </clipPath>
          </defs>
          <g clip-path="url(#clip_path_4)">
           <path fill="rgb(255,255,255)" stroke="none" d="M 2821,4240 L 3727,4044 3360,3833 2432,4015 2821,4240 Z"/>
          </g>
         </g>
         <path fill="rgb(169,129,75)" stroke="none" d="M 4713,4283 L 3824,4486 2823,4241 3712,4042 4713,4283 Z"/>
         <path fill="rgb(225,179,125)" stroke="none" d="M 3726,4045 L 4103,3824 5055,4030 4713,4284 3726,4045 Z"/>
         <defs>
          <mask id="mask2">
           <g>
            <defs>
             <linearGradient id="gradient2" x1="3743" y1="3794" x2="3743" y2="5445" gradientUnits="userSpaceOnUse">
              <stop offset="0.5" style="stop-color:rgb(217,217,217)"/>
              <stop offset="0.5" style="stop-color:rgb(217,217,217)"/>
              <stop offset="1" style="stop-color:rgb(217,217,217)"/>
              <stop offset="1" style="stop-color:rgb(217,217,217)"/>
             </linearGradient>
            </defs>
            <path style="fill:url(#gradient2)" d="M 2397,3794 L 5089,3794 5089,5445 2397,5445 2397,3794 Z"/>
           </g>
          </mask>
         </defs>
         <g style="mask:url(#mask2)">
          <defs>
           <clipPath id="clip_path_5" clipPathUnits="userSpaceOnUse">
            <path d="M 2397,3794 L 5089,3794 5089,5445 2397,5445 2397,3794 Z"/>
           </clipPath>
          </defs>
          <g clip-path="url(#clip_path_5)">
           <path fill="rgb(255,255,255)" stroke="none" d="M 3727,4044 L 4103,3823 5055,4029 4714,4284 3727,4044 Z"/>
          </g>
         </g>
         <path fill="rgb(225,179,125)" stroke="none" d="M 3807,4481 L 2821,4241 2554,4572 3621,4862 3807,4481 Z"/>
         <path fill="rgb(187,141,92)" stroke="none" d="M 2823,4241 L 3726,4045 3726,4462 2823,4241 Z"/>
         <path fill="rgb(255,255,255)" stroke="none" d="M 3950,5269 C 3950,5282 3962,5289 3976,5286 L 4244,5222 C 4258,5218 4270,5205 4270,5192 L 4271,5073 C 4271,5061 4260,5053 4245,5056 L 3974,5114 C 3960,5117 3948,5130 3948,5142 L 3950,5269 Z"/>
         <path fill="none" stroke="rgb(255,241,192)" stroke-width="16" stroke-linejoin="miter" d="M 3950,5269 C 3950,5282 3962,5289 3976,5286 L 4244,5222 C 4258,5218 4270,5205 4270,5192 L 4271,5073 C 4271,5061 4260,5053 4245,5056 L 3974,5114 C 3960,5117 3948,5130 3948,5142 L 3950,5269 Z"/>
         <path fill="rgb(255,255,255)" stroke="none" d="M 4281,5281 L 3882,5379 3881,4937 4681,4742 4681,5183 4281,5281 Z"/>
         <path fill="rgb(0,0,0)" stroke="none" d="M 3939,5351 L 3935,5352 3935,4938 3943,4937 3943,5350 3939,5351 Z"/>
         <path fill="rgb(0,0,0)" stroke="none" d="M 3954,5347 L 3951,5348 3951,4934 3958,4933 3958,5346 3954,5347 Z"/>
         <path fill="rgb(0,0,0)" stroke="none" d="M 3985,5276 L 3981,5278 3981,4927 3989,4925 3989,5275 3985,5276 Z"/>
         <path fill="rgb(0,0,0)" stroke="none" d="M 4004,5272 L 3997,5274 3997,4924 4012,4920 4012,5270 4004,5272 Z"/>
         <path fill="rgb(0,0,0)" stroke="none" d="M 4023,5267 L 4020,5268 4020,4918 4027,4916 4028,5266 4023,5267 Z"/>
         <path fill="rgb(0,0,0)" stroke="none" d="M 4054,5259 L 4043,5262 4043,4912 4066,4906 4066,5256 4054,5259 Z"/>
         <path fill="rgb(0,0,0)" stroke="none" d="M 4081,5253 L 4074,5255 4074,4905 4089,4901 4089,5251 4081,5253 Z"/>
         <path fill="rgb(0,0,0)" stroke="none" d="M 4112,5246 L 4104,5247 4104,4897 4120,4893 4120,5243 4112,5246 Z"/>
         <path fill="rgb(0,0,0)" stroke="none" d="M 4138,5239 L 4135,5240 4135,4889 4143,4888 4143,5238 4138,5239 Z"/>
         <path fill="rgb(0,0,0)" stroke="none" d="M 4166,5232 L 4158,5234 4158,4884 4173,4880 4174,5230 4166,5232 Z"/>
         <path fill="rgb(0,0,0)" stroke="none" d="M 4197,5224 L 4181,5228 4181,4878 4212,4870 4212,5220 4197,5224 Z"/>
         <path fill="rgb(0,0,0)" stroke="none" d="M 4223,5218 L 4220,5219 4220,4869 4227,4867 4227,5217 4223,5218 Z"/>
         <path fill="rgb(0,0,0)" stroke="none" d="M 4254,5210 L 4243,5213 4243,4863 4266,4857 4266,5207 4254,5210 Z"/>
         <path fill="rgb(0,0,0)" stroke="none" d="M 4277,5204 L 4273,5206 4273,4856 4281,4853 4281,5204 4277,5204 Z"/>
         <path fill="rgb(0,0,0)" stroke="none" d="M 4292,5264 L 4289,5265 4289,4852 4296,4849 4297,5263 4292,5264 Z"/>
         <path fill="rgb(0,0,0)" stroke="none" d="M 4308,5260 L 4304,5261 4304,4848 4312,4846 4312,5259 4308,5260 Z"/>
         <path fill="rgb(0,0,0)" stroke="none" d="M 4327,5192 L 4320,5194 4320,4844 4335,4840 4335,5191 4327,5192 Z"/>
         <path fill="rgb(0,0,0)" stroke="none" d="M 4358,5185 L 4350,5187 4350,4836 4366,4833 4366,5183 4358,5185 Z"/>
         <path fill="rgb(0,0,0)" stroke="none" d="M 4381,5179 L 4373,5181 4373,4831 4389,4827 4389,5178 4381,5179 Z"/>
         <path fill="rgb(0,0,0)" stroke="none" d="M 4404,5174 L 4396,5175 4396,4825 4412,4821 4412,5171 4404,5174 Z"/>
         <path fill="rgb(0,0,0)" stroke="none" d="M 4431,5167 L 4427,5168 4427,4817 4435,4816 4435,5166 4431,5167 Z"/>
         <path fill="rgb(0,0,0)" stroke="none" d="M 4469,5158 L 4466,5158 4466,4808 4473,4807 4473,5157 4469,5158 Z"/>
         <path fill="rgb(0,0,0)" stroke="none" d="M 4484,5154 L 4481,5155 4481,4804 4489,4803 4489,5153 4484,5154 Z"/>
         <path fill="rgb(0,0,0)" stroke="none" d="M 4507,5148 L 4496,5151 4496,4800 4519,4795 4519,5145 4507,5148 Z"/>
         <path fill="rgb(0,0,0)" stroke="none" d="M 4538,5141 L 4535,5142 4535,4791 4542,4789 4542,5139 4538,5141 Z"/>
         <path fill="rgb(0,0,0)" stroke="none" d="M 4569,5133 L 4558,5135 4558,4785 4581,4780 4581,5130 4569,5133 Z"/>
         <path fill="rgb(0,0,0)" stroke="none" d="M 4592,5127 L 4589,5128 4589,4778 4596,4776 4596,5126 4592,5127 Z"/>
         <path fill="rgb(0,0,0)" stroke="none" d="M 4623,5119 L 4619,5121 4619,4771 4627,4768 4627,5119 4623,5119 Z"/>
         <path fill="rgb(0,0,0)" stroke="none" d="M 4646,5177 L 4642,5178 4642,4765 4650,4763 4650,5176 4646,5177 Z"/>
         <path fill="rgb(0,0,0)" stroke="none" d="M 4661,5173 L 4658,5174 4658,4761 4665,4759 4665,5172 4661,5173 Z"/>
         <path fill="none" stroke="rgb(128,0,0)" d="M 2863,5113 L 2863,4766 3740,4995 3740,5342 2863,5113 Z"/>
         <path fill="rgb(128,0,0)" stroke="none" d="M 3123,5041 C 3127,5038 3129,5036 3131,5035 3133,5033 3135,5031 3136,5027 3137,5024 3138,5019 3138,5014 3138,4998 3131,4988 3117,4984 3112,4983 3108,4983 3104,4983 3099,4983 3094,4983 3088,4983 3082,4983 3078,4983 3077,4983 3075,4983 3075,4986 3075,4989 3075,4992 3075,4999 3075,5008 3076,5014 3076,5018 3076,5021 3077,5024 3077,5027 3078,5030 3079,5032 3080,5035 3080,5035 3081,5037 3082,5038 3084,5039 3086,5041 3088,5041 3089,5041 3091,5042 3094,5043 3097,5044 3098,5044 3099,5044 3101,5044 3102,5045 3104,5045 3104,5045 3108,5047 3111,5047 3112,5046 3114,5046 3118,5044 3123,5041 Z M 3126,4924 C 3126,4924 3126,4923 3125,4922 3124,4921 3122,4920 3119,4918 3116,4917 3112,4915 3107,4914 3100,4912 3093,4911 3085,4910 3076,4908 3071,4908 3069,4908 3067,4908 3067,4910 3067,4914 L 3067,4918 C 3067,4924 3068,4934 3069,4944 3071,4954 3073,4960 3074,4963 3074,4964 3074,4965 3075,4966 3079,4966 3085,4963 3097,4956 3107,4949 3115,4942 3120,4935 3124,4929 3126,4925 3126,4924 Z M 3037,4909 C 3027,4907 3021,4903 3021,4898 3021,4892 3036,4890 3063,4892 3074,4892 3090,4895 3112,4901 3116,4902 3120,4903 3121,4904 3124,4904 3126,4905 3128,4906 3130,4908 3132,4908 3133,4909 3133,4910 3135,4911 3138,4914 3141,4915 3143,4918 3143,4921 3144,4924 3145,4926 3145,4927 3145,4932 3143,4937 3142,4941 3139,4946 3137,4950 3135,4952 3132,4955 3129,4958 3126,4961 3123,4964 3121,4966 3120,4966 3125,4967 3130,4971 3137,4976 3144,4982 3149,4986 3151,4989 3155,4996 3158,5005 3158,5016 3158,5033 3151,5046 3140,5054 3128,5064 3116,5066 3105,5063 3103,5063 3100,5061 3097,5060 3094,5058 3092,5057 3090,5057 3089,5057 3086,5056 3082,5057 3077,5057 3074,5056 3072,5056 3069,5055 3066,5054 3065,5052 3062,5050 3061,5048 3059,5044 3059,5041 3058,5038 3057,5035 3056,5031 3056,5026 3055,5021 3055,5015 3054,5010 3054,5005 3053,5000 3053,4993 3052,4986 3051,4978 3051,4971 3050,4964 3048,4955 3046,4943 3045,4927 L 3043,4911 3037,4909 Z"/>
         <path fill="rgb(128,0,0)" stroke="none" d="M 3216,4999 C 3229,4992 3242,4989 3251,4989 3261,4988 3273,4989 3288,4993 3310,4999 3324,5009 3330,5021 3334,5028 3334,5036 3334,5045 3334,5060 3331,5074 3323,5087 3315,5100 3304,5107 3292,5110 3280,5113 3267,5113 3254,5109 3234,5103 3219,5094 3208,5082 3201,5073 3196,5065 3194,5060 3192,5054 3191,5047 3191,5038 3191,5021 3199,5008 3216,4999 Z M 3260,5093 C 3273,5096 3286,5092 3297,5080 3309,5069 3314,5054 3314,5035 3314,5032 3314,5031 3313,5030 3313,5028 3312,5028 3312,5027 3311,5026 3311,5025 3310,5025 3304,5019 3297,5015 3291,5014 3290,5014 3288,5013 3287,5013 3285,5013 3282,5012 3280,5012 3276,5012 3273,5011 3268,5010 3263,5009 3258,5009 3256,5009 3252,5010 3248,5012 3242,5014 3233,5018 3226,5023 3221,5028 3218,5033 3215,5039 3215,5046 3215,5057 3219,5066 3227,5074 3236,5083 3247,5090 3260,5093 Z"/>
         <path fill="rgb(128,0,0)" stroke="none" d="M 3388,5044 C 3401,5038 3412,5034 3422,5033 3432,5032 3444,5034 3459,5038 3481,5044 3495,5053 3502,5066 3504,5073 3506,5080 3506,5090 3506,5104 3503,5118 3494,5131 3486,5144 3476,5152 3464,5155 3451,5158 3439,5157 3425,5154 3405,5148 3390,5139 3380,5126 3372,5117 3367,5110 3365,5105 3363,5099 3362,5092 3362,5083 3362,5065 3371,5052 3388,5044 Z M 3432,5138 C 3445,5141 3457,5137 3468,5126 3480,5113 3486,5098 3486,5080 3486,5077 3485,5076 3485,5074 3484,5074 3484,5073 3483,5072 3483,5071 3482,5070 3480,5069 3475,5064 3469,5061 3462,5059 3461,5058 3460,5058 3458,5058 3457,5057 3454,5057 3450,5057 3447,5056 3443,5056 3440,5055 3434,5054 3430,5054 3426,5054 3423,5054 3419,5056 3414,5058 3404,5063 3397,5068 3393,5073 3388,5078 3387,5083 3387,5091 3387,5101 3391,5111 3399,5119 3408,5128 3418,5134 3432,5138 Z"/>
         <path fill="rgb(128,0,0)" stroke="none" d="M 3543,5009 C 3543,4999 3544,4991 3545,4986 3546,4981 3547,4978 3548,4976 3549,4976 3552,4975 3554,4976 3558,4977 3560,4979 3561,4982 3562,4985 3564,5003 3566,5038 3569,5071 3571,5104 3574,5135 3577,5168 3578,5184 3578,5184 3578,5190 3574,5191 3568,5190 3563,5188 3559,5184 3557,5178 3556,5171 3554,5154 3552,5125 3549,5094 3547,5067 3545,5044 3544,5032 3543,5021 3543,5009 Z"/>
        </g>
       </g>
       <g class="com.sun.star.drawing.TextShape">
        <g id="id4">
         <rect class="BoundingBox" stroke="none" fill="none" x="2397" y="3293" width="2668" height="1027"/>
         <text class="TextShape"><tspan class="TextParagraph" font-family="Liberation Sans, sans-serif" font-size="917px" font-weight="700"><tspan class="TextPosition" x="2759" y="4124"><tspan fill="rgb(0,128,0)" stroke="none">True</tspan></tspan></tspan></text>
        </g>
       </g>
      </g>
      <g class="Group">
       <g class="Graphic">
        <g id="id5">
         <rect class="BoundingBox" stroke="none" fill="none" x="5655" y="3794" width="2693" height="1652"/>
         <defs>
          <clipPath id="clip_path_6" clipPathUnits="userSpaceOnUse">
           <path d="M 5655,3794 L 8347,3794 8347,5445 5655,5445 5655,3794 Z"/>
          </clipPath>
         </defs>
         <g clip-path="url(#clip_path_6)">
          <path fill="rgb(225,179,125)" stroke="none" d="M 6983,4027 C 6965,4016 6628,3822 6628,3822 6623,3819 6619,3818 6615,3819 L 5686,4001 C 5680,4001 5674,4006 5673,4012 5673,4013 5673,4014 5673,4015 5673,4020 5675,4024 5681,4027 5681,4027 6027,4228 6054,4244 6035,4267 5797,4563 5797,4563 5795,4566 5794,4569 5794,4572 5794,4573 5795,4575 5795,4576 5797,4581 5801,4585 5806,4586 5806,4586 6042,4650 6064,4656 6064,4677 6065,5159 6065,5159 6065,5165 6071,5171 6078,5174 L 7075,5429 C 7078,5431 7082,5431 7085,5430 L 7970,5217 C 7977,5214 7983,5209 7983,5202 7983,5202 7986,4686 7986,4666 8008,4659 8260,4586 8260,4586 8266,4584 8269,4580 8271,4576 8272,4574 8272,4573 8272,4572 8272,4568 8270,4564 8268,4562 8268,4562 8016,4306 7996,4286 8020,4267 8323,4041 8323,4041 8328,4038 8329,4034 8329,4030 8329,4029 8329,4027 8329,4027 8328,4021 8322,4017 8316,4015 L 7365,3809 C 7360,3809 7356,3809 7351,3812 7351,3812 7002,4016 6983,4027 Z"/>
          <path fill="rgb(153,116,72)" stroke="none" d="M 7342,3799 L 6983,4008 6638,3809 C 6631,3805 6625,3804 6618,3804 6615,3804 6613,3804 6610,3805 L 5682,3985 C 5668,3988 5658,3997 5655,4009 5653,4021 5659,4033 5670,4040 L 6030,4248 5783,4554 C 5777,4562 5775,4572 5779,4581 5782,4590 5791,4597 5801,4600 L 6047,4667 6048,5159 C 6048,5172 6058,5184 6072,5187 L 7070,5444 C 7074,5445 7076,5445 7080,5445 7083,5445 7086,5445 7089,5444 L 7975,5231 C 7990,5227 8000,5216 8000,5202 L 8004,4677 8266,4600 C 8276,4597 8284,4589 8288,4579 8291,4570 8288,4560 8281,4552 L 8020,4287 8335,4053 C 8345,4045 8349,4033 8346,4023 8344,4012 8334,4003 8321,4001 L 7369,3795 C 7366,3794 7364,3794 7361,3794 7354,3794 7347,3796 7342,3799 Z M 7361,3824 L 8313,4030 7971,4284 8254,4572 7969,4654 7966,5202 7080,5415 6083,5159 6082,4645 5812,4572 6059,4265 6079,4241 5689,4015 6618,3834 6984,4045 7361,3824 Z"/>
         </g>
         <defs>
          <clipPath id="clip_path_7" clipPathUnits="userSpaceOnUse">
           <path d="M 7082,4486 L 7080,5415 6083,5159 6081,4241 7082,4486 Z"/>
          </clipPath>
         </defs>
         <g clip-path="url(#clip_path_7)">
          <path fill="rgb(193,142,78)" stroke="none" d="M 6808,3954 L 6935,4199 5812,4632 5685,4387 6808,3954 Z"/>
          <path fill="rgb(193,142,78)" stroke="none" d="M 6929,4188 L 6943,4215 5819,4648 5805,4621 6929,4188 Z"/>
          <path fill="rgb(194,143,79)" stroke="none" d="M 6936,4204 L 6951,4231 5827,4664 5813,4637 6936,4204 Z"/>
          <path fill="rgb(194,143,79)" stroke="none" d="M 6944,4219 L 6959,4246 5835,4679 5821,4652 6944,4219 Z"/>
          <path fill="rgb(195,144,80)" stroke="none" d="M 6952,4235 L 6967,4262 5843,4695 5829,4668 6952,4235 Z"/>
          <path fill="rgb(195,144,80)" stroke="none" d="M 6960,4251 L 6975,4277 5851,4710 5837,4683 6960,4251 Z"/>
          <path fill="rgb(195,145,81)" stroke="none" d="M 6968,4266 L 6982,4293 5859,4726 5845,4700 6968,4266 Z"/>
          <path fill="rgb(195,145,83)" stroke="none" d="M 6977,4282 L 6990,4309 5867,4742 5854,4715 6977,4282 Z"/>
          <path fill="rgb(196,146,83)" stroke="none" d="M 6984,4297 L 6998,4325 5875,4758 5861,4731 6984,4297 Z"/>
          <path fill="rgb(197,146,84)" stroke="none" d="M 6993,4313 L 7007,4340 5884,4773 5870,4746 6993,4313 Z"/>
          <path fill="rgb(197,146,84)" stroke="none" d="M 7001,4329 L 7015,4355 5892,4789 5878,4761 7001,4329 Z"/>
          <path fill="rgb(198,147,85)" stroke="none" d="M 7009,4345 L 7023,4371 5900,4804 5886,4778 7009,4345 Z"/>
          <path fill="rgb(198,147,85)" stroke="none" d="M 7017,4360 L 7031,4387 5908,4820 5894,4793 7017,4360 Z"/>
          <path fill="rgb(198,148,86)" stroke="none" d="M 7025,4376 L 7039,4403 5916,4836 5902,4809 7025,4376 Z"/>
          <path fill="rgb(198,148,87)" stroke="none" d="M 7033,4391 L 7047,4418 5924,4852 5910,4824 7033,4391 Z"/>
          <path fill="rgb(199,149,87)" stroke="none" d="M 7042,4407 L 7055,4434 5932,4867 5919,4840 7042,4407 Z"/>
          <path fill="rgb(200,150,88)" stroke="none" d="M 7050,4423 L 7063,4449 5940,4883 5927,4856 7050,4423 Z"/>
          <path fill="rgb(200,150,88)" stroke="none" d="M 7058,4439 L 7072,4466 5949,4898 5934,4871 7058,4439 Z"/>
          <path fill="rgb(201,151,89)" stroke="none" d="M 7066,4454 L 7080,4481 5957,4914 5942,4887 7066,4454 Z"/>
          <path fill="rgb(201,151,91)" stroke="none" d="M 7074,4469 L 7087,4497 5965,4930 5950,4902 7074,4469 Z"/>
          <path fill="rgb(201,152,91)" stroke="none" d="M 7082,4485 L 7096,4512 5972,4945 5958,4918 7082,4485 Z"/>
          <path fill="rgb(201,152,92)" stroke="none" d="M 7089,4501 L 7104,4528 5980,4961 5966,4934 7089,4501 Z"/>
          <path fill="rgb(202,153,92)" stroke="none" d="M 7097,4517 L 7112,4544 5988,4976 5974,4949 7097,4517 Z"/>
          <path fill="rgb(203,153,93)" stroke="none" d="M 7105,4532 L 7120,4560 5996,4992 5982,4965 7105,4532 Z"/>
          <path fill="rgb(203,153,93)" stroke="none" d="M 7114,4547 L 7128,4575 6004,5008 5991,4980 7114,4547 Z"/>
          <path fill="rgb(204,154,94)" stroke="none" d="M 7121,4563 L 7135,4590 6012,5023 5998,4996 7121,4563 Z"/>
          <path fill="rgb(204,154,95)" stroke="none" d="M 7130,4579 L 7144,4606 6021,5039 6007,5012 7130,4579 Z"/>
          <path fill="rgb(204,155,95)" stroke="none" d="M 7138,4595 L 7152,4622 6029,5054 6015,5028 7138,4595 Z"/>
          <path fill="rgb(204,155,96)" stroke="none" d="M 7146,4610 L 7160,4638 6037,5070 6023,5043 7146,4610 Z"/>
          <path fill="rgb(205,156,96)" stroke="none" d="M 7154,4625 L 7168,4653 6045,5086 6031,5059 7154,4625 Z"/>
          <path fill="rgb(206,157,97)" stroke="none" d="M 7162,4641 L 7176,4669 6053,5101 6039,5074 7162,4641 Z"/>
          <path fill="rgb(206,157,98)" stroke="none" d="M 7170,4657 L 7184,4684 6061,5117 6047,5090 7170,4657 Z"/>
          <path fill="rgb(207,158,98)" stroke="none" d="M 7179,4673 L 7192,4700 6069,5132 6056,5106 7179,4673 Z"/>
          <path fill="rgb(207,158,99)" stroke="none" d="M 7187,4688 L 7200,4716 6077,5148 6064,5121 7187,4688 Z"/>
          <path fill="rgb(207,159,99)" stroke="none" d="M 7195,4704 L 7209,4731 6086,5164 6072,5137 7195,4704 Z"/>
          <path fill="rgb(207,159,100)" stroke="none" d="M 7203,4719 L 7217,4747 6094,5180 6080,5152 7203,4719 Z"/>
          <path fill="rgb(208,159,100)" stroke="none" d="M 7211,4735 L 7224,4762 6101,5195 6087,5168 7211,4735 Z"/>
          <path fill="rgb(209,160,101)" stroke="none" d="M 7219,4751 L 7233,4778 6110,5210 6095,5184 7219,4751 Z"/>
          <path fill="rgb(209,160,103)" stroke="none" d="M 7227,4767 L 7241,4794 6118,5226 6103,5200 7227,4767 Z"/>
          <path fill="rgb(210,161,103)" stroke="none" d="M 7235,4782 L 7249,4809 6126,5242 6111,5215 7235,4782 Z"/>
          <path fill="rgb(210,161,104)" stroke="none" d="M 7242,4797 L 7257,4825 6133,5258 6119,5231 7242,4797 Z"/>
          <path fill="rgb(210,162,104)" stroke="none" d="M 7251,4813 L 7265,4840 6141,5273 6128,5246 7251,4813 Z"/>
          <path fill="rgb(210,162,105)" stroke="none" d="M 7258,4829 L 7273,4856 6149,5289 6135,5262 7258,4829 Z"/>
          <path fill="rgb(211,163,106)" stroke="none" d="M 7267,4845 L 7281,4872 6158,5305 6144,5278 7267,4845 Z"/>
          <path fill="rgb(212,164,106)" stroke="none" d="M 7275,4860 L 7289,4887 6166,5321 6152,5294 7275,4860 Z"/>
          <path fill="rgb(212,164,107)" stroke="none" d="M 7283,4876 L 7297,4903 6174,5336 6160,5309 7283,4876 Z"/>
          <path fill="rgb(213,164,107)" stroke="none" d="M 7291,4892 L 7305,4918 6182,5352 6168,5324 7291,4892 Z"/>
          <path fill="rgb(213,164,108)" stroke="none" d="M 7299,4908 L 7313,4934 6190,5367 6176,5340 7299,4908 Z"/>
          <path fill="rgb(213,165,108)" stroke="none" d="M 7307,4923 L 7321,4950 6198,5383 6184,5356 7307,4923 Z"/>
          <path fill="rgb(213,165,109)" stroke="none" d="M 7316,4939 L 7329,4966 6206,5399 6193,5372 7316,4939 Z"/>
          <path fill="rgb(214,166,110)" stroke="none" d="M 7324,4954 L 7337,4981 6214,5415 6201,5387 7324,4954 Z"/>
          <path fill="rgb(215,167,110)" stroke="none" d="M 7331,4970 L 7345,4997 6223,5430 6209,5402 7331,4970 Z"/>
          <path fill="rgb(215,167,111)" stroke="none" d="M 7340,4986 L 7354,5012 6231,5445 6217,5418 7340,4986 Z"/>
          <path fill="rgb(215,168,111)" stroke="none" d="M 7348,5001 L 7361,5028 6238,5461 6225,5434 7348,5001 Z"/>
          <path fill="rgb(215,168,112)" stroke="none" d="M 7356,5017 L 7370,5044 6247,5477 6233,5450 7356,5017 Z"/>
          <path fill="rgb(216,169,113)" stroke="none" d="M 7364,5032 L 7378,5060 6255,5493 6240,5465 7364,5032 Z"/>
          <path fill="rgb(216,169,113)" stroke="none" d="M 7372,5048 L 7386,5075 6263,5508 6248,5481 7372,5048 Z"/>
          <path fill="rgb(217,169,114)" stroke="none" d="M 7380,5064 L 7394,5091 6271,5524 6256,5496 7380,5064 Z"/>
          <path fill="rgb(218,170,114)" stroke="none" d="M 7388,5080 L 7402,5106 6279,5539 6265,5512 7388,5080 Z"/>
          <path fill="rgb(218,170,115)" stroke="none" d="M 7396,5095 L 7410,5122 6286,5555 6272,5528 7396,5095 Z"/>
          <path fill="rgb(218,171,115)" stroke="none" d="M 7404,5110 L 7418,5138 6295,5571 6281,5543 7404,5110 Z"/>
          <path fill="rgb(218,171,116)" stroke="none" d="M 7412,5126 L 7426,5153 6302,5586 6289,5559 7412,5126 Z"/>
          <path fill="rgb(219,172,117)" stroke="none" d="M 7420,5142 L 7434,5169 6311,5602 6297,5574 7420,5142 Z"/>
          <path fill="rgb(219,172,117)" stroke="none" d="M 7428,5158 L 7442,5184 6319,5617 6305,5591 7428,5158 Z"/>
          <path fill="rgb(220,173,118)" stroke="none" d="M 7436,5173 L 7450,5200 6327,5633 6313,5606 7436,5173 Z"/>
          <path fill="rgb(220,173,118)" stroke="none" d="M 7444,5188 L 7458,5216 6335,5649 6321,5622 7444,5188 Z"/>
          <path fill="rgb(220,173,119)" stroke="none" d="M 7453,5204 L 7466,5232 6343,5664 6330,5637 7453,5204 Z"/>
          <path fill="rgb(221,174,120)" stroke="none" d="M 7461,5220 L 7474,5247 6351,5680 6337,5653 7461,5220 Z"/>
          <path fill="rgb(221,174,120)" stroke="none" d="M 7468,5236 L 7482,5262 6359,5695 6345,5669 7468,5236 Z"/>
          <path fill="rgb(222,175,121)" stroke="none" d="M 7477,5251 L 7491,5279 6368,5711 6354,5684 7477,5251 Z"/>
          <path fill="rgb(222,175,121)" stroke="none" d="M 7485,5267 L 7498,5294 6375,5727 6362,5700 7485,5267 Z"/>
          <path fill="rgb(223,176,122)" stroke="none" d="M 7493,5282 L 7507,5310 6384,5742 6370,5715 7493,5282 Z"/>
          <path fill="rgb(223,177,122)" stroke="none" d="M 7501,5298 L 7515,5325 6392,5758 6378,5731 7501,5298 Z"/>
          <path fill="rgb(223,177,123)" stroke="none" d="M 7509,5314 L 7523,5340 6400,5773 6386,5747 7509,5314 Z"/>
          <path fill="rgb(224,177,124)" stroke="none" d="M 7517,5329 L 7531,5357 6408,5789 6393,5763 7517,5329 Z"/>
          <path fill="rgb(224,177,124)" stroke="none" d="M 7526,5345 L 7539,5372 6416,5805 6402,5778 7526,5345 Z"/>
          <path fill="rgb(225,178,125)" stroke="none" d="M 7533,5360 L 7547,5388 6424,5821 6409,5794 7533,5360 Z"/>
          <path fill="rgb(225,178,125)" stroke="none" d="M 7541,5376 L 7556,5403 6432,5836 6418,5809 7541,5376 Z"/>
         </g>
         <defs>
          <clipPath id="clip_path_8" clipPathUnits="userSpaceOnUse">
           <path d="M 7082,4486 L 7971,4282 7966,5202 7080,5415 7082,4486 Z"/>
          </clipPath>
         </defs>
         <g clip-path="url(#clip_path_8)">
          <path fill="rgb(193,142,78)" stroke="none" d="M 7757,4040 L 7841,4135 6646,4924 6562,4828 7757,4040 Z"/>
          <path fill="rgb(193,142,78)" stroke="none" d="M 7839,4133 L 7850,4145 6654,4934 6644,4922 7839,4133 Z"/>
          <path fill="rgb(194,143,79)" stroke="none" d="M 7848,4143 L 7859,4154 6663,4944 6653,4932 7848,4143 Z"/>
          <path fill="rgb(194,143,79)" stroke="none" d="M 7857,4152 L 7867,4164 6672,4953 6661,4941 7857,4152 Z"/>
          <path fill="rgb(195,144,80)" stroke="none" d="M 7865,4162 L 7876,4174 6680,4963 6670,4951 7865,4162 Z"/>
          <path fill="rgb(195,144,80)" stroke="none" d="M 7874,4172 L 7884,4183 6689,4973 6678,4960 7874,4172 Z"/>
          <path fill="rgb(195,145,81)" stroke="none" d="M 7882,4181 L 7893,4193 6698,4982 6687,4970 7882,4181 Z"/>
          <path fill="rgb(195,145,83)" stroke="none" d="M 7891,4191 L 7901,4202 6706,4992 6695,4979 7891,4191 Z"/>
          <path fill="rgb(196,146,83)" stroke="none" d="M 7900,4201 L 7909,4212 6715,5002 6704,4989 7900,4201 Z"/>
          <path fill="rgb(197,146,84)" stroke="none" d="M 7908,4210 L 7918,4222 6722,5011 6712,4999 7908,4210 Z"/>
          <path fill="rgb(197,146,84)" stroke="none" d="M 7916,4220 L 7927,4231 6731,5021 6721,5009 7916,4220 Z"/>
          <path fill="rgb(198,147,85)" stroke="none" d="M 7925,4229 L 7935,4241 6740,5031 6730,5018 7925,4229 Z"/>
          <path fill="rgb(198,147,85)" stroke="none" d="M 7933,4239 L 7944,4251 6748,5040 6738,5028 7933,4239 Z"/>
          <path fill="rgb(198,148,86)" stroke="none" d="M 7942,4249 L 7952,4261 6757,5050 6746,5038 7942,4249 Z"/>
          <path fill="rgb(198,148,87)" stroke="none" d="M 7950,4258 L 7961,4270 6766,5059 6755,5048 7950,4258 Z"/>
          <path fill="rgb(199,149,87)" stroke="none" d="M 7959,4268 L 7969,4280 6774,5069 6763,5057 7959,4268 Z"/>
          <path fill="rgb(200,150,88)" stroke="none" d="M 7968,4277 L 7977,4290 6783,5079 6772,5067 7968,4277 Z"/>
          <path fill="rgb(200,150,88)" stroke="none" d="M 7976,4287 L 7986,4299 6791,5088 6780,5077 7976,4287 Z"/>
          <path fill="rgb(201,151,89)" stroke="none" d="M 7985,4296 L 7995,4309 6799,5098 6789,5086 7985,4296 Z"/>
          <path fill="rgb(201,151,91)" stroke="none" d="M 7993,4306 L 8003,4319 6808,5107 6798,5096 7993,4306 Z"/>
          <path fill="rgb(201,152,91)" stroke="none" d="M 8001,4316 L 8012,4328 6816,5117 6806,5105 8001,4316 Z"/>
          <path fill="rgb(201,152,92)" stroke="none" d="M 8010,4326 L 8020,4338 6825,5126 6814,5115 8010,4326 Z"/>
          <path fill="rgb(202,153,92)" stroke="none" d="M 8018,4335 L 8029,4348 6834,5136 6823,5125 8018,4335 Z"/>
          <path fill="rgb(203,153,93)" stroke="none" d="M 8027,4345 L 8038,4357 6842,5146 6831,5134 8027,4345 Z"/>
          <path fill="rgb(203,153,93)" stroke="none" d="M 8036,4355 L 8046,4367 6851,5155 6840,5144 8036,4355 Z"/>
          <path fill="rgb(204,154,94)" stroke="none" d="M 8044,4365 L 8054,4376 6859,5165 6848,5153 8044,4365 Z"/>
          <path fill="rgb(204,154,95)" stroke="none" d="M 8053,4374 L 8063,4386 6868,5175 6857,5163 8053,4374 Z"/>
          <path fill="rgb(204,155,95)" stroke="none" d="M 8061,4384 L 8071,4395 6876,5184 6866,5173 8061,4384 Z"/>
          <path fill="rgb(204,155,96)" stroke="none" d="M 8069,4394 L 8080,4405 6884,5194 6875,5182 8069,4394 Z"/>
          <path fill="rgb(205,156,96)" stroke="none" d="M 8078,4403 L 8088,4414 6893,5204 6883,5192 8078,4403 Z"/>
          <path fill="rgb(206,157,97)" stroke="none" d="M 8086,4413 L 8097,4424 6902,5213 6891,5202 8086,4413 Z"/>
          <path fill="rgb(206,157,98)" stroke="none" d="M 8095,4422 L 8106,4434 6910,5223 6899,5211 8095,4422 Z"/>
          <path fill="rgb(207,158,98)" stroke="none" d="M 8104,4432 L 8114,4443 6919,5233 6908,5221 8104,4432 Z"/>
          <path fill="rgb(207,158,99)" stroke="none" d="M 8112,4442 L 8122,4453 6927,5243 6916,5230 8112,4442 Z"/>
          <path fill="rgb(207,159,99)" stroke="none" d="M 8121,4451 L 8131,4463 6936,5252 6925,5240 8121,4451 Z"/>
          <path fill="rgb(207,159,100)" stroke="none" d="M 8130,4461 L 8140,4472 6944,5262 6934,5250 8130,4461 Z"/>
          <path fill="rgb(208,159,100)" stroke="none" d="M 8138,4471 L 8148,4482 6952,5271 6943,5259 8138,4471 Z"/>
          <path fill="rgb(209,160,101)" stroke="none" d="M 8146,4480 L 8157,4492 6961,5281 6951,5269 8146,4480 Z"/>
          <path fill="rgb(209,160,103)" stroke="none" d="M 8154,4490 L 8165,4501 6970,5291 6959,5279 8154,4490 Z"/>
          <path fill="rgb(210,161,103)" stroke="none" d="M 8163,4500 L 8174,4511 6978,5300 6967,5288 8163,4500 Z"/>
          <path fill="rgb(210,161,104)" stroke="none" d="M 8172,4509 L 8182,4521 6987,5310 6976,5298 8172,4509 Z"/>
          <path fill="rgb(210,162,104)" stroke="none" d="M 8180,4519 L 8191,4531 6995,5320 6984,5308 8180,4519 Z"/>
          <path fill="rgb(210,162,105)" stroke="none" d="M 8189,4528 L 8199,4540 7004,5329 6993,5318 8189,4528 Z"/>
          <path fill="rgb(211,163,106)" stroke="none" d="M 8198,4538 L 8208,4550 7013,5339 7002,5327 8198,4538 Z"/>
          <path fill="rgb(212,164,106)" stroke="none" d="M 8206,4547 L 8216,4560 7021,5349 7011,5337 8206,4547 Z"/>
          <path fill="rgb(212,164,107)" stroke="none" d="M 8214,4557 L 8225,4569 7029,5358 7019,5347 8214,4557 Z"/>
          <path fill="rgb(213,164,107)" stroke="none" d="M 8222,4566 L 8233,4579 7038,5368 7028,5356 8222,4566 Z"/>
          <path fill="rgb(213,164,108)" stroke="none" d="M 8231,4576 L 8242,4589 7046,5377 7036,5366 8231,4576 Z"/>
          <path fill="rgb(213,165,108)" stroke="none" d="M 8240,4586 L 8250,4598 7055,5387 7044,5376 8240,4586 Z"/>
          <path fill="rgb(213,165,109)" stroke="none" d="M 8248,4596 L 8259,4608 7063,5396 7052,5385 8248,4596 Z"/>
          <path fill="rgb(214,166,110)" stroke="none" d="M 8257,4605 L 8268,4618 7072,5406 7061,5395 8257,4605 Z"/>
          <path fill="rgb(215,167,110)" stroke="none" d="M 8266,4615 L 8276,4627 7081,5415 7070,5404 8266,4615 Z"/>
          <path fill="rgb(215,167,111)" stroke="none" d="M 8274,4625 L 8284,4637 7089,5425 7079,5414 8274,4625 Z"/>
          <path fill="rgb(215,168,111)" stroke="none" d="M 8283,4635 L 8293,4646 7097,5435 7087,5423 8283,4635 Z"/>
          <path fill="rgb(215,168,112)" stroke="none" d="M 8291,4644 L 8301,4656 7106,5445 7096,5433 8291,4644 Z"/>
          <path fill="rgb(216,169,113)" stroke="none" d="M 8299,4654 L 8310,4665 7114,5454 7104,5443 8299,4654 Z"/>
          <path fill="rgb(216,169,113)" stroke="none" d="M 8308,4664 L 8318,4675 7123,5464 7112,5452 8308,4664 Z"/>
          <path fill="rgb(217,169,114)" stroke="none" d="M 8316,4673 L 8327,4684 7131,5474 7120,5462 8316,4673 Z"/>
          <path fill="rgb(218,170,114)" stroke="none" d="M 8325,4683 L 8336,4694 7140,5483 7129,5472 8325,4683 Z"/>
          <path fill="rgb(218,170,115)" stroke="none" d="M 8334,4692 L 8344,4704 7149,5493 7138,5481 8334,4692 Z"/>
          <path fill="rgb(218,171,115)" stroke="none" d="M 8342,4702 L 8352,4713 7157,5503 7147,5491 8342,4702 Z"/>
          <path fill="rgb(218,171,116)" stroke="none" d="M 8351,4711 L 8361,4723 7166,5513 7155,5501 8351,4711 Z"/>
          <path fill="rgb(219,172,117)" stroke="none" d="M 8359,4721 L 8369,4733 7174,5522 7164,5510 8359,4721 Z"/>
          <path fill="rgb(219,172,117)" stroke="none" d="M 8367,4731 L 8378,4742 7182,5532 7173,5520 8367,4731 Z"/>
          <path fill="rgb(220,173,118)" stroke="none" d="M 8376,4740 L 8386,4752 7191,5541 7181,5529 8376,4740 Z"/>
          <path fill="rgb(220,173,118)" stroke="none" d="M 8384,4750 L 8395,4762 7199,5551 7189,5539 8384,4750 Z"/>
          <path fill="rgb(220,173,119)" stroke="none" d="M 8393,4760 L 8404,4771 7208,5561 7197,5548 8393,4760 Z"/>
          <path fill="rgb(221,174,120)" stroke="none" d="M 8402,4769 L 8413,4781 7217,5570 7206,5558 8402,4769 Z"/>
          <path fill="rgb(221,174,120)" stroke="none" d="M 8410,4779 L 8421,4791 7225,5580 7215,5568 8410,4779 Z"/>
          <path fill="rgb(222,175,121)" stroke="none" d="M 8419,4789 L 8429,4800 7234,5590 7223,5578 8419,4789 Z"/>
          <path fill="rgb(222,175,121)" stroke="none" d="M 8427,4798 L 8437,4810 7242,5599 7232,5587 8427,4798 Z"/>
          <path fill="rgb(223,176,122)" stroke="none" d="M 8436,4808 L 8446,4820 7250,5609 7241,5597 8436,4808 Z"/>
          <path fill="rgb(223,177,122)" stroke="none" d="M 8444,4817 L 8454,4830 7259,5619 7249,5607 8444,4817 Z"/>
          <path fill="rgb(223,177,123)" stroke="none" d="M 8452,4827 L 8463,4839 7267,5628 7258,5617 8452,4827 Z"/>
          <path fill="rgb(224,177,124)" stroke="none" d="M 8461,4836 L 8472,4849 7276,5638 7265,5626 8461,4836 Z"/>
          <path fill="rgb(224,177,124)" stroke="none" d="M 8470,4846 L 8481,4858 7285,5647 7274,5636 8470,4846 Z"/>
          <path fill="rgb(225,178,125)" stroke="none" d="M 8478,4856 L 8489,4868 7293,5657 7283,5646 8478,4856 Z"/>
          <path fill="rgb(225,178,125)" stroke="none" d="M 8487,4866 L 8497,4878 7302,5666 7291,5655 8487,4866 Z"/>
         </g>
         <path fill="rgb(225,179,125)" stroke="none" d="M 7101,4536 L 7101,5410 C 7101,5410 7092,5415 7077,5415 7062,5414 7055,5410 7045,5406 7045,5405 7045,4691 7045,4522 7058,4496 7062,4486 7062,4486 L 7075,4486 7101,4536 Z"/>
         <path fill="rgb(225,179,125)" stroke="none" d="M 5797,4563 C 5794,4566 5793,4572 5795,4576 5797,4581 5801,4585 5806,4586 L 6874,4877 C 6883,4879 6891,4875 6895,4869 L 7081,4487 C 7083,4483 7083,4479 7081,4475 7079,4471 7074,4468 7070,4467 L 6083,4226 C 6076,4225 6068,4227 6064,4232 L 5797,4563 Z"/>
         <path fill="rgb(153,116,72)" stroke="none" d="M 6050,4223 L 5783,4554 C 5777,4562 5774,4572 5779,4581 5782,4590 5791,4597 5801,4600 L 6868,4891 C 6872,4892 6875,4892 6879,4892 6893,4892 6906,4885 6912,4874 L 7097,4493 C 7101,4485 7101,4476 7097,4469 7092,4460 7084,4455 7074,4453 L 6088,4212 C 6085,4211 6081,4210 6079,4210 6067,4210 6057,4215 6050,4223 Z M 5812,4572 L 6079,4241 7065,4481 6879,4862 5812,4572 Z"/>
         <path fill="rgb(225,179,125)" stroke="none" d="M 7065,4481 L 6079,4241 5812,4572 6879,4862 7065,4481 Z"/>
         <path fill="rgb(225,179,125)" stroke="none" d="M 7069,4474 C 7064,4475 7059,4479 7058,4483 7055,4487 7056,4492 7059,4496 L 7293,4855 C 7297,4861 7306,4864 7314,4862 L 8260,4586 C 8266,4584 8269,4580 8271,4576 8273,4571 8271,4566 8268,4562 L 7985,4274 C 7980,4270 7973,4268 7967,4270 L 7069,4474 Z"/>
         <path fill="rgb(153,116,72)" stroke="none" d="M 7962,4255 L 7065,4459 C 7054,4462 7045,4469 7042,4477 7037,4485 7038,4495 7044,4504 L 7279,4862 C 7285,4872 7296,4878 7309,4878 7312,4878 7316,4877 7319,4876 L 8266,4600 C 8276,4597 8284,4589 8288,4579 8291,4570 8288,4560 8281,4552 L 7998,4265 C 7992,4258 7981,4254 7971,4254 7969,4254 7966,4254 7962,4255 Z M 7074,4488 L 7971,4284 8254,4572 7309,4847 7074,4488 Z"/>
         <path fill="rgb(225,179,125)" stroke="none" d="M 7971,4284 L 7074,4488 7309,4847 8254,4572 7971,4284 Z"/>
         <path fill="rgb(225,179,125)" stroke="none" d="M 6079,4241 L 6984,4045 6618,3834 5689,4015 6079,4241 Z"/>
         <defs>
          <mask id="mask3">
           <g>
            <defs>
             <linearGradient id="gradient3" x1="7001" y1="3794" x2="7001" y2="5445" gradientUnits="userSpaceOnUse">
              <stop offset="0.5" style="stop-color:rgb(217,217,217)"/>
              <stop offset="0.5" style="stop-color:rgb(217,217,217)"/>
              <stop offset="1" style="stop-color:rgb(217,217,217)"/>
              <stop offset="1" style="stop-color:rgb(217,217,217)"/>
             </linearGradient>
            </defs>
            <path style="fill:url(#gradient3)" d="M 5655,3794 L 8347,3794 8347,5445 5655,5445 5655,3794 Z"/>
           </g>
          </mask>
         </defs>
         <g style="mask:url(#mask3)">
          <defs>
           <clipPath id="clip_path_9" clipPathUnits="userSpaceOnUse">
            <path d="M 5655,3794 L 8347,3794 8347,5445 5655,5445 5655,3794 Z"/>
           </clipPath>
          </defs>
          <g clip-path="url(#clip_path_9)">
           <path fill="rgb(255,255,255)" stroke="none" d="M 6079,4240 L 6985,4044 6618,3833 5690,4015 6079,4240 Z"/>
          </g>
         </g>
         <path fill="rgb(169,129,75)" stroke="none" d="M 7971,4283 L 7082,4486 6081,4241 6970,4042 7971,4283 Z"/>
         <path fill="rgb(225,179,125)" stroke="none" d="M 6984,4045 L 7361,3824 8313,4030 7971,4284 6984,4045 Z"/>
         <defs>
          <mask id="mask4">
           <g>
            <defs>
             <linearGradient id="gradient4" x1="7001" y1="3794" x2="7001" y2="5445" gradientUnits="userSpaceOnUse">
              <stop offset="0.5" style="stop-color:rgb(217,217,217)"/>
              <stop offset="0.5" style="stop-color:rgb(217,217,217)"/>
              <stop offset="1" style="stop-color:rgb(217,217,217)"/>
              <stop offset="1" style="stop-color:rgb(217,217,217)"/>
             </linearGradient>
            </defs>
            <path style="fill:url(#gradient4)" d="M 5655,3794 L 8347,3794 8347,5445 5655,5445 5655,3794 Z"/>
           </g>
          </mask>
         </defs>
         <g style="mask:url(#mask4)">
          <defs>
           <clipPath id="clip_path_10" clipPathUnits="userSpaceOnUse">
            <path d="M 5655,3794 L 8347,3794 8347,5445 5655,5445 5655,3794 Z"/>
           </clipPath>
          </defs>
          <g clip-path="url(#clip_path_10)">
           <path fill="rgb(255,255,255)" stroke="none" d="M 6985,4044 L 7361,3823 8313,4029 7972,4284 6985,4044 Z"/>
          </g>
         </g>
         <path fill="rgb(225,179,125)" stroke="none" d="M 7065,4481 L 6079,4241 5812,4572 6879,4862 7065,4481 Z"/>
         <path fill="rgb(187,141,92)" stroke="none" d="M 6081,4241 L 6984,4045 6984,4462 6081,4241 Z"/>
         <path fill="rgb(255,255,255)" stroke="none" d="M 7208,5269 C 7208,5282 7220,5289 7234,5286 L 7502,5222 C 7516,5218 7528,5205 7528,5192 L 7529,5073 C 7529,5061 7518,5053 7503,5056 L 7232,5114 C 7218,5117 7206,5130 7206,5142 L 7208,5269 Z"/>
         <path fill="none" stroke="rgb(255,241,192)" stroke-width="16" stroke-linejoin="miter" d="M 7208,5269 C 7208,5282 7220,5289 7234,5286 L 7502,5222 C 7516,5218 7528,5205 7528,5192 L 7529,5073 C 7529,5061 7518,5053 7503,5056 L 7232,5114 C 7218,5117 7206,5130 7206,5142 L 7208,5269 Z"/>
         <path fill="rgb(255,255,255)" stroke="none" d="M 7539,5281 L 7140,5379 7139,4937 7939,4742 7939,5183 7539,5281 Z"/>
         <path fill="rgb(0,0,0)" stroke="none" d="M 7197,5351 L 7193,5352 7193,4938 7201,4937 7201,5350 7197,5351 Z"/>
         <path fill="rgb(0,0,0)" stroke="none" d="M 7212,5347 L 7209,5348 7209,4934 7216,4933 7216,5346 7212,5347 Z"/>
         <path fill="rgb(0,0,0)" stroke="none" d="M 7243,5276 L 7239,5278 7239,4927 7247,4925 7247,5275 7243,5276 Z"/>
         <path fill="rgb(0,0,0)" stroke="none" d="M 7262,5272 L 7255,5274 7255,4924 7270,4920 7270,5270 7262,5272 Z"/>
         <path fill="rgb(0,0,0)" stroke="none" d="M 7281,5267 L 7278,5268 7278,4918 7285,4916 7286,5266 7281,5267 Z"/>
         <path fill="rgb(0,0,0)" stroke="none" d="M 7312,5259 L 7301,5262 7301,4912 7324,4906 7324,5256 7312,5259 Z"/>
         <path fill="rgb(0,0,0)" stroke="none" d="M 7339,5253 L 7332,5255 7332,4905 7347,4901 7347,5251 7339,5253 Z"/>
         <path fill="rgb(0,0,0)" stroke="none" d="M 7370,5246 L 7362,5247 7362,4897 7378,4893 7378,5243 7370,5246 Z"/>
         <path fill="rgb(0,0,0)" stroke="none" d="M 7396,5239 L 7393,5240 7393,4889 7401,4888 7401,5238 7396,5239 Z"/>
         <path fill="rgb(0,0,0)" stroke="none" d="M 7424,5232 L 7416,5234 7416,4884 7431,4880 7432,5230 7424,5232 Z"/>
         <path fill="rgb(0,0,0)" stroke="none" d="M 7455,5224 L 7439,5228 7439,4878 7470,4870 7470,5220 7455,5224 Z"/>
         <path fill="rgb(0,0,0)" stroke="none" d="M 7481,5218 L 7478,5219 7478,4869 7485,4867 7485,5217 7481,5218 Z"/>
         <path fill="rgb(0,0,0)" stroke="none" d="M 7512,5210 L 7501,5213 7501,4863 7524,4857 7524,5207 7512,5210 Z"/>
         <path fill="rgb(0,0,0)" stroke="none" d="M 7535,5204 L 7531,5206 7531,4856 7539,4853 7539,5204 7535,5204 Z"/>
         <path fill="rgb(0,0,0)" stroke="none" d="M 7550,5264 L 7547,5265 7547,4852 7554,4849 7555,5263 7550,5264 Z"/>
         <path fill="rgb(0,0,0)" stroke="none" d="M 7566,5260 L 7562,5261 7562,4848 7570,4846 7570,5259 7566,5260 Z"/>
         <path fill="rgb(0,0,0)" stroke="none" d="M 7585,5192 L 7578,5194 7578,4844 7593,4840 7593,5191 7585,5192 Z"/>
         <path fill="rgb(0,0,0)" stroke="none" d="M 7616,5185 L 7608,5187 7608,4836 7624,4833 7624,5183 7616,5185 Z"/>
         <path fill="rgb(0,0,0)" stroke="none" d="M 7639,5179 L 7631,5181 7631,4831 7647,4827 7647,5178 7639,5179 Z"/>
         <path fill="rgb(0,0,0)" stroke="none" d="M 7662,5174 L 7654,5175 7654,4825 7670,4821 7670,5171 7662,5174 Z"/>
         <path fill="rgb(0,0,0)" stroke="none" d="M 7689,5167 L 7685,5168 7685,4817 7693,4816 7693,5166 7689,5167 Z"/>
         <path fill="rgb(0,0,0)" stroke="none" d="M 7727,5158 L 7724,5158 7724,4808 7731,4807 7731,5157 7727,5158 Z"/>
         <path fill="rgb(0,0,0)" stroke="none" d="M 7742,5154 L 7739,5155 7739,4804 7747,4803 7747,5153 7742,5154 Z"/>
         <path fill="rgb(0,0,0)" stroke="none" d="M 7765,5148 L 7754,5151 7754,4800 7777,4795 7777,5145 7765,5148 Z"/>
         <path fill="rgb(0,0,0)" stroke="none" d="M 7796,5141 L 7793,5142 7793,4791 7800,4789 7800,5139 7796,5141 Z"/>
         <path fill="rgb(0,0,0)" stroke="none" d="M 7827,5133 L 7816,5135 7816,4785 7839,4780 7839,5130 7827,5133 Z"/>
         <path fill="rgb(0,0,0)" stroke="none" d="M 7850,5127 L 7847,5128 7847,4778 7854,4776 7854,5126 7850,5127 Z"/>
         <path fill="rgb(0,0,0)" stroke="none" d="M 7881,5119 L 7877,5121 7877,4771 7885,4768 7885,5119 7881,5119 Z"/>
         <path fill="rgb(0,0,0)" stroke="none" d="M 7904,5177 L 7900,5178 7900,4765 7908,4763 7908,5176 7904,5177 Z"/>
         <path fill="rgb(0,0,0)" stroke="none" d="M 7919,5173 L 7916,5174 7916,4761 7923,4759 7923,5172 7919,5173 Z"/>
         <path fill="none" stroke="rgb(128,0,0)" d="M 6121,5113 L 6121,4766 6998,4995 6998,5342 6121,5113 Z"/>
         <path fill="rgb(128,0,0)" stroke="none" d="M 6381,5041 C 6385,5038 6387,5036 6389,5035 6391,5033 6393,5031 6394,5027 6395,5024 6396,5019 6396,5014 6396,4998 6389,4988 6375,4984 6370,4983 6366,4983 6362,4983 6357,4983 6352,4983 6346,4983 6340,4983 6336,4983 6335,4983 6333,4983 6333,4986 6333,4989 6333,4992 6333,4999 6333,5008 6334,5014 6334,5018 6334,5021 6335,5024 6335,5027 6336,5030 6337,5032 6338,5035 6338,5035 6339,5037 6340,5038 6342,5039 6344,5041 6346,5041 6347,5041 6349,5042 6352,5043 6355,5044 6356,5044 6357,5044 6359,5044 6360,5045 6362,5045 6362,5045 6366,5047 6369,5047 6370,5046 6372,5046 6376,5044 6381,5041 Z M 6384,4924 C 6384,4924 6384,4923 6383,4922 6382,4921 6380,4920 6377,4918 6374,4917 6370,4915 6365,4914 6358,4912 6351,4911 6343,4910 6334,4908 6329,4908 6327,4908 6325,4908 6325,4910 6325,4914 L 6325,4918 C 6325,4924 6326,4934 6327,4944 6329,4954 6331,4960 6332,4963 6332,4964 6332,4965 6333,4966 6337,4966 6343,4963 6355,4956 6365,4949 6373,4942 6378,4935 6382,4929 6384,4925 6384,4924 Z M 6295,4909 C 6285,4907 6279,4903 6279,4898 6279,4892 6294,4890 6321,4892 6332,4892 6348,4895 6370,4901 6374,4902 6378,4903 6379,4904 6382,4904 6384,4905 6386,4906 6388,4908 6390,4908 6391,4909 6391,4910 6393,4911 6396,4914 6399,4915 6401,4918 6401,4921 6402,4924 6403,4926 6403,4927 6403,4932 6401,4937 6400,4941 6397,4946 6395,4950 6393,4952 6390,4955 6387,4958 6384,4961 6381,4964 6379,4966 6378,4966 6383,4967 6388,4971 6395,4976 6402,4982 6407,4986 6409,4989 6413,4996 6416,5005 6416,5016 6416,5033 6409,5046 6398,5054 6386,5064 6374,5066 6363,5063 6361,5063 6358,5061 6355,5060 6352,5058 6350,5057 6348,5057 6347,5057 6344,5056 6340,5057 6335,5057 6332,5056 6330,5056 6327,5055 6324,5054 6323,5052 6320,5050 6319,5048 6317,5044 6317,5041 6316,5038 6315,5035 6314,5031 6314,5026 6313,5021 6313,5015 6312,5010 6312,5005 6311,5000 6311,4993 6310,4986 6309,4978 6309,4971 6308,4964 6306,4955 6304,4943 6303,4927 L 6301,4911 6295,4909 Z"/>
         <path fill="rgb(128,0,0)" stroke="none" d="M 6474,4999 C 6487,4992 6500,4989 6509,4989 6519,4988 6531,4989 6546,4993 6568,4999 6582,5009 6588,5021 6592,5028 6592,5036 6592,5045 6592,5060 6589,5074 6581,5087 6573,5100 6562,5107 6550,5110 6538,5113 6525,5113 6512,5109 6492,5103 6477,5094 6466,5082 6459,5073 6454,5065 6452,5060 6450,5054 6449,5047 6449,5038 6449,5021 6457,5008 6474,4999 Z M 6518,5093 C 6531,5096 6544,5092 6555,5080 6567,5069 6572,5054 6572,5035 6572,5032 6572,5031 6571,5030 6571,5028 6570,5028 6570,5027 6569,5026 6569,5025 6568,5025 6562,5019 6555,5015 6549,5014 6548,5014 6546,5013 6545,5013 6543,5013 6540,5012 6538,5012 6534,5012 6531,5011 6526,5010 6521,5009 6516,5009 6514,5009 6510,5010 6506,5012 6500,5014 6491,5018 6484,5023 6479,5028 6476,5033 6473,5039 6473,5046 6473,5057 6477,5066 6485,5074 6494,5083 6505,5090 6518,5093 Z"/>
         <path fill="rgb(128,0,0)" stroke="none" d="M 6646,5044 C 6659,5038 6670,5034 6680,5033 6690,5032 6702,5034 6717,5038 6739,5044 6753,5053 6760,5066 6762,5073 6764,5080 6764,5090 6764,5104 6761,5118 6752,5131 6744,5144 6734,5152 6722,5155 6709,5158 6697,5157 6683,5154 6663,5148 6648,5139 6638,5126 6630,5117 6625,5110 6623,5105 6621,5099 6620,5092 6620,5083 6620,5065 6629,5052 6646,5044 Z M 6690,5138 C 6703,5141 6715,5137 6726,5126 6738,5113 6744,5098 6744,5080 6744,5077 6743,5076 6743,5074 6742,5074 6742,5073 6741,5072 6741,5071 6740,5070 6738,5069 6733,5064 6727,5061 6720,5059 6719,5058 6718,5058 6716,5058 6715,5057 6712,5057 6708,5057 6705,5056 6701,5056 6698,5055 6692,5054 6688,5054 6684,5054 6681,5054 6677,5056 6672,5058 6662,5063 6655,5068 6651,5073 6646,5078 6645,5083 6645,5091 6645,5101 6649,5111 6657,5119 6666,5128 6676,5134 6690,5138 Z"/>
         <path fill="rgb(128,0,0)" stroke="none" d="M 6801,5009 C 6801,4999 6802,4991 6803,4986 6804,4981 6805,4978 6806,4976 6807,4976 6810,4975 6812,4976 6816,4977 6818,4979 6819,4982 6820,4985 6822,5003 6824,5038 6827,5071 6829,5104 6832,5135 6835,5168 6836,5184 6836,5184 6836,5190 6832,5191 6826,5190 6821,5188 6817,5184 6815,5178 6814,5171 6812,5154 6810,5125 6807,5094 6805,5067 6803,5044 6802,5032 6801,5021 6801,5009 Z"/>
        </g>
       </g>
       <g class="com.sun.star.drawing.TextShape">
        <g id="id6">
         <rect class="BoundingBox" stroke="none" fill="none" x="5655" y="3293" width="2668" height="1027"/>
         <text class="TextShape"><tspan class="TextParagraph" font-family="Liberation Sans, sans-serif" font-size="917px" font-weight="700"><tspan class="TextPosition" x="5811" y="4124"><tspan fill="rgb(128,0,0)" stroke="none">False</tspan></tspan></tspan></text>
        </g>
       </g>
      </g>
     </g>
    </g>
   </g>
  </g>
 </g>
</svg>