<?xml version="1.0" encoding="UTF-8"?>
<!DOCTYPE svg PUBLIC "-//W3C//DTD SVG 1.1//EN" "http://www.w3.org/Graphics/SVG/1.1/DTD/svg11.dtd">
<svg version="1.2" width="186.15mm" height="46.13mm" viewBox="1381 3551 18615 4613" preserveAspectRatio="xMidYMid" fill-rule="evenodd" stroke-width="28.222" stroke-linejoin="round" xmlns="http://www.w3.org/2000/svg" xmlns:ooo="http://xml.openoffice.org/svg/export" xmlns:xlink="http://www.w3.org/1999/xlink" xmlns:presentation="http://sun.com/xmlns/staroffice/presentation" xmlns:smil="http://www.w3.org/2001/SMIL20/" xmlns:anim="urn:oasis:names:tc:opendocument:xmlns:animation:1.0" xml:space="preserve">
 <defs class="ClipPathGroup">
  <clipPath id="presentation_clip_path" clipPathUnits="userSpaceOnUse">
   <rect x="1381" y="3551" width="18615" height="4613"/>
  </clipPath>
  <clipPath id="presentation_clip_path_shrink" clipPathUnits="userSpaceOnUse">
   <rect x="1399" y="3555" width="18578" height="4604"/>
  </clipPath>
 </defs>
 <defs>
  <font id="EmbeddedFont_1" horiz-adv-x="2048">
   <font-face font-family="Arial embedded" units-per-em="2048" font-weight="bold" font-style="normal" ascent="1852" descent="423"/>
   <missing-glyph horiz-adv-x="2048" d="M 0,0 L 2047,0 2047,2047 0,2047 0,0 Z"/>
   <glyph unicode="‘" horiz-adv-x="345" d="M 433,872 L 152,872 152,1073 C 152,1154 159,1219 174,1266 188,1313 214,1355 253,1392 292,1429 341,1459 401,1480 L 456,1364 C 400,1345 360,1319 336,1286 311,1253 298,1208 297,1153 L 433,1153 433,872 Z"/>
  </font>
 </defs>
 <defs>
  <font id="EmbeddedFont_2" horiz-adv-x="2048">
   <font-face font-family="Courier New embedded" units-per-em="2048" font-weight="normal" font-style="normal" ascent="1693" descent="609"/>
   <missing-glyph horiz-adv-x="2048" d="M 0,0 L 2047,0 2047,2047 0,2047 0,0 Z"/>
   <glyph unicode="=" horiz-adv-x="1060" d="M 1073,695 L 157,695 C 137,695 123,699 114,707 105,715 101,725 101,738 101,750 105,760 114,768 123,776 137,780 157,780 L 1073,780 C 1093,780 1107,776 1116,768 1125,760 1129,750 1129,737 1129,725 1125,715 1116,707 1107,699 1093,695 1073,695 Z M 1073,394 L 157,394 C 137,394 123,398 114,406 105,413 101,423 101,436 101,449 105,459 114,467 123,474 137,478 157,478 L 1073,478 C 1093,478 1107,474 1116,467 1125,459 1129,449 1129,436 1129,423 1125,413 1116,406 1107,398 1093,394 1073,394 Z"/>
  </font>
 </defs>
 <defs>
  <font id="EmbeddedFont_3" horiz-adv-x="2048">
   <font-face font-family="Liberation Sans embedded" units-per-em="2048" font-weight="normal" font-style="italic" ascent="1852" descent="423"/>
   <missing-glyph horiz-adv-x="2048" d="M 0,0 L 2047,0 2047,2047 0,2047 0,0 Z"/>
   <glyph unicode="t" horiz-adv-x="583" d="M 275,-20 C 218,-20 174,-3 142,31 109,65 93,110 93,166 93,203 98,246 108,296 L 234,951 109,951 135,1082 262,1082 367,1324 487,1324 440,1082 640,1082 614,951 414,951 289,306 C 281,266 277,234 277,211 277,152 307,123 367,123 395,123 428,128 467,137 L 448,4 C 382,-12 324,-20 275,-20 Z"/>
   <glyph unicode="s" horiz-adv-x="980" d="M 907,317 C 907,209 866,126 783,68 700,9 581,-20 425,-20 309,-20 217,0 149,39 80,78 32,139 5,223 L 152,279 C 174,220 208,178 255,151 301,124 363,111 441,111 536,111 609,127 658,160 707,192 732,239 732,301 732,342 715,377 681,405 647,432 575,463 465,497 380,525 316,552 273,579 230,606 198,637 175,673 152,708 141,750 141,797 141,894 180,968 257,1021 334,1073 443,1099 584,1099 820,1099 953,1014 982,844 L 819,819 C 804,872 777,910 736,933 695,956 641,968 572,968 489,968 426,955 382,929 337,902 315,865 315,817 315,789 322,765 336,746 350,727 370,710 397,695 423,680 484,657 579,627 664,600 728,573 771,546 814,519 847,486 871,449 895,412 907,368 907,317 Z"/>
   <glyph unicode="r" horiz-adv-x="742" d="M 718,938 C 689,947 659,951 628,951 558,951 495,914 439,841 382,768 344,675 324,564 L 214,0 34,0 196,830 221,968 239,1082 409,1082 374,861 378,861 C 422,950 465,1012 508,1048 551,1084 600,1102 656,1102 687,1102 718,1097 751,1088 L 718,938 Z"/>
  </font>
 </defs>
 <defs>
  <font id="EmbeddedFont_4" horiz-adv-x="2048">
   <font-face font-family="Liberation Serif embedded" units-per-em="2048" font-weight="normal" font-style="italic" ascent="1826" descent="450"/>
   <missing-glyph horiz-adv-x="2048" d="M 0,0 L 2047,0 2047,2047 0,2047 0,0 Z"/>
   <glyph unicode="x" horiz-adv-x="927" d="M 142,84 C 142,65 156,52 184,45 L 176,0 -9,0 C -20,9 -25,23 -25,43 -25,62 -14,85 7,112 28,139 63,176 112,221 L 385,475 213,870 106,895 114,940 362,940 507,582 631,700 C 674,741 704,773 721,796 738,819 747,839 747,856 747,863 744,869 738,874 732,879 715,886 688,895 L 696,940 873,940 C 887,929 894,915 894,897 894,858 848,794 756,707 L 542,506 734,66 850,45 842,0 586,0 419,400 248,236 C 211,201 185,172 168,149 151,126 142,104 142,84 Z"/>
   <glyph unicode="t" horiz-adv-x="531" d="M 264,174 C 264,144 272,122 287,107 302,92 321,84 344,84 393,84 443,94 496,114 L 517,67 C 435,9 352,-20 268,-20 215,-20 174,-4 144,28 113,60 98,105 98,162 98,181 100,204 104,231 107,257 144,465 213,856 L 90,856 98,901 231,940 368,1153 432,1153 395,940 610,940 594,856 379,856 282,307 C 270,246 264,201 264,174 Z"/>
  </font>
 </defs>
 <defs>
  <font id="EmbeddedFont_5" horiz-adv-x="2048">
   <font-face font-family="Liberation Serif embedded" units-per-em="2048" font-weight="bold" font-style="normal" ascent="1826" descent="450"/>
   <missing-glyph horiz-adv-x="2048" d="M 0,0 L 2047,0 2047,2047 0,2047 0,0 Z"/>
   <glyph unicode="y" horiz-adv-x="1006" d="M 462,-29 L 86,850 20,874 20,940 501,940 501,874 389,848 610,328 807,850 697,874 697,940 1004,940 1004,874 936,854 565,-59 C 522,-168 485,-246 453,-296 421,-344 386,-381 347,-406 308,-430 263,-442 213,-442 159,-442 104,-436 48,-423 L 48,-181 108,-181 151,-307 C 170,-322 195,-330 225,-330 250,-330 273,-324 292,-312 311,-300 330,-283 347,-260 364,-237 380,-209 395,-177 410,-143 433,-94 462,-29 Z"/>
   <glyph unicode="t" horiz-adv-x="663" d="M 438,-20 C 348,-20 279,0 230,41 181,82 156,140 156,217 L 156,836 33,836 33,901 178,940 295,1153 445,1153 445,940 643,940 643,836 445,836 445,235 C 445,192 454,159 472,137 490,115 514,104 543,104 578,104 622,109 673,120 L 673,35 C 653,21 619,8 571,-3 522,-14 478,-20 438,-20 Z"/>
   <glyph unicode="W" horiz-adv-x="1986" d="M 1501,-31 L 1378,-31 1044,796 713,-31 590,-31 146,1242 29,1268 29,1341 631,1341 631,1268 474,1242 760,443 1074,1227 1199,1227 1514,445 1751,1242 1582,1268 1582,1341 2016,1341 2016,1268 1899,1242 1501,-31 Z"/>
   <glyph unicode="R" horiz-adv-x="1483" d="M 523,568 L 523,100 695,73 695,0 48,0 48,73 207,100 207,1242 35,1268 35,1341 676,1341 C 873,1341 1021,1311 1118,1250 1215,1189 1264,1095 1264,966 1264,774 1174,651 994,596 L 1352,100 1497,73 1497,0 1063,0 689,568 523,568 Z M 952,964 C 952,1064 931,1134 890,1173 849,1212 773,1231 663,1231 L 523,1231 523,678 668,678 C 771,678 844,699 887,742 930,785 952,859 952,964 Z"/>
   <glyph unicode="K" horiz-adv-x="1563" d="M 1469,1341 L 1469,1268 1305,1242 862,851 1452,100 1577,73 1577,0 1139,0 638,646 522,546 522,100 715,73 715,0 35,0 35,73 207,100 207,1242 35,1268 35,1341 695,1341 695,1268 522,1242 522,696 1133,1242 1010,1268 1010,1341 1469,1341 Z"/>
   <glyph unicode="G" horiz-adv-x="1457" d="M 1406,70 C 1323,43 1227,21 1118,5 1009,-12 910,-20 823,-20 677,-20 550,7 441,60 332,113 248,191 189,293 130,395 100,516 100,655 100,880 164,1053 293,1174 421,1295 604,1356 842,1356 900,1356 953,1354 1001,1349 1048,1344 1093,1338 1134,1330 1175,1322 1251,1302 1362,1271 L 1362,963 1272,963 1248,1137 C 1195,1173 1137,1201 1074,1221 1011,1241 945,1251 878,1251 723,1251 610,1203 539,1106 468,1009 432,860 432,657 432,468 470,326 545,229 620,132 728,83 870,83 947,83 1021,95 1091,118 L 1091,506 919,532 919,606 1537,606 1537,532 1406,506 1406,70 Z"/>
   <glyph unicode="E" horiz-adv-x="1245" d="M 35,73 L 207,100 207,1242 35,1268 35,1341 1177,1341 1177,1000 1086,1000 1054,1217 C 979,1226 871,1231 730,1231 L 522,1231 522,739 873,739 904,887 993,887 993,475 904,475 873,627 522,627 522,110 775,110 C 947,110 1060,115 1113,126 L 1170,374 1261,374 1242,0 35,0 35,73 Z"/>
   <glyph unicode="C" horiz-adv-x="1245" d="M 815,-20 C 590,-20 415,40 289,159 163,278 100,444 100,655 100,884 160,1059 281,1178 401,1297 579,1356 814,1356 969,1356 1130,1334 1297,1289 L 1303,967 1213,967 1185,1161 C 1097,1221 995,1251 878,1251 723,1251 610,1203 539,1107 468,1010 432,861 432,658 432,471 469,328 544,230 619,132 727,83 870,83 945,83 1011,93 1068,113 1124,133 1168,157 1200,184 L 1232,404 1323,404 1317,64 C 1257,41 1179,21 1083,5 987,-12 898,-20 815,-20 Z"/>
   <glyph unicode="A" horiz-adv-x="1483" d="M 428,73 L 428,0 20,0 20,73 120,100 597,1352 887,1352 1362,100 1464,73 1464,0 867,0 867,73 1022,100 894,447 379,447 256,100 428,73 Z M 641,1150 L 420,557 856,557 641,1150 Z"/>
  </font>
 </defs>
 <defs>
  <font id="EmbeddedFont_6" horiz-adv-x="2048">
   <font-face font-family="MathJax_Vector embedded" units-per-em="2048" font-weight="bold" font-style="normal" ascent="1455" descent="397"/>
   <missing-glyph horiz-adv-x="2048" d="M 0,0 L 2047,0 2047,2047 0,2047 0,0 Z"/>
   <glyph unicode="9" horiz-adv-x="1218" d="M 205,33 L 205,309 C 266,280 325,259 381,245 437,230 492,223 547,223 662,223 751,255 815,319 879,382 917,477 928,602 883,569 834,544 783,527 732,510 676,502 616,502 463,502 340,547 247,636 153,725 106,842 106,987 106,1148 158,1276 263,1373 367,1470 507,1518 682,1518 877,1518 1027,1452 1134,1321 1241,1190 1294,1004 1294,764 1294,517 1232,324 1107,183 982,42 811,-29 594,-29 524,-29 457,-24 393,-14 329,-3 266,12 205,33 Z M 680,752 C 747,752 798,774 832,818 866,861 883,927 883,1014 883,1101 866,1166 832,1210 798,1254 747,1276 680,1276 613,1276 562,1254 528,1210 494,1166 477,1101 477,1014 477,927 494,861 528,818 562,774 613,752 680,752 Z"/>
   <glyph unicode="8" horiz-adv-x="1191" d="M 713,668 C 641,668 586,648 547,609 508,570 489,513 489,440 489,367 508,311 547,272 586,233 641,213 713,213 784,213 839,233 877,272 915,311 934,367 934,440 934,514 915,571 877,610 839,649 784,668 713,668 Z M 432,795 C 341,822 273,864 227,921 181,978 158,1048 158,1133 158,1259 205,1355 299,1421 393,1487 531,1520 713,1520 894,1520 1031,1487 1125,1422 1219,1356 1266,1260 1266,1133 1266,1048 1243,978 1197,921 1150,864 1082,822 991,795 1092,767 1169,722 1221,659 1272,596 1298,516 1298,420 1298,272 1249,160 1151,85 1052,9 906,-29 713,-29 519,-29 373,9 274,85 175,160 125,272 125,420 125,516 151,596 203,659 254,722 331,767 432,795 Z M 522,1094 C 522,1035 539,989 572,957 605,925 652,909 713,909 773,909 819,925 852,957 885,989 901,1035 901,1094 901,1153 885,1199 852,1231 819,1262 773,1278 713,1278 652,1278 605,1262 572,1230 539,1198 522,1153 522,1094 Z"/>
   <glyph unicode="7" horiz-adv-x="1139" d="M 137,1493 L 1262,1493 1262,1276 680,0 305,0 856,1210 137,1210 137,1493 Z"/>
   <glyph unicode="6" horiz-adv-x="1218" d="M 741,737 C 674,737 623,715 590,672 556,628 539,562 539,475 539,388 556,322 590,279 623,235 674,213 741,213 809,213 860,235 894,279 927,322 944,388 944,475 944,562 927,628 894,672 860,715 809,737 741,737 Z M 1217,1454 L 1217,1178 C 1154,1208 1094,1230 1038,1245 982,1259 927,1266 874,1266 759,1266 670,1234 606,1171 542,1107 505,1012 494,887 538,920 586,944 637,961 688,977 744,985 805,985 958,985 1081,940 1175,851 1268,762 1315,645 1315,500 1315,340 1263,212 1158,116 1053,19 913,-29 737,-29 543,-29 393,37 287,168 180,299 127,484 127,725 127,972 189,1166 314,1307 438,1448 608,1518 825,1518 894,1518 960,1513 1025,1502 1090,1491 1154,1475 1217,1454 Z"/>
   <glyph unicode="5" horiz-adv-x="1165" d="M 217,1493 L 1174,1493 1174,1210 524,1210 524,979 C 553,987 583,993 613,998 642,1002 673,1004 705,1004 887,1004 1029,959 1130,868 1231,777 1282,650 1282,487 1282,326 1227,199 1117,108 1006,17 853,-29 657,-29 572,-29 489,-21 406,-5 323,12 240,37 158,70 L 158,373 C 239,326 317,291 390,268 463,245 531,233 596,233 689,233 763,256 817,302 870,347 897,409 897,487 897,566 870,628 817,673 763,718 689,741 596,741 541,741 482,734 419,720 356,705 289,683 217,653 L 217,1493 Z"/>
   <glyph unicode="4" horiz-adv-x="1271" d="M 754,1176 L 332,551 754,551 754,1176 Z M 690,1493 L 1118,1493 1118,551 1331,551 1331,272 1118,272 1118,0 754,0 754,272 92,272 92,602 690,1493 Z"/>
   <glyph unicode="3" horiz-adv-x="1139" d="M 954,805 C 1055,779 1131,734 1184,670 1236,605 1262,523 1262,424 1262,276 1205,164 1092,87 979,10 813,-29 596,-29 519,-29 443,-23 366,-11 289,2 212,20 137,45 L 137,342 C 209,306 281,279 352,261 423,242 492,233 561,233 663,233 741,251 796,286 850,321 877,372 877,438 877,506 849,558 794,593 738,628 656,645 547,645 L 393,645 393,893 555,893 C 652,893 724,908 771,939 818,969 842,1015 842,1077 842,1134 819,1179 773,1210 727,1241 662,1257 578,1257 516,1257 453,1250 390,1236 327,1222 264,1201 201,1174 L 201,1456 C 277,1477 352,1493 427,1504 502,1515 575,1520 647,1520 841,1520 986,1488 1083,1425 1179,1361 1227,1265 1227,1137 1227,1050 1204,978 1158,923 1112,867 1044,828 954,805 Z"/>
   <glyph unicode="2" horiz-adv-x="1086" d="M 590,283 L 1247,283 1247,0 162,0 162,283 707,764 C 756,808 792,851 815,893 838,935 850,979 850,1024 850,1094 827,1150 780,1193 733,1236 670,1257 592,1257 532,1257 466,1244 395,1219 324,1193 247,1155 166,1104 L 166,1432 C 253,1461 338,1483 423,1498 508,1513 591,1520 672,1520 851,1520 990,1481 1089,1402 1188,1323 1237,1214 1237,1073 1237,992 1216,916 1174,846 1132,775 1044,681 909,563 L 590,283 Z"/>
   <glyph unicode="1" horiz-adv-x="1085" d="M 240,266 L 580,266 580,1231 231,1159 231,1421 578,1493 944,1493 944,266 1284,266 1284,0 240,0 240,266 Z"/>
   <glyph unicode="0" horiz-adv-x="1245" d="M 942,748 C 942,935 925,1066 890,1143 855,1219 796,1257 713,1257 630,1257 571,1219 536,1143 501,1066 483,935 483,748 483,559 501,426 536,349 571,272 630,233 713,233 795,233 854,272 889,349 924,426 942,559 942,748 Z M 1327,745 C 1327,498 1274,307 1167,173 1060,38 909,-29 713,-29 516,-29 365,38 258,173 151,307 98,498 98,745 98,993 151,1184 258,1319 365,1453 516,1520 713,1520 909,1520 1060,1453 1167,1319 1274,1184 1327,993 1327,745 Z"/>
   <glyph unicode="-" horiz-adv-x="636" d="M 111,735 L 739,735 739,444 111,444 111,735 Z"/>
  </font>
 </defs>
 <defs class="TextShapeIndex">
  <g ooo:slide="id1" ooo:id-list="id3 id4 id5 id6 id7 id8 id9 id10 id11 id12 id13 id14 id15 id16 id17 id18 id19 id20 id21 id22 id23 id24 id25 id26 id27 id28 id29 id30 id31 id32 id33 id34 id35 id36 id37 id38 id39 id40 id41 id42"/>
 </defs>
 <defs class="EmbeddedBulletChars">
  <g id="bullet-char-template-57356" transform="scale(0.00048828125,-0.00048828125)">
   <path d="M 580,1141 L 1163,571 580,0 -4,571 580,1141 Z"/>
  </g>
  <g id="bullet-char-template-57354" transform="scale(0.00048828125,-0.00048828125)">
   <path d="M 8,1128 L 1137,1128 1137,0 8,0 8,1128 Z"/>
  </g>
  <g id="bullet-char-template-10146" transform="scale(0.00048828125,-0.00048828125)">
   <path d="M 174,0 L 602,739 174,1481 1456,739 174,0 Z M 1358,739 L 309,1346 659,739 1358,739 Z"/>
  </g>
  <g id="bullet-char-template-10132" transform="scale(0.00048828125,-0.00048828125)">
   <path d="M 2015,739 L 1276,0 717,0 1260,543 174,543 174,936 1260,936 717,1481 1274,1481 2015,739 Z"/>
  </g>
  <g id="bullet-char-template-10007" transform="scale(0.00048828125,-0.00048828125)">
   <path d="M 0,-2 C -7,14 -16,27 -25,37 L 356,567 C 262,823 215,952 215,954 215,979 228,992 255,992 264,992 276,990 289,987 310,991 331,999 354,1012 L 381,999 492,748 772,1049 836,1024 860,1049 C 881,1039 901,1025 922,1006 886,937 835,863 770,784 769,783 710,716 594,584 L 774,223 C 774,196 753,168 711,139 L 727,119 C 717,90 699,76 672,76 641,76 570,178 457,381 L 164,-76 C 142,-110 111,-127 72,-127 30,-127 9,-110 8,-76 1,-67 -2,-52 -2,-32 -2,-23 -1,-13 0,-2 Z"/>
  </g>
  <g id="bullet-char-template-10004" transform="scale(0.00048828125,-0.00048828125)">
   <path d="M 285,-33 C 182,-33 111,30 74,156 52,228 41,333 41,471 41,549 55,616 82,672 116,743 169,778 240,778 293,778 328,747 346,684 L 369,508 C 377,444 397,411 428,410 L 1163,1116 C 1174,1127 1196,1133 1229,1133 1271,1133 1292,1118 1292,1087 L 1292,965 C 1292,929 1282,901 1262,881 L 442,47 C 390,-6 338,-33 285,-33 Z"/>
  </g>
  <g id="bullet-char-template-9679" transform="scale(0.00048828125,-0.00048828125)">
   <path d="M 813,0 C 632,0 489,54 383,161 276,268 223,411 223,592 223,773 276,916 383,1023 489,1130 632,1184 813,1184 992,1184 1136,1130 1245,1023 1353,916 1407,772 1407,592 1407,412 1353,268 1245,161 1136,54 992,0 813,0 Z"/>
  </g>
  <g id="bullet-char-template-8226" transform="scale(0.00048828125,-0.00048828125)">
   <path d="M 346,457 C 273,457 209,483 155,535 101,586 74,649 74,723 74,796 101,859 155,911 209,963 273,989 346,989 419,989 480,963 531,910 582,859 608,796 608,723 608,648 583,586 532,535 482,483 420,457 346,457 Z"/>
  </g>
  <g id="bullet-char-template-8211" transform="scale(0.00048828125,-0.00048828125)">
   <path d="M -4,459 L 1135,459 1135,606 -4,606 -4,459 Z"/>
  </g>
  <g id="bullet-char-template-61548" transform="scale(0.00048828125,-0.00048828125)">
   <path d="M 173,740 C 173,903 231,1043 346,1159 462,1274 601,1332 765,1332 928,1332 1067,1274 1183,1159 1299,1043 1357,903 1357,740 1357,577 1299,437 1183,322 1067,206 928,148 765,148 601,148 462,206 346,322 231,437 173,577 173,740 Z"/>
  </g>
 </defs>
 <defs class="TextEmbeddedBitmaps"/>
 <g class="SlideGroup">
  <g>
   <g id="container-id1">
    <g id="id1" class="Slide" clip-path="url(#presentation_clip_path)">
     <g class="Page">
      <g class="Graphic">
       <g id="id3">
        <rect class="BoundingBox" stroke="none" fill="none" x="1381" y="3705" width="1172" height="1360"/>
        <defs>
         <clipPath id="clip_path_1" clipPathUnits="userSpaceOnUse">
          <path d="M 1381,3705 L 2552,3705 2552,5064 1381,5064 1381,3705 Z"/>
         </clipPath>
        </defs>
        <g clip-path="url(#clip_path_1)"/>
        <defs>
         <clipPath id="clip_path_2" clipPathUnits="userSpaceOnUse">
          <path d="M 1477,3904 L 2403,3904 2403,4884 1477,4884 1477,3904 Z"/>
         </clipPath>
        </defs>
        <g clip-path="url(#clip_path_2)">
         <path fill="rgb(248,245,218)" stroke="none" d="M 1922,5374 L 1825,5267 2770,4308 2867,4415 1922,5374 Z"/>
         <path fill="rgb(248,245,218)" stroke="none" d="M 1827,5270 L 1804,5244 2749,4285 2772,4310 1827,5270 Z"/>
         <path fill="rgb(248,245,219)" stroke="none" d="M 1806,5247 L 1783,5221 2728,4262 2751,4287 1806,5247 Z"/>
         <path fill="rgb(248,246,220)" stroke="none" d="M 1786,5224 L 1763,5198 2707,4239 2730,4264 1786,5224 Z"/>
         <path fill="rgb(249,246,221)" stroke="none" d="M 1765,5201 L 1742,5176 2687,4216 2710,4241 1765,5201 Z"/>
         <path fill="rgb(249,246,222)" stroke="none" d="M 1744,5178 L 1721,5153 2666,4193 2689,4219 1744,5178 Z"/>
         <path fill="rgb(249,246,223)" stroke="none" d="M 1723,5155 L 1700,5130 2645,4170 2668,4196 1723,5155 Z"/>
         <path fill="rgb(249,247,224)" stroke="none" d="M 1702,5132 L 1679,5107 2624,4147 2647,4173 1702,5132 Z"/>
         <path fill="rgb(249,247,225)" stroke="none" d="M 1682,5109 L 1659,5084 2603,4124 2626,4150 1682,5109 Z"/>
         <path fill="rgb(249,247,226)" stroke="none" d="M 1661,5086 L 1638,5061 2583,4101 2606,4127 1661,5086 Z"/>
         <path fill="rgb(250,247,227)" stroke="none" d="M 1640,5063 L 1617,5038 2562,4079 2585,4104 1640,5063 Z"/>
         <path fill="rgb(250,248,227)" stroke="none" d="M 1619,5040 L 1596,5015 2541,4056 2564,4081 1619,5040 Z"/>
         <path fill="rgb(250,248,228)" stroke="none" d="M 1598,5017 L 1575,4992 2520,4033 2543,4058 1598,5017 Z"/>
         <path fill="rgb(250,248,229)" stroke="none" d="M 1578,4994 L 1555,4969 2499,4010 2522,4035 1578,4994 Z"/>
         <path fill="rgb(250,248,230)" stroke="none" d="M 1557,4972 L 1534,4946 2479,3987 2502,4012 1557,4972 Z"/>
         <path fill="rgb(251,249,231)" stroke="none" d="M 1536,4949 L 1513,4923 2458,3964 2481,3989 1536,4949 Z"/>
         <path fill="rgb(251,249,232)" stroke="none" d="M 1515,4926 L 1492,4900 2437,3941 2460,3966 1515,4926 Z"/>
         <path fill="rgb(251,249,233)" stroke="none" d="M 1494,4903 L 1471,4877 2416,3918 2439,3943 1494,4903 Z"/>
         <path fill="rgb(251,249,234)" stroke="none" d="M 1474,4880 L 1451,4854 2395,3895 2418,3920 1474,4880 Z"/>
         <path fill="rgb(251,250,235)" stroke="none" d="M 1453,4857 L 1430,4832 2375,3872 2398,3897 1453,4857 Z"/>
         <path fill="rgb(251,250,236)" stroke="none" d="M 1432,4834 L 1409,4809 2354,3849 2377,3875 1432,4834 Z"/>
         <path fill="rgb(252,250,237)" stroke="none" d="M 1411,4811 L 1388,4786 2333,3826 2356,3852 1411,4811 Z"/>
         <path fill="rgb(252,250,238)" stroke="none" d="M 1390,4788 L 1367,4763 2312,3803 2335,3829 1390,4788 Z"/>
         <path fill="rgb(252,251,239)" stroke="none" d="M 1370,4765 L 1347,4740 2291,3780 2314,3806 1370,4765 Z"/>
         <path fill="rgb(252,251,240)" stroke="none" d="M 1349,4742 L 1326,4717 2271,3757 2294,3783 1349,4742 Z"/>
         <path fill="rgb(252,251,241)" stroke="none" d="M 1328,4719 L 1305,4694 2250,3735 2273,3760 1328,4719 Z"/>
         <path fill="rgb(252,251,242)" stroke="none" d="M 1307,4696 L 1284,4671 2229,3712 2252,3737 1307,4696 Z"/>
         <path fill="rgb(253,252,243)" stroke="none" d="M 1286,4673 L 1263,4648 2208,3689 2231,3714 1286,4673 Z"/>
         <path fill="rgb(253,252,244)" stroke="none" d="M 1266,4650 L 1243,4625 2187,3666 2210,3691 1266,4650 Z"/>
         <path fill="rgb(253,252,245)" stroke="none" d="M 1245,4628 L 1222,4602 2167,3643 2190,3668 1245,4628 Z"/>
         <path fill="rgb(253,252,246)" stroke="none" d="M 1224,4605 L 1201,4579 2146,3620 2169,3645 1224,4605 Z"/>
         <path fill="rgb(253,253,246)" stroke="none" d="M 1203,4582 L 1180,4556 2125,3597 2148,3622 1203,4582 Z"/>
         <path fill="rgb(254,253,247)" stroke="none" d="M 1182,4559 L 1159,4533 2104,3574 2127,3599 1182,4559 Z"/>
         <path fill="rgb(254,253,248)" stroke="none" d="M 1162,4536 L 1139,4510 2083,3551 2106,3576 1162,4536 Z"/>
         <path fill="rgb(254,253,249)" stroke="none" d="M 1141,4513 L 1118,4488 2063,3528 2086,3553 1141,4513 Z"/>
         <path fill="rgb(254,254,250)" stroke="none" d="M 1120,4490 L 1097,4465 2042,3505 2065,3531 1120,4490 Z"/>
         <path fill="rgb(254,254,251)" stroke="none" d="M 1099,4467 L 1076,4442 2021,3482 2044,3508 1099,4467 Z"/>
         <path fill="rgb(254,254,252)" stroke="none" d="M 1078,4444 L 1055,4419 2000,3459 2023,3485 1078,4444 Z"/>
         <path fill="rgb(255,254,253)" stroke="none" d="M 1058,4421 L 1035,4396 1979,3436 2002,3462 1058,4421 Z"/>
         <path fill="rgb(255,255,254)" stroke="none" d="M 1037,4398 L 1014,4373 1959,3413 1982,3439 1037,4398 Z"/>
         <path fill="rgb(255,255,255)" stroke="none" d="M 1016,4375 L 1013,4373 1958,3413 1961,3416 1016,4375 Z"/>
        </g>
        <g clip-path="url(#clip_path_1)">
         <path fill="none" stroke="rgb(0,0,0)" stroke-width="14" stroke-linejoin="bevel" stroke-linecap="round" d="M 1477,3904 L 2403,3904 2403,4884 1477,4884 1477,3904 1477,3904 Z"/>
         <path fill="rgb(158,157,155)" stroke="none" d="M 1587,3988 L 1664,4172 C 1677,4172 1689,4162 1689,4151 L 1611,3976 1587,3988 1587,3988 Z"/>
         <path fill="rgb(255,255,255)" stroke="none" d="M 1612,4041 L 1668,4171 1680,4170 1618,4036 1612,4041 1612,4041 Z"/>
         <path fill="rgb(0,0,0)" stroke="none" d="M 1582,3990 C 1627,4091 1618,4073 1664,4174 1679,4180 1691,4168 1694,4150 1649,4051 1662,4075 1617,3976 1607,3981 1592,3985 1582,3990 L 1582,3990 Z M 1591,3994 C 1597,3991 1603,3988 1609,3985 1653,4082 1642,4050 1685,4148 1686,4162 1679,4168 1669,4168 1625,4070 1635,4092 1591,3994 L 1591,3994 Z"/>
         <path fill="rgb(255,0,0)" stroke="none" d="M 1503,3782 C 1440,3819 1399,3873 1412,3904 1414,3910 1419,3914 1425,3918 1433,3930 1444,3949 1452,3967 1434,3995 1427,4021 1436,4041 1454,4084 1536,4081 1618,4034 1700,3986 1752,3913 1733,3870 1724,3849 1699,3839 1666,3840 1656,3827 1646,3812 1642,3795 1644,3786 1644,3779 1641,3772 1641,3771 1640,3770 1640,3770 1640,3769 1640,3769 1640,3769 1640,3769 1639,3769 1639,3768 1623,3742 1563,3747 1503,3782 L 1503,3782 Z"/>
        </g>
        <defs>
         <clipPath id="clip_path_3" clipPathUnits="userSpaceOnUse">
          <path d="M 1635,3772 L 1635,3772 C 1639,3780 1637,3790 1630,3804 1624,3817 1613,3829 1598,3844 1582,3858 1566,3870 1546,3881 1526,3893 1508,3901 1489,3906 1470,3912 1455,3914 1442,3912 1429,3911 1421,3906 1417,3897 L 1417,3897 C 1413,3889 1415,3879 1422,3865 1429,3852 1439,3840 1454,3825 1470,3811 1486,3799 1506,3788 1526,3776 1544,3768 1563,3763 1582,3757 1597,3755 1610,3757 1624,3759 1631,3763 1635,3772 L 1635,3772 1635,3772 Z"/>
         </clipPath>
        </defs>
        <g clip-path="url(#clip_path_3)">
         <image x="1395" y="3721" width="263" height="228" preserveAspectRatio="none" xlink:href="data:image/png;base64,iVBORw0KGgoAAAANSUhEUgAAAAsAAAAJCAYAAADkZNYtAAAAj0lEQVR4nGP5//8/AxpgBOImIC4HYlYg3grEPiAJFjSFAUA8F4iFkMR0oOr+wBSrAPFaINZDUgSycgUQVwCxMRCfBCleBzWREUnhWSDOAeITUD4bzBmBSIqeA3ENEC8A4n9I4ndgiq8DsRIQ9wBxBxB/QfcxDIAUJwLxW5hufACk+CQQaxBSCFMMAq+IUQwAzd4ZoeejUvEAAAAASUVORK5CYII="/>
        </g>
        <g clip-path="url(#clip_path_1)">
         <path fill="rgb(0,0,0)" stroke="none" d="M 1637,3796 C 1619,3836 1576,3868 1535,3890 1515,3901 1495,3909 1477,3912 1459,3916 1443,3920 1435,3915 L 1433,3918 C 1444,3924 1460,3924 1478,3920 1497,3916 1517,3908 1538,3897 1580,3875 1621,3840 1641,3797 L 1637,3796 1637,3796 Z"/>
         <path fill="rgb(0,0,0)" stroke="none" d="M 1663,3846 C 1650,3885 1614,3925 1575,3948 1536,3971 1491,3980 1457,3969 L 1457,3971 C 1492,3983 1538,3979 1578,3955 1619,3932 1651,3889 1666,3848 L 1663,3846 1663,3846 Z"/>
        </g>
        <defs>
         <clipPath id="clip_path_4" clipPathUnits="userSpaceOnUse">
          <path d="M 1445,4045 C 1525,4062 1688,3978 1729,3872 1758,3970 1522,4123 1445,4045 L 1445,4045 Z"/>
         </clipPath>
        </defs>
        <g clip-path="url(#clip_path_4)">
         <image x="1303" y="3762" width="581" height="432" preserveAspectRatio="none" xlink:href="data:image/png;base64,iVBORw0KGgoAAAANSUhEUgAAABcAAAARCAYAAAA2cze9AAABBklEQVR4nGP5//8/A60AC81MpoLhbEBsCsQWQKwOxCJAfBuIyykxXByIfYHYAYi50OSewxikGi4JxJFAbAXETFjkXwHxfFIN5wPiCCB2BWJmHGreAHEDEH8k1nBGqIExQMyDR91dIG4H4nfIgvgMBwVBPhCrEXDAPiCeBcS/0CVwGe4ExMlAzInH0C9APB2Ij+NSgG44KDxTgdgNj6EgcIQBEnHv8SlCNpwDiKuAWAeP+sdAPA+ILxKwHMVwUGaoxGMwKCWsBOL9QPyPGIORDQclM10cLt0MxAeB+DexhqIbjhzGoIg6ATXwGhCTXbLBDK8GYkEGSDp9TImB2Ax/CMVUBTQtcgGHVCyjiJBImgAAAABJRU5ErkJggg=="/>
        </g>
        <g clip-path="url(#clip_path_1)">
         <path fill="rgb(0,0,0)" stroke="none" d="M 1502,3779 C 1469,3799 1436,3825 1415,3862 1407,3878 1400,3910 1424,3917 1435,3924 1432,3935 1439,3947 1445,3958 1456,3965 1444,3976 1434,3996 1424,4029 1437,4050 1453,4073 1480,4076 1504,4075 1558,4071 1610,4048 1655,4015 1687,3991 1719,3961 1735,3920 1744,3899 1744,3871 1728,3855 1712,3839 1689,3837 1668,3837 1659,3823 1642,3808 1644,3790 1645,3776 1643,3763 1633,3757 1611,3743 1584,3748 1561,3754 1540,3760 1521,3769 1502,3779 L 1502,3779 Z M 1505,3787 C 1537,3769 1573,3754 1609,3757 1623,3758 1640,3765 1641,3784 1638,3795 1642,3806 1647,3816 1652,3826 1659,3834 1666,3842 1677,3844 1687,3844 1697,3847 1714,3851 1733,3864 1734,3886 1735,3915 1718,3944 1702,3964 1664,4010 1614,4040 1561,4059 1529,4069 1495,4074 1463,4062 1447,4056 1435,4039 1437,4019 1438,4001 1447,3984 1456,3969 1456,3959 1448,3951 1444,3942 1439,3933 1435,3922 1428,3914 1415,3908 1411,3891 1416,3877 1428,3845 1453,3823 1478,3805 1487,3798 1496,3792 1505,3787 L 1505,3787 Z"/>
        </g>
        <text class="TextShape"><tspan class="TextParagraph" font-family="Liberation Serif, serif" font-size="529px" font-style="italic" font-weight="400"><tspan class="TextPosition" x="1702" y="4563"><tspan fill="rgb(0,0,0)" stroke="none">txt</tspan></tspan></tspan></text>
       </g>
      </g>
      <g class="Graphic">
       <g id="id4">
        <rect class="BoundingBox" stroke="none" fill="none" x="2535" y="3872" width="2088" height="1002"/>
        <defs>
         <clipPath id="clip_path_5" clipPathUnits="userSpaceOnUse">
          <path d="M 2573,4373 L 4287,4221 4246,3934 4584,4376 4248,4811 4287,4538 2573,4386 2573,4373 Z"/>
         </clipPath>
        </defs>
        <g clip-path="url(#clip_path_5)">
         <path fill="rgb(255,95,6)" stroke="none" d="M 2493,4870 L 2586,4867 2579,3990 2486,3994 2493,4870 Z"/>
         <path fill="rgb(254,93,6)" stroke="none" d="M 2534,4869 L 2627,4866 2620,3989 2526,3992 2534,4869 Z"/>
         <path fill="rgb(253,92,6)" stroke="none" d="M 2575,4867 L 2668,4864 2660,3988 2567,3991 2575,4867 Z"/>
         <path fill="rgb(252,90,7)" stroke="none" d="M 2615,4866 L 2709,4863 2701,3986 2608,3989 2615,4866 Z"/>
         <path fill="rgb(251,88,7)" stroke="none" d="M 2656,4865 L 2749,4862 2742,3985 2649,3988 2656,4865 Z"/>
         <path fill="rgb(250,87,7)" stroke="none" d="M 2697,4863 L 2790,4860 2783,3984 2689,3987 2697,4863 Z"/>
         <path fill="rgb(249,85,7)" stroke="none" d="M 2738,4862 L 2830,4859 2822,3982 2730,3985 2738,4862 Z"/>
         <path fill="rgb(248,83,7)" stroke="none" d="M 2777,4861 L 2869,4858 2862,3981 2770,3984 2777,4861 Z"/>
         <path fill="rgb(247,82,7)" stroke="none" d="M 2817,4859 L 2909,4856 2902,3979 2810,3983 2817,4859 Z"/>
         <path fill="rgb(246,80,8)" stroke="none" d="M 2857,4858 L 2949,4855 2941,3978 2849,3981 2857,4858 Z"/>
         <path fill="rgb(245,79,8)" stroke="none" d="M 2896,4857 L 2988,4854 2981,3977 2889,3980 2896,4857 Z"/>
         <path fill="rgb(245,77,8)" stroke="none" d="M 2936,4855 L 3028,4852 3020,3975 2928,3979 2936,4855 Z"/>
         <path fill="rgb(244,75,8)" stroke="none" d="M 2975,4854 L 3068,4851 3060,3974 2968,3977 2975,4854 Z"/>
         <path fill="rgb(243,74,8)" stroke="none" d="M 3015,4853 L 3107,4849 3100,3973 3008,3976 3015,4853 Z"/>
         <path fill="rgb(242,72,9)" stroke="none" d="M 3055,4851 L 3147,4848 3139,3971 3047,3975 3055,4851 Z"/>
         <path fill="rgb(241,71,9)" stroke="none" d="M 3094,4850 L 3186,4847 3179,3970 3087,3973 3094,4850 Z"/>
         <path fill="rgb(240,69,9)" stroke="none" d="M 3134,4849 L 3226,4845 3219,3969 3127,3972 3134,4849 Z"/>
         <path fill="rgb(239,67,9)" stroke="none" d="M 3174,4847 L 3266,4844 3258,3967 3166,3971 3174,4847 Z"/>
         <path fill="rgb(238,66,10)" stroke="none" d="M 3213,4846 L 3305,4843 3298,3966 3206,3969 3213,4846 Z"/>
         <path fill="rgb(238,64,10)" stroke="none" d="M 3253,4845 L 3345,4841 3338,3965 3245,3968 3253,4845 Z"/>
         <path fill="rgb(237,63,10)" stroke="none" d="M 3293,4843 L 3385,4840 3377,3963 3285,3967 3293,4843 Z"/>
         <path fill="rgb(236,61,10)" stroke="none" d="M 3332,4842 L 3424,4839 3417,3962 3325,3965 3332,4842 Z"/>
         <path fill="rgb(235,59,10)" stroke="none" d="M 3372,4841 L 3464,4837 3456,3961 3364,3964 3372,4841 Z"/>
         <path fill="rgb(234,58,11)" stroke="none" d="M 3411,4839 L 3504,4836 3496,3959 3404,3963 3411,4839 Z"/>
         <path fill="rgb(233,56,11)" stroke="none" d="M 3451,4838 L 3543,4835 3536,3958 3444,3961 3451,4838 Z"/>
         <path fill="rgb(232,55,11)" stroke="none" d="M 3491,4837 L 3583,4833 3575,3957 3483,3960 3491,4837 Z"/>
         <path fill="rgb(231,53,11)" stroke="none" d="M 3530,4835 L 3622,4832 3615,3955 3523,3958 3530,4835 Z"/>
         <path fill="rgb(230,51,11)" stroke="none" d="M 3570,4834 L 3662,4831 3655,3954 3563,3957 3570,4834 Z"/>
         <path fill="rgb(230,50,12)" stroke="none" d="M 3610,4833 L 3702,4829 3694,3953 3602,3956 3610,4833 Z"/>
         <path fill="rgb(229,48,12)" stroke="none" d="M 3649,4831 L 3741,4828 3734,3951 3642,3954 3649,4831 Z"/>
         <path fill="rgb(228,47,12)" stroke="none" d="M 3689,4830 L 3781,4827 3773,3950 3681,3953 3689,4830 Z"/>
         <path fill="rgb(227,45,12)" stroke="none" d="M 3728,4828 L 3821,4825 3813,3949 3721,3952 3728,4828 Z"/>
         <path fill="rgb(226,44,12)" stroke="none" d="M 3768,4827 L 3860,4824 3853,3947 3761,3950 3768,4827 Z"/>
         <path fill="rgb(225,42,13)" stroke="none" d="M 3808,4826 L 3900,4823 3892,3946 3800,3949 3808,4826 Z"/>
         <path fill="rgb(224,40,13)" stroke="none" d="M 3847,4824 L 3939,4821 3932,3945 3840,3948 3847,4824 Z"/>
         <path fill="rgb(223,39,13)" stroke="none" d="M 3887,4823 L 3979,4820 3972,3943 3880,3946 3887,4823 Z"/>
         <path fill="rgb(222,37,13)" stroke="none" d="M 3927,4822 L 4019,4819 4011,3942 3919,3945 3927,4822 Z"/>
         <path fill="rgb(222,36,14)" stroke="none" d="M 3966,4820 L 4058,4817 4051,3941 3959,3944 3966,4820 Z"/>
         <path fill="rgb(221,34,14)" stroke="none" d="M 4006,4819 L 4098,4816 4091,3939 3998,3942 4006,4819 Z"/>
         <path fill="rgb(220,32,14)" stroke="none" d="M 4046,4818 L 4138,4815 4130,3938 4038,3941 4046,4818 Z"/>
         <path fill="rgb(219,31,14)" stroke="none" d="M 4085,4816 L 4177,4813 4170,3937 4078,3940 4085,4816 Z"/>
         <path fill="rgb(218,29,14)" stroke="none" d="M 4125,4815 L 4217,4812 4209,3935 4117,3938 4125,4815 Z"/>
         <path fill="rgb(217,28,15)" stroke="none" d="M 4164,4814 L 4257,4811 4249,3934 4157,3937 4164,4814 Z"/>
         <path fill="rgb(216,26,15)" stroke="none" d="M 4204,4812 L 4296,4809 4289,3933 4197,3936 4204,4812 Z"/>
         <path fill="rgb(215,24,15)" stroke="none" d="M 4244,4811 L 4336,4808 4328,3931 4236,3934 4244,4811 Z"/>
         <path fill="rgb(214,23,15)" stroke="none" d="M 4283,4810 L 4375,4807 4368,3930 4276,3933 4283,4810 Z"/>
         <path fill="rgb(214,21,15)" stroke="none" d="M 4323,4808 L 4415,4805 4408,3929 4315,3932 4323,4808 Z"/>
         <path fill="rgb(213,20,16)" stroke="none" d="M 4363,4807 L 4455,4804 4447,3927 4355,3930 4363,4807 Z"/>
         <path fill="rgb(212,18,16)" stroke="none" d="M 4402,4806 L 4494,4803 4487,3926 4395,3929 4402,4806 Z"/>
         <path fill="rgb(211,16,16)" stroke="none" d="M 4442,4804 L 4534,4801 4526,3925 4434,3928 4442,4804 Z"/>
         <path fill="rgb(210,15,16)" stroke="none" d="M 4481,4803 L 4574,4800 4566,3923 4474,3926 4481,4803 Z"/>
         <path fill="rgb(209,13,17)" stroke="none" d="M 4521,4802 L 4613,4799 4606,3922 4514,3925 4521,4802 Z"/>
         <path fill="rgb(208,12,17)" stroke="none" d="M 4561,4800 L 4653,4797 4645,3921 4553,3924 4561,4800 Z"/>
         <path fill="rgb(207,10,17)" stroke="none" d="M 4600,4799 L 4692,4796 4685,3919 4593,3922 4600,4799 Z"/>
         <path fill="rgb(207,8,17)" stroke="none" d="M 4640,4798 L 4732,4795 4725,3918 4633,3921 4640,4798 Z"/>
         <path fill="rgb(206,7,17)" stroke="none" d="M 4680,4796 L 4772,4793 4764,3917 4672,3920 4680,4796 Z"/>
         <path fill="rgb(205,5,18)" stroke="none" d="M 4719,4795 L 4811,4792 4804,3915 4712,3918 4719,4795 Z"/>
         <path fill="rgb(204,4,18)" stroke="none" d="M 4759,4794 L 4851,4791 4844,3914 4751,3917 4759,4794 Z"/>
        </g>
        <text class="TextShape"><tspan class="TextParagraph" font-family="Courier New, monospace" font-size="529px" font-weight="400"><tspan class="TextPosition" x="3419" y="4512"><tspan fill="rgb(0,0,0)" stroke="none">=</tspan></tspan></tspan></text>
       </g>
      </g>
      <g class="com.sun.star.drawing.CustomShape">
       <g id="id5">
        <rect class="BoundingBox" stroke="none" fill="none" x="5195" y="3744" width="1263" height="1263"/>
        <image x="5195" y="3744" width="1262" height="1262" preserveAspectRatio="none" xlink:href="data:image/png;base64,iVBORw0KGgoAAAANSUhEUgAAADEAAAAxCAYAAABznEEcAAABFklEQVR4nO2ayw3CMBBEfdgyQh9AH6ERuiJ9IPqAQvCgrAKJ1wkHkkGaJ1l8zGFeMMthYqlMk9e1f34LPrM1yHjIq7Ng813gtFaqL/CMd7wYS/jmOa923VyLmWS0YLNLnBLFjBZsMhJmtNomEdWMloYfcZs+j9C+f7z8Mt1CkCW8yH6cWMcogADyhafEUjxG/RvYesTOnoTS/8TfIQkWJMGCJFiQBAuSYEESLEiCBUmwIAkWJMGCJFiQBAuSYEESLEiChTkJFBxbN0W1xupVwEQSTRoaGlaQcZfXsVbGsxSRpcbKM+K9R62MZxAoMclYK+MZKWZUGb8is2U8brfB3SrjMp4FTElMIfyIwzKe9eo73rOH4/4JT44/MYMQmBsAAAAASUVORK5CYII="/>
        <text class="TextShape"><tspan class="TextParagraph" font-family="Liberation Serif, serif" font-size="847px" font-weight="700"><tspan class="TextPosition" x="5484" y="4674"><tspan fill="rgb(0,0,0)" stroke="none">G</tspan></tspan></tspan></text>
       </g>
      </g>
      <g class="com.sun.star.drawing.CustomShape">
       <g id="id6">
        <rect class="BoundingBox" stroke="none" fill="none" x="8441" y="3744" width="1263" height="1263"/>
        <image x="8441" y="3744" width="1262" height="1262" preserveAspectRatio="none" xlink:href="data:image/png;base64,iVBORw0KGgoAAAANSUhEUgAAADEAAAAxCAYAAABznEEcAAABFklEQVR4nO2ayw3CMBBEfdgyQh9AH6ERuiJ9IPqAQvCgrAKJ1wkHkkGaJ1l8zGFeMMthYqlMk9e1f34LPrM1yHjIq7Ng813gtFaqL/CMd7wYS/jmOa923VyLmWS0YLNLnBLFjBZsMhJmtNomEdWMloYfcZs+j9C+f7z8Mt1CkCW8yH6cWMcogADyhafEUjxG/RvYesTOnoTS/8TfIQkWJMGCJFiQBAuSYEESLEiCBUmwIAkWJMGCJFiQBAuSYEESLEiChTkJFBxbN0W1xupVwEQSTRoaGlaQcZfXsVbGsxSRpcbKM+K9R62MZxAoMclYK+MZKWZUGb8is2U8brfB3SrjMp4FTElMIfyIwzKe9eo73rOH4/4JT44/MYMQmBsAAAAASUVORK5CYII="/>
        <text class="TextShape"><tspan class="TextParagraph" font-family="Liberation Serif, serif" font-size="847px" font-weight="700"><tspan class="TextPosition" x="8849" y="4674"><tspan fill="rgb(0,0,0)" stroke="none">y</tspan></tspan></tspan></text>
       </g>
      </g>
      <g class="com.sun.star.drawing.CustomShape">
       <g id="id7">
        <rect class="BoundingBox" stroke="none" fill="none" x="7359" y="3744" width="1263" height="1263"/>
        <image x="7359" y="3744" width="1262" height="1262" preserveAspectRatio="none" xlink:href="data:image/png;base64,iVBORw0KGgoAAAANSUhEUgAAADEAAAAxCAYAAABznEEcAAABFklEQVR4nO2ayw3CMBBEfdgyQh9AH6ERuiJ9IPqAQvCgrAKJ1wkHkkGaJ1l8zGFeMMthYqlMk9e1f34LPrM1yHjIq7Ng813gtFaqL/CMd7wYS/jmOa923VyLmWS0YLNLnBLFjBZsMhJmtNomEdWMloYfcZs+j9C+f7z8Mt1CkCW8yH6cWMcogADyhafEUjxG/RvYesTOnoTS/8TfIQkWJMGCJFiQBAuSYEESLEiCBUmwIAkWJMGCJFiQBAuSYEESLEiChTkJFBxbN0W1xupVwEQSTRoaGlaQcZfXsVbGsxSRpcbKM+K9R62MZxAoMclYK+MZKWZUGb8is2U8brfB3SrjMp4FTElMIfyIwzKe9eo73rOH4/4JT44/MYMQmBsAAAAASUVORK5CYII="/>
        <text class="TextShape"><tspan class="TextParagraph" font-family="Liberation Serif, serif" font-size="847px" font-weight="700"><tspan class="TextPosition" x="7673" y="4674"><tspan fill="rgb(0,0,0)" stroke="none">R</tspan></tspan></tspan></text>
       </g>
      </g>
      <g class="com.sun.star.drawing.CustomShape">
       <g id="id8">
        <rect class="BoundingBox" stroke="none" fill="none" x="6277" y="3744" width="1264" height="1263"/>
        <image x="6277" y="3744" width="1263" height="1262" preserveAspectRatio="none" xlink:href="data:image/png;base64,iVBORw0KGgoAAAANSUhEUgAAADEAAAAxCAYAAABznEEcAAABFklEQVR4nO2ayw3CMBBEfdgyQh9AH6ERuiJ9IPqAQvCgrAKJ1wkHkkGaJ1l8zGFeMMthYqlMk9e1f34LPrM1yHjIq7Ng813gtFaqL/CMd7wYS/jmOa923VyLmWS0YLNLnBLFjBZsMhJmtNomEdWMloYfcZs+j9C+f7z8Mt1CkCW8yH6cWMcogADyhafEUjxG/RvYesTOnoTS/8TfIQkWJMGCJFiQBAuSYEESLEiCBUmwIAkWJMGCJFiQBAuSYEESLEiChTkJFBxbN0W1xupVwEQSTRoaGlaQcZfXsVbGsxSRpcbKM+K9R62MZxAoMclYK+MZKWZUGb8is2U8brfB3SrjMp4FTElMIfyIwzKe9eo73rOH4/4JT44/MYMQmBsAAAAASUVORK5CYII="/>
        <text class="TextShape"><tspan class="TextParagraph" font-family="Liberation Serif, serif" font-size="847px" font-weight="700"><tspan class="TextPosition" x="6592" y="4674"><tspan fill="rgb(0,0,0)" stroke="none">A</tspan></tspan></tspan></text>
       </g>
      </g>
      <g class="com.sun.star.drawing.CustomShape">
       <g id="id9">
        <rect class="BoundingBox" stroke="none" fill="none" x="4159" y="4937" width="13643" height="1831"/>
        <g>
         <defs>
          <linearGradient id="gradient1" x1="4211" y1="5877" x2="17802" y2="5877" gradientUnits="userSpaceOnUse">
           <stop offset="0.06484375" style="stop-color:rgb(230,230,230)"/>
           <stop offset="0.06484375" style="stop-color:rgb(230,230,230)"/>
           <stop offset="0.0796875" style="stop-color:rgb(230,230,230)"/>
           <stop offset="0.0796875" style="stop-color:rgb(230,230,230)"/>
           <stop offset="0.09453125" style="stop-color:rgb(230,230,230)"/>
           <stop offset="0.09453125" style="stop-color:rgb(230,230,230)"/>
           <stop offset="0.109375" style="stop-color:rgb(230,230,230)"/>
           <stop offset="0.109375" style="stop-color:rgb(230,230,230)"/>
           <stop offset="0.12421875" style="stop-color:rgb(230,230,230)"/>
           <stop offset="0.12421875" style="stop-color:rgb(230,230,230)"/>
           <stop offset="0.1390625" style="stop-color:rgb(230,230,230)"/>
           <stop offset="0.1390625" style="stop-color:rgb(230,230,230)"/>
           <stop offset="0.15390625" style="stop-color:rgb(230,230,230)"/>
           <stop offset="0.15390625" style="stop-color:rgb(230,230,230)"/>
           <stop offset="0.16875" style="stop-color:rgb(230,230,230)"/>
           <stop offset="0.16875" style="stop-color:rgb(230,230,230)"/>
           <stop offset="0.18359375" style="stop-color:rgb(230,230,230)"/>
           <stop offset="0.18359375" style="stop-color:rgb(230,230,230)"/>
           <stop offset="0.1984375" style="stop-color:rgb(230,230,230)"/>
           <stop offset="0.1984375" style="stop-color:rgb(230,230,230)"/>
           <stop offset="0.21328125" style="stop-color:rgb(230,230,230)"/>
           <stop offset="0.21328125" style="stop-color:rgb(230,230,230)"/>
           <stop offset="0.228125" style="stop-color:rgb(230,230,230)"/>
           <stop offset="0.228125" style="stop-color:rgb(230,230,230)"/>
           <stop offset="0.24296875" style="stop-color:rgb(230,230,230)"/>
           <stop offset="0.24296875" style="stop-color:rgb(230,230,230)"/>
           <stop offset="0.2578125" style="stop-color:rgb(230,230,230)"/>
           <stop offset="0.2578125" style="stop-color:rgb(230,230,230)"/>
           <stop offset="0.27265625" style="stop-color:rgb(230,230,230)"/>
           <stop offset="0.27265625" style="stop-color:rgb(230,230,230)"/>
           <stop offset="0.2875" style="stop-color:rgb(230,230,230)"/>
           <stop offset="0.2875" style="stop-color:rgb(230,230,230)"/>
           <stop offset="0.30234375" style="stop-color:rgb(230,230,230)"/>
           <stop offset="0.30234375" style="stop-color:rgb(230,230,230)"/>
           <stop offset="0.3171875" style="stop-color:rgb(230,230,230)"/>
           <stop offset="0.3171875" style="stop-color:rgb(230,230,230)"/>
           <stop offset="0.33203125" style="stop-color:rgb(230,230,230)"/>
           <stop offset="0.33203125" style="stop-color:rgb(230,230,230)"/>
           <stop offset="0.346875" style="stop-color:rgb(230,230,230)"/>
           <stop offset="0.346875" style="stop-color:rgb(230,230,230)"/>
           <stop offset="0.36171875" style="stop-color:rgb(230,230,230)"/>
           <stop offset="0.36171875" style="stop-color:rgb(230,230,230)"/>
           <stop offset="0.3765625" style="stop-color:rgb(230,230,230)"/>
           <stop offset="0.3765625" style="stop-color:rgb(230,230,230)"/>
           <stop offset="0.39140625" style="stop-color:rgb(230,230,230)"/>
           <stop offset="0.39140625" style="stop-color:rgb(230,230,230)"/>
           <stop offset="0.40625" style="stop-color:rgb(230,230,230)"/>
           <stop offset="0.40625" style="stop-color:rgb(230,230,230)"/>
           <stop offset="0.42109375" style="stop-color:rgb(230,230,230)"/>
           <stop offset="0.42109375" style="stop-color:rgb(230,230,230)"/>
           <stop offset="0.4359375" style="stop-color:rgb(230,230,230)"/>
           <stop offset="0.4359375" style="stop-color:rgb(230,230,230)"/>
           <stop offset="0.45078125" style="stop-color:rgb(230,230,230)"/>
           <stop offset="0.45078125" style="stop-color:rgb(230,230,230)"/>
           <stop offset="0.465625" style="stop-color:rgb(230,230,230)"/>
           <stop offset="0.465625" style="stop-color:rgb(230,230,230)"/>
           <stop offset="0.48046875" style="stop-color:rgb(230,230,230)"/>
           <stop offset="0.48046875" style="stop-color:rgb(230,230,230)"/>
           <stop offset="0.4953125" style="stop-color:rgb(230,230,230)"/>
           <stop offset="0.4953125" style="stop-color:rgb(230,230,230)"/>
           <stop offset="0.51015625" style="stop-color:rgb(230,230,230)"/>
           <stop offset="0.51015625" style="stop-color:rgb(230,230,230)"/>
           <stop offset="0.525" style="stop-color:rgb(230,230,230)"/>
           <stop offset="0.525" style="stop-color:rgb(230,230,230)"/>
           <stop offset="0.53984375" style="stop-color:rgb(230,230,230)"/>
           <stop offset="0.53984375" style="stop-color:rgb(230,230,230)"/>
           <stop offset="0.5546875" style="stop-color:rgb(230,230,230)"/>
           <stop offset="0.5546875" style="stop-color:rgb(230,230,230)"/>
           <stop offset="0.56953125" style="stop-color:rgb(230,230,230)"/>
           <stop offset="0.56953125" style="stop-color:rgb(230,230,230)"/>
           <stop offset="0.584375" style="stop-color:rgb(230,230,230)"/>
           <stop offset="0.584375" style="stop-color:rgb(230,230,230)"/>
           <stop offset="0.59921875" style="stop-color:rgb(230,230,230)"/>
           <stop offset="0.59921875" style="stop-color:rgb(230,230,230)"/>
           <stop offset="0.6140625" style="stop-color:rgb(230,230,230)"/>
           <stop offset="0.6140625" style="stop-color:rgb(230,230,230)"/>
           <stop offset="0.62890625" style="stop-color:rgb(230,230,230)"/>
           <stop offset="0.62890625" style="stop-color:rgb(230,230,230)"/>
           <stop offset="0.64375" style="stop-color:rgb(230,230,230)"/>
           <stop offset="0.64375" style="stop-color:rgb(230,230,230)"/>
           <stop offset="0.65859375" style="stop-color:rgb(230,230,230)"/>
           <stop offset="0.65859375" style="stop-color:rgb(230,230,230)"/>
           <stop offset="0.6734375" style="stop-color:rgb(230,230,230)"/>
           <stop offset="0.6734375" style="stop-color:rgb(230,230,230)"/>
           <stop offset="0.68828125" style="stop-color:rgb(230,230,230)"/>
           <stop offset="0.68828125" style="stop-color:rgb(230,230,230)"/>
           <stop offset="0.703125" style="stop-color:rgb(230,230,230)"/>
           <stop offset="0.703125" style="stop-color:rgb(230,230,230)"/>
           <stop offset="0.71796875" style="stop-color:rgb(230,230,230)"/>
           <stop offset="0.71796875" style="stop-color:rgb(230,230,230)"/>
           <stop offset="0.7328125" style="stop-color:rgb(230,230,230)"/>
           <stop offset="0.7328125" style="stop-color:rgb(230,230,230)"/>
           <stop offset="0.74765625" style="stop-color:rgb(230,230,230)"/>
           <stop offset="0.74765625" style="stop-color:rgb(230,230,230)"/>
           <stop offset="0.7625" style="stop-color:rgb(230,230,230)"/>
           <stop offset="0.7625" style="stop-color:rgb(230,230,230)"/>
           <stop offset="0.77734375" style="stop-color:rgb(230,230,230)"/>
           <stop offset="0.77734375" style="stop-color:rgb(230,230,230)"/>
           <stop offset="0.7921875" style="stop-color:rgb(230,230,230)"/>
           <stop offset="0.7921875" style="stop-color:rgb(230,230,230)"/>
           <stop offset="0.80703125" style="stop-color:rgb(230,230,230)"/>
           <stop offset="0.80703125" style="stop-color:rgb(230,230,230)"/>
           <stop offset="0.821875" style="stop-color:rgb(230,230,230)"/>
           <stop offset="0.821875" style="stop-color:rgb(230,230,230)"/>
           <stop offset="0.83671875" style="stop-color:rgb(230,230,230)"/>
           <stop offset="0.83671875" style="stop-color:rgb(230,230,230)"/>
           <stop offset="0.8515625" style="stop-color:rgb(230,230,230)"/>
           <stop offset="0.8515625" style="stop-color:rgb(230,230,230)"/>
           <stop offset="0.86640625" style="stop-color:rgb(230,230,230)"/>
           <stop offset="0.86640625" style="stop-color:rgb(230,230,230)"/>
           <stop offset="0.88125" style="stop-color:rgb(230,230,230)"/>
           <stop offset="0.88125" style="stop-color:rgb(230,230,230)"/>
           <stop offset="0.89609375" style="stop-color:rgb(230,230,230)"/>
           <stop offset="0.89609375" style="stop-color:rgb(230,230,230)"/>
           <stop offset="0.9109375" style="stop-color:rgb(230,230,230)"/>
           <stop offset="0.9109375" style="stop-color:rgb(230,230,230)"/>
           <stop offset="0.92578125" style="stop-color:rgb(230,230,230)"/>
           <stop offset="0.92578125" style="stop-color:rgb(230,230,230)"/>
           <stop offset="0.940625" style="stop-color:rgb(230,230,230)"/>
           <stop offset="0.940625" style="stop-color:rgb(230,230,230)"/>
           <stop offset="0.95546875" style="stop-color:rgb(230,230,230)"/>
           <stop offset="0.95546875" style="stop-color:rgb(230,230,230)"/>
           <stop offset="0.9703125" style="stop-color:rgb(230,230,230)"/>
           <stop offset="0.9703125" style="stop-color:rgb(230,230,230)"/>
           <stop offset="0.98515625" style="stop-color:rgb(230,230,230)"/>
           <stop offset="0.98515625" style="stop-color:rgb(230,230,230)"/>
           <stop offset="1" style="stop-color:rgb(230,230,230)"/>
           <stop offset="1" style="stop-color:rgb(230,230,230)"/>
          </linearGradient>
         </defs>
         <path style="fill:url(#gradient1)" d="M 4211,5398 L 16938,5398 16938,4988 17801,5877 16938,6767 16938,6356 4211,6356 4211,5398 Z"/>
        </g>
        <g>
         <defs>
          <linearGradient id="gradient2" x1="4160" y1="5826" x2="17751" y2="5826" gradientUnits="userSpaceOnUse">
           <stop offset="0.06484375" style="stop-color:rgb(255,255,255)"/>
           <stop offset="0.06484375" style="stop-color:rgb(255,254,254)"/>
           <stop offset="0.0796875" style="stop-color:rgb(255,254,254)"/>
           <stop offset="0.0796875" style="stop-color:rgb(255,252,252)"/>
           <stop offset="0.09453125" style="stop-color:rgb(255,252,252)"/>
           <stop offset="0.09453125" style="stop-color:rgb(255,250,250)"/>
           <stop offset="0.109375" style="stop-color:rgb(255,250,250)"/>
           <stop offset="0.109375" style="stop-color:rgb(255,248,248)"/>
           <stop offset="0.12421875" style="stop-color:rgb(255,248,248)"/>
           <stop offset="0.12421875" style="stop-color:rgb(255,246,246)"/>
           <stop offset="0.1390625" style="stop-color:rgb(255,246,246)"/>
           <stop offset="0.1390625" style="stop-color:rgb(255,244,244)"/>
           <stop offset="0.15390625" style="stop-color:rgb(255,244,244)"/>
           <stop offset="0.15390625" style="stop-color:rgb(255,242,242)"/>
           <stop offset="0.16875" style="stop-color:rgb(255,242,242)"/>
           <stop offset="0.16875" style="stop-color:rgb(255,240,240)"/>
           <stop offset="0.18359375" style="stop-color:rgb(255,240,240)"/>
           <stop offset="0.18359375" style="stop-color:rgb(255,238,238)"/>
           <stop offset="0.1984375" style="stop-color:rgb(255,238,238)"/>
           <stop offset="0.1984375" style="stop-color:rgb(255,236,236)"/>
           <stop offset="0.21328125" style="stop-color:rgb(255,236,236)"/>
           <stop offset="0.21328125" style="stop-color:rgb(255,234,234)"/>
           <stop offset="0.228125" style="stop-color:rgb(255,234,234)"/>
           <stop offset="0.228125" style="stop-color:rgb(255,232,232)"/>
           <stop offset="0.24296875" style="stop-color:rgb(255,232,232)"/>
           <stop offset="0.24296875" style="stop-color:rgb(255,230,230)"/>
           <stop offset="0.2578125" style="stop-color:rgb(255,230,230)"/>
           <stop offset="0.2578125" style="stop-color:rgb(255,228,228)"/>
           <stop offset="0.27265625" style="stop-color:rgb(255,228,228)"/>
           <stop offset="0.27265625" style="stop-color:rgb(255,226,226)"/>
           <stop offset="0.2875" style="stop-color:rgb(255,226,226)"/>
           <stop offset="0.2875" style="stop-color:rgb(255,224,224)"/>
           <stop offset="0.30234375" style="stop-color:rgb(255,224,224)"/>
           <stop offset="0.30234375" style="stop-color:rgb(255,222,222)"/>
           <stop offset="0.3171875" style="stop-color:rgb(255,222,222)"/>
           <stop offset="0.3171875" style="stop-color:rgb(255,220,220)"/>
           <stop offset="0.33203125" style="stop-color:rgb(255,220,220)"/>
           <stop offset="0.33203125" style="stop-color:rgb(255,218,218)"/>
           <stop offset="0.346875" style="stop-color:rgb(255,218,218)"/>
           <stop offset="0.346875" style="stop-color:rgb(255,216,216)"/>
           <stop offset="0.36171875" style="stop-color:rgb(255,216,216)"/>
           <stop offset="0.36171875" style="stop-color:rgb(255,214,214)"/>
           <stop offset="0.3765625" style="stop-color:rgb(255,214,214)"/>
           <stop offset="0.3765625" style="stop-color:rgb(255,212,212)"/>
           <stop offset="0.39140625" style="stop-color:rgb(255,212,212)"/>
           <stop offset="0.39140625" style="stop-color:rgb(255,210,210)"/>
           <stop offset="0.40625" style="stop-color:rgb(255,210,210)"/>
           <stop offset="0.40625" style="stop-color:rgb(255,208,208)"/>
           <stop offset="0.42109375" style="stop-color:rgb(255,208,208)"/>
           <stop offset="0.42109375" style="stop-color:rgb(255,206,206)"/>
           <stop offset="0.4359375" style="stop-color:rgb(255,206,206)"/>
           <stop offset="0.4359375" style="stop-color:rgb(255,204,204)"/>
           <stop offset="0.45078125" style="stop-color:rgb(255,204,204)"/>
           <stop offset="0.45078125" style="stop-color:rgb(255,202,202)"/>
           <stop offset="0.465625" style="stop-color:rgb(255,202,202)"/>
           <stop offset="0.465625" style="stop-color:rgb(255,200,200)"/>
           <stop offset="0.48046875" style="stop-color:rgb(255,200,200)"/>
           <stop offset="0.48046875" style="stop-color:rgb(255,198,198)"/>
           <stop offset="0.4953125" style="stop-color:rgb(255,198,198)"/>
           <stop offset="0.4953125" style="stop-color:rgb(255,196,196)"/>
           <stop offset="0.51015625" style="stop-color:rgb(255,196,196)"/>
           <stop offset="0.51015625" style="stop-color:rgb(255,194,194)"/>
           <stop offset="0.525" style="stop-color:rgb(255,194,194)"/>
           <stop offset="0.525" style="stop-color:rgb(255,192,192)"/>
           <stop offset="0.53984375" style="stop-color:rgb(255,192,192)"/>
           <stop offset="0.53984375" style="stop-color:rgb(255,190,190)"/>
           <stop offset="0.5546875" style="stop-color:rgb(255,190,190)"/>
           <stop offset="0.5546875" style="stop-color:rgb(255,188,188)"/>
           <stop offset="0.56953125" style="stop-color:rgb(255,188,188)"/>
           <stop offset="0.56953125" style="stop-color:rgb(255,186,186)"/>
           <stop offset="0.584375" style="stop-color:rgb(255,186,186)"/>
           <stop offset="0.584375" style="stop-color:rgb(255,184,184)"/>
           <stop offset="0.59921875" style="stop-color:rgb(255,184,184)"/>
           <stop offset="0.59921875" style="stop-color:rgb(255,182,182)"/>
           <stop offset="0.6140625" style="stop-color:rgb(255,182,182)"/>
           <stop offset="0.6140625" style="stop-color:rgb(255,180,180)"/>
           <stop offset="0.62890625" style="stop-color:rgb(255,180,180)"/>
           <stop offset="0.62890625" style="stop-color:rgb(255,178,178)"/>
           <stop offset="0.64375" style="stop-color:rgb(255,178,178)"/>
           <stop offset="0.64375" style="stop-color:rgb(255,176,176)"/>
           <stop offset="0.65859375" style="stop-color:rgb(255,176,176)"/>
           <stop offset="0.65859375" style="stop-color:rgb(255,174,174)"/>
           <stop offset="0.6734375" style="stop-color:rgb(255,174,174)"/>
           <stop offset="0.6734375" style="stop-color:rgb(255,172,172)"/>
           <stop offset="0.68828125" style="stop-color:rgb(255,172,172)"/>
           <stop offset="0.68828125" style="stop-color:rgb(255,170,170)"/>
           <stop offset="0.703125" style="stop-color:rgb(255,170,170)"/>
           <stop offset="0.703125" style="stop-color:rgb(255,168,168)"/>
           <stop offset="0.71796875" style="stop-color:rgb(255,168,168)"/>
           <stop offset="0.71796875" style="stop-color:rgb(255,166,166)"/>
           <stop offset="0.7328125" style="stop-color:rgb(255,166,166)"/>
           <stop offset="0.7328125" style="stop-color:rgb(255,164,164)"/>
           <stop offset="0.74765625" style="stop-color:rgb(255,164,164)"/>
           <stop offset="0.74765625" style="stop-color:rgb(255,162,162)"/>
           <stop offset="0.7625" style="stop-color:rgb(255,162,162)"/>
           <stop offset="0.7625" style="stop-color:rgb(255,160,160)"/>
           <stop offset="0.77734375" style="stop-color:rgb(255,160,160)"/>
           <stop offset="0.77734375" style="stop-color:rgb(255,158,158)"/>
           <stop offset="0.7921875" style="stop-color:rgb(255,158,158)"/>
           <stop offset="0.7921875" style="stop-color:rgb(255,156,156)"/>
           <stop offset="0.80703125" style="stop-color:rgb(255,156,156)"/>
           <stop offset="0.80703125" style="stop-color:rgb(255,154,154)"/>
           <stop offset="0.821875" style="stop-color:rgb(255,154,154)"/>
           <stop offset="0.821875" style="stop-color:rgb(255,152,152)"/>
           <stop offset="0.83671875" style="stop-color:rgb(255,152,152)"/>
           <stop offset="0.83671875" style="stop-color:rgb(255,150,150)"/>
           <stop offset="0.8515625" style="stop-color:rgb(255,150,150)"/>
           <stop offset="0.8515625" style="stop-color:rgb(255,148,148)"/>
           <stop offset="0.86640625" style="stop-color:rgb(255,148,148)"/>
           <stop offset="0.86640625" style="stop-color:rgb(255,146,146)"/>
           <stop offset="0.88125" style="stop-color:rgb(255,146,146)"/>
           <stop offset="0.88125" style="stop-color:rgb(255,144,144)"/>
           <stop offset="0.89609375" style="stop-color:rgb(255,144,144)"/>
           <stop offset="0.89609375" style="stop-color:rgb(255,142,142)"/>
           <stop offset="0.9109375" style="stop-color:rgb(255,142,142)"/>
           <stop offset="0.9109375" style="stop-color:rgb(255,140,140)"/>
           <stop offset="0.92578125" style="stop-color:rgb(255,140,140)"/>
           <stop offset="0.92578125" style="stop-color:rgb(255,138,138)"/>
           <stop offset="0.940625" style="stop-color:rgb(255,138,138)"/>
           <stop offset="0.940625" style="stop-color:rgb(255,136,136)"/>
           <stop offset="0.95546875" style="stop-color:rgb(255,136,136)"/>
           <stop offset="0.95546875" style="stop-color:rgb(255,134,134)"/>
           <stop offset="0.9703125" style="stop-color:rgb(255,134,134)"/>
           <stop offset="0.9703125" style="stop-color:rgb(255,132,132)"/>
           <stop offset="0.98515625" style="stop-color:rgb(255,132,132)"/>
           <stop offset="0.98515625" style="stop-color:rgb(255,130,130)"/>
           <stop offset="1" style="stop-color:rgb(255,130,130)"/>
           <stop offset="1" style="stop-color:rgb(255,128,128)"/>
          </linearGradient>
         </defs>
         <path style="fill:url(#gradient2)" d="M 4160,5347 L 16887,5347 16887,4937 17750,5826 16887,6716 16887,6305 4160,6305 4160,5347 Z"/>
        </g>
       </g>
      </g>
      <g class="com.sun.star.drawing.TextShape">
       <g id="id10">
        <rect class="BoundingBox" stroke="none" fill="none" x="5211" y="5453" width="1034" height="747"/>
        <text class="TextShape"><tspan class="TextParagraph" font-family="MathJax_Vector, monospace" font-size="529px" font-weight="700"><tspan class="TextPosition" x="5568" y="5962"><tspan fill="rgb(0,0,0)" stroke="none">0</tspan></tspan></tspan></text>
       </g>
      </g>
      <g class="com.sun.star.drawing.CustomShape">
       <g id="id11">
        <rect class="BoundingBox" stroke="none" fill="none" x="3880" y="6334" width="13642" height="1831"/>
        <g>
         <defs>
          <linearGradient id="gradient3" x1="3880" y1="7274" x2="17471" y2="7274" gradientUnits="userSpaceOnUse">
           <stop offset="0.06484375" style="stop-color:rgb(230,230,230)"/>
           <stop offset="0.06484375" style="stop-color:rgb(230,230,230)"/>
           <stop offset="0.0796875" style="stop-color:rgb(230,230,230)"/>
           <stop offset="0.0796875" style="stop-color:rgb(230,230,230)"/>
           <stop offset="0.09453125" style="stop-color:rgb(230,230,230)"/>
           <stop offset="0.09453125" style="stop-color:rgb(230,230,230)"/>
           <stop offset="0.109375" style="stop-color:rgb(230,230,230)"/>
           <stop offset="0.109375" style="stop-color:rgb(230,230,230)"/>
           <stop offset="0.12421875" style="stop-color:rgb(230,230,230)"/>
           <stop offset="0.12421875" style="stop-color:rgb(230,230,230)"/>
           <stop offset="0.1390625" style="stop-color:rgb(230,230,230)"/>
           <stop offset="0.1390625" style="stop-color:rgb(230,230,230)"/>
           <stop offset="0.15390625" style="stop-color:rgb(230,230,230)"/>
           <stop offset="0.15390625" style="stop-color:rgb(230,230,230)"/>
           <stop offset="0.16875" style="stop-color:rgb(230,230,230)"/>
           <stop offset="0.16875" style="stop-color:rgb(230,230,230)"/>
           <stop offset="0.18359375" style="stop-color:rgb(230,230,230)"/>
           <stop offset="0.18359375" style="stop-color:rgb(230,230,230)"/>
           <stop offset="0.1984375" style="stop-color:rgb(230,230,230)"/>
           <stop offset="0.1984375" style="stop-color:rgb(230,230,230)"/>
           <stop offset="0.21328125" style="stop-color:rgb(230,230,230)"/>
           <stop offset="0.21328125" style="stop-color:rgb(230,230,230)"/>
           <stop offset="0.228125" style="stop-color:rgb(230,230,230)"/>
           <stop offset="0.228125" style="stop-color:rgb(230,230,230)"/>
           <stop offset="0.24296875" style="stop-color:rgb(230,230,230)"/>
           <stop offset="0.24296875" style="stop-color:rgb(230,230,230)"/>
           <stop offset="0.2578125" style="stop-color:rgb(230,230,230)"/>
           <stop offset="0.2578125" style="stop-color:rgb(230,230,230)"/>
           <stop offset="0.27265625" style="stop-color:rgb(230,230,230)"/>
           <stop offset="0.27265625" style="stop-color:rgb(230,230,230)"/>
           <stop offset="0.2875" style="stop-color:rgb(230,230,230)"/>
           <stop offset="0.2875" style="stop-color:rgb(230,230,230)"/>
           <stop offset="0.30234375" style="stop-color:rgb(230,230,230)"/>
           <stop offset="0.30234375" style="stop-color:rgb(230,230,230)"/>
           <stop offset="0.3171875" style="stop-color:rgb(230,230,230)"/>
           <stop offset="0.3171875" style="stop-color:rgb(230,230,230)"/>
           <stop offset="0.33203125" style="stop-color:rgb(230,230,230)"/>
           <stop offset="0.33203125" style="stop-color:rgb(230,230,230)"/>
           <stop offset="0.346875" style="stop-color:rgb(230,230,230)"/>
           <stop offset="0.346875" style="stop-color:rgb(230,230,230)"/>
           <stop offset="0.36171875" style="stop-color:rgb(230,230,230)"/>
           <stop offset="0.36171875" style="stop-color:rgb(230,230,230)"/>
           <stop offset="0.3765625" style="stop-color:rgb(230,230,230)"/>
           <stop offset="0.3765625" style="stop-color:rgb(230,230,230)"/>
           <stop offset="0.39140625" style="stop-color:rgb(230,230,230)"/>
           <stop offset="0.39140625" style="stop-color:rgb(230,230,230)"/>
           <stop offset="0.40625" style="stop-color:rgb(230,230,230)"/>
           <stop offset="0.40625" style="stop-color:rgb(230,230,230)"/>
           <stop offset="0.42109375" style="stop-color:rgb(230,230,230)"/>
           <stop offset="0.42109375" style="stop-color:rgb(230,230,230)"/>
           <stop offset="0.4359375" style="stop-color:rgb(230,230,230)"/>
           <stop offset="0.4359375" style="stop-color:rgb(230,230,230)"/>
           <stop offset="0.45078125" style="stop-color:rgb(230,230,230)"/>
           <stop offset="0.45078125" style="stop-color:rgb(230,230,230)"/>
           <stop offset="0.465625" style="stop-color:rgb(230,230,230)"/>
           <stop offset="0.465625" style="stop-color:rgb(230,230,230)"/>
           <stop offset="0.48046875" style="stop-color:rgb(230,230,230)"/>
           <stop offset="0.48046875" style="stop-color:rgb(230,230,230)"/>
           <stop offset="0.4953125" style="stop-color:rgb(230,230,230)"/>
           <stop offset="0.4953125" style="stop-color:rgb(230,230,230)"/>
           <stop offset="0.51015625" style="stop-color:rgb(230,230,230)"/>
           <stop offset="0.51015625" style="stop-color:rgb(230,230,230)"/>
           <stop offset="0.525" style="stop-color:rgb(230,230,230)"/>
           <stop offset="0.525" style="stop-color:rgb(230,230,230)"/>
           <stop offset="0.53984375" style="stop-color:rgb(230,230,230)"/>
           <stop offset="0.53984375" style="stop-color:rgb(230,230,230)"/>
           <stop offset="0.5546875" style="stop-color:rgb(230,230,230)"/>
           <stop offset="0.5546875" style="stop-color:rgb(230,230,230)"/>
           <stop offset="0.56953125" style="stop-color:rgb(230,230,230)"/>
           <stop offset="0.56953125" style="stop-color:rgb(230,230,230)"/>
           <stop offset="0.584375" style="stop-color:rgb(230,230,230)"/>
           <stop offset="0.584375" style="stop-color:rgb(230,230,230)"/>
           <stop offset="0.59921875" style="stop-color:rgb(230,230,230)"/>
           <stop offset="0.59921875" style="stop-color:rgb(230,230,230)"/>
           <stop offset="0.6140625" style="stop-color:rgb(230,230,230)"/>
           <stop offset="0.6140625" style="stop-color:rgb(230,230,230)"/>
           <stop offset="0.62890625" style="stop-color:rgb(230,230,230)"/>
           <stop offset="0.62890625" style="stop-color:rgb(230,230,230)"/>
           <stop offset="0.64375" style="stop-color:rgb(230,230,230)"/>
           <stop offset="0.64375" style="stop-color:rgb(230,230,230)"/>
           <stop offset="0.65859375" style="stop-color:rgb(230,230,230)"/>
           <stop offset="0.65859375" style="stop-color:rgb(230,230,230)"/>
           <stop offset="0.6734375" style="stop-color:rgb(230,230,230)"/>
           <stop offset="0.6734375" style="stop-color:rgb(230,230,230)"/>
           <stop offset="0.68828125" style="stop-color:rgb(230,230,230)"/>
           <stop offset="0.68828125" style="stop-color:rgb(230,230,230)"/>
           <stop offset="0.703125" style="stop-color:rgb(230,230,230)"/>
           <stop offset="0.703125" style="stop-color:rgb(230,230,230)"/>
           <stop offset="0.71796875" style="stop-color:rgb(230,230,230)"/>
           <stop offset="0.71796875" style="stop-color:rgb(230,230,230)"/>
           <stop offset="0.7328125" style="stop-color:rgb(230,230,230)"/>
           <stop offset="0.7328125" style="stop-color:rgb(230,230,230)"/>
           <stop offset="0.74765625" style="stop-color:rgb(230,230,230)"/>
           <stop offset="0.74765625" style="stop-color:rgb(230,230,230)"/>
           <stop offset="0.7625" style="stop-color:rgb(230,230,230)"/>
           <stop offset="0.7625" style="stop-color:rgb(230,230,230)"/>
           <stop offset="0.77734375" style="stop-color:rgb(230,230,230)"/>
           <stop offset="0.77734375" style="stop-color:rgb(230,230,230)"/>
           <stop offset="0.7921875" style="stop-color:rgb(230,230,230)"/>
           <stop offset="0.7921875" style="stop-color:rgb(230,230,230)"/>
           <stop offset="0.80703125" style="stop-color:rgb(230,230,230)"/>
           <stop offset="0.80703125" style="stop-color:rgb(230,230,230)"/>
           <stop offset="0.821875" style="stop-color:rgb(230,230,230)"/>
           <stop offset="0.821875" style="stop-color:rgb(230,230,230)"/>
           <stop offset="0.83671875" style="stop-color:rgb(230,230,230)"/>
           <stop offset="0.83671875" style="stop-color:rgb(230,230,230)"/>
           <stop offset="0.8515625" style="stop-color:rgb(230,230,230)"/>
           <stop offset="0.8515625" style="stop-color:rgb(230,230,230)"/>
           <stop offset="0.86640625" style="stop-color:rgb(230,230,230)"/>
           <stop offset="0.86640625" style="stop-color:rgb(230,230,230)"/>
           <stop offset="0.88125" style="stop-color:rgb(230,230,230)"/>
           <stop offset="0.88125" style="stop-color:rgb(230,230,230)"/>
           <stop offset="0.89609375" style="stop-color:rgb(230,230,230)"/>
           <stop offset="0.89609375" style="stop-color:rgb(230,230,230)"/>
           <stop offset="0.9109375" style="stop-color:rgb(230,230,230)"/>
           <stop offset="0.9109375" style="stop-color:rgb(230,230,230)"/>
           <stop offset="0.92578125" style="stop-color:rgb(230,230,230)"/>
           <stop offset="0.92578125" style="stop-color:rgb(230,230,230)"/>
           <stop offset="0.940625" style="stop-color:rgb(230,230,230)"/>
           <stop offset="0.940625" style="stop-color:rgb(230,230,230)"/>
           <stop offset="0.95546875" style="stop-color:rgb(230,230,230)"/>
           <stop offset="0.95546875" style="stop-color:rgb(230,230,230)"/>
           <stop offset="0.9703125" style="stop-color:rgb(230,230,230)"/>
           <stop offset="0.9703125" style="stop-color:rgb(230,230,230)"/>
           <stop offset="0.98515625" style="stop-color:rgb(230,230,230)"/>
           <stop offset="0.98515625" style="stop-color:rgb(230,230,230)"/>
           <stop offset="1" style="stop-color:rgb(230,230,230)"/>
           <stop offset="1" style="stop-color:rgb(230,230,230)"/>
          </linearGradient>
         </defs>
         <path style="fill:url(#gradient3)" d="M 17470,6795 L 4743,6795 4743,6385 3880,7274 4743,8164 4743,7753 17470,7753 17470,6795 Z"/>
        </g>
        <g>
         <defs>
          <linearGradient id="gradient4" x1="3931" y1="7223" x2="17522" y2="7223" gradientUnits="userSpaceOnUse">
           <stop offset="0.06484375" style="stop-color:rgb(131,202,255)"/>
           <stop offset="0.06484375" style="stop-color:rgb(132,202,255)"/>
           <stop offset="0.0796875" style="stop-color:rgb(132,202,255)"/>
           <stop offset="0.0796875" style="stop-color:rgb(134,203,255)"/>
           <stop offset="0.09453125" style="stop-color:rgb(134,203,255)"/>
           <stop offset="0.09453125" style="stop-color:rgb(136,204,255)"/>
           <stop offset="0.109375" style="stop-color:rgb(136,204,255)"/>
           <stop offset="0.109375" style="stop-color:rgb(138,205,255)"/>
           <stop offset="0.12421875" style="stop-color:rgb(138,205,255)"/>
           <stop offset="0.12421875" style="stop-color:rgb(140,206,255)"/>
           <stop offset="0.1390625" style="stop-color:rgb(140,206,255)"/>
           <stop offset="0.1390625" style="stop-color:rgb(142,206,255)"/>
           <stop offset="0.15390625" style="stop-color:rgb(142,206,255)"/>
           <stop offset="0.15390625" style="stop-color:rgb(144,207,255)"/>
           <stop offset="0.16875" style="stop-color:rgb(144,207,255)"/>
           <stop offset="0.16875" style="stop-color:rgb(146,208,255)"/>
           <stop offset="0.18359375" style="stop-color:rgb(146,208,255)"/>
           <stop offset="0.18359375" style="stop-color:rgb(148,209,255)"/>
           <stop offset="0.1984375" style="stop-color:rgb(148,209,255)"/>
           <stop offset="0.1984375" style="stop-color:rgb(150,210,255)"/>
           <stop offset="0.21328125" style="stop-color:rgb(150,210,255)"/>
           <stop offset="0.21328125" style="stop-color:rgb(152,211,255)"/>
           <stop offset="0.228125" style="stop-color:rgb(152,211,255)"/>
           <stop offset="0.228125" style="stop-color:rgb(154,211,255)"/>
           <stop offset="0.24296875" style="stop-color:rgb(154,211,255)"/>
           <stop offset="0.24296875" style="stop-color:rgb(156,212,255)"/>
           <stop offset="0.2578125" style="stop-color:rgb(156,212,255)"/>
           <stop offset="0.2578125" style="stop-color:rgb(158,213,255)"/>
           <stop offset="0.27265625" style="stop-color:rgb(158,213,255)"/>
           <stop offset="0.27265625" style="stop-color:rgb(160,214,255)"/>
           <stop offset="0.2875" style="stop-color:rgb(160,214,255)"/>
           <stop offset="0.2875" style="stop-color:rgb(162,215,255)"/>
           <stop offset="0.30234375" style="stop-color:rgb(162,215,255)"/>
           <stop offset="0.30234375" style="stop-color:rgb(163,216,255)"/>
           <stop offset="0.3171875" style="stop-color:rgb(163,216,255)"/>
           <stop offset="0.3171875" style="stop-color:rgb(165,216,255)"/>
           <stop offset="0.33203125" style="stop-color:rgb(165,216,255)"/>
           <stop offset="0.33203125" style="stop-color:rgb(167,217,255)"/>
           <stop offset="0.346875" style="stop-color:rgb(167,217,255)"/>
           <stop offset="0.346875" style="stop-color:rgb(169,218,255)"/>
           <stop offset="0.36171875" style="stop-color:rgb(169,218,255)"/>
           <stop offset="0.36171875" style="stop-color:rgb(171,219,255)"/>
           <stop offset="0.3765625" style="stop-color:rgb(171,219,255)"/>
           <stop offset="0.3765625" style="stop-color:rgb(173,220,255)"/>
           <stop offset="0.39140625" style="stop-color:rgb(173,220,255)"/>
           <stop offset="0.39140625" style="stop-color:rgb(175,221,255)"/>
           <stop offset="0.40625" style="stop-color:rgb(175,221,255)"/>
           <stop offset="0.40625" style="stop-color:rgb(177,221,255)"/>
           <stop offset="0.42109375" style="stop-color:rgb(177,221,255)"/>
           <stop offset="0.42109375" style="stop-color:rgb(179,222,255)"/>
           <stop offset="0.4359375" style="stop-color:rgb(179,222,255)"/>
           <stop offset="0.4359375" style="stop-color:rgb(181,223,255)"/>
           <stop offset="0.45078125" style="stop-color:rgb(181,223,255)"/>
           <stop offset="0.45078125" style="stop-color:rgb(183,224,255)"/>
           <stop offset="0.465625" style="stop-color:rgb(183,224,255)"/>
           <stop offset="0.465625" style="stop-color:rgb(185,225,255)"/>
           <stop offset="0.48046875" style="stop-color:rgb(185,225,255)"/>
           <stop offset="0.48046875" style="stop-color:rgb(187,226,255)"/>
           <stop offset="0.4953125" style="stop-color:rgb(187,226,255)"/>
           <stop offset="0.4953125" style="stop-color:rgb(189,226,255)"/>
           <stop offset="0.51015625" style="stop-color:rgb(189,226,255)"/>
           <stop offset="0.51015625" style="stop-color:rgb(191,227,255)"/>
           <stop offset="0.525" style="stop-color:rgb(191,227,255)"/>
           <stop offset="0.525" style="stop-color:rgb(193,228,255)"/>
           <stop offset="0.53984375" style="stop-color:rgb(193,228,255)"/>
           <stop offset="0.53984375" style="stop-color:rgb(194,229,255)"/>
           <stop offset="0.5546875" style="stop-color:rgb(194,229,255)"/>
           <stop offset="0.5546875" style="stop-color:rgb(196,230,255)"/>
           <stop offset="0.56953125" style="stop-color:rgb(196,230,255)"/>
           <stop offset="0.56953125" style="stop-color:rgb(198,230,255)"/>
           <stop offset="0.584375" style="stop-color:rgb(198,230,255)"/>
           <stop offset="0.584375" style="stop-color:rgb(200,231,255)"/>
           <stop offset="0.59921875" style="stop-color:rgb(200,231,255)"/>
           <stop offset="0.59921875" style="stop-color:rgb(202,232,255)"/>
           <stop offset="0.6140625" style="stop-color:rgb(202,232,255)"/>
           <stop offset="0.6140625" style="stop-color:rgb(204,233,255)"/>
           <stop offset="0.62890625" style="stop-color:rgb(204,233,255)"/>
           <stop offset="0.62890625" style="stop-color:rgb(206,234,255)"/>
           <stop offset="0.64375" style="stop-color:rgb(206,234,255)"/>
           <stop offset="0.64375" style="stop-color:rgb(208,235,255)"/>
           <stop offset="0.65859375" style="stop-color:rgb(208,235,255)"/>
           <stop offset="0.65859375" style="stop-color:rgb(210,235,255)"/>
           <stop offset="0.6734375" style="stop-color:rgb(210,235,255)"/>
           <stop offset="0.6734375" style="stop-color:rgb(212,236,255)"/>
           <stop offset="0.68828125" style="stop-color:rgb(212,236,255)"/>
           <stop offset="0.68828125" style="stop-color:rgb(214,237,255)"/>
           <stop offset="0.703125" style="stop-color:rgb(214,237,255)"/>
           <stop offset="0.703125" style="stop-color:rgb(216,238,255)"/>
           <stop offset="0.71796875" style="stop-color:rgb(216,238,255)"/>
           <stop offset="0.71796875" style="stop-color:rgb(218,239,255)"/>
           <stop offset="0.7328125" style="stop-color:rgb(218,239,255)"/>
           <stop offset="0.7328125" style="stop-color:rgb(220,240,255)"/>
           <stop offset="0.74765625" style="stop-color:rgb(220,240,255)"/>
           <stop offset="0.74765625" style="stop-color:rgb(222,240,255)"/>
           <stop offset="0.7625" style="stop-color:rgb(222,240,255)"/>
           <stop offset="0.7625" style="stop-color:rgb(224,241,255)"/>
           <stop offset="0.77734375" style="stop-color:rgb(224,241,255)"/>
           <stop offset="0.77734375" style="stop-color:rgb(225,242,255)"/>
           <stop offset="0.7921875" style="stop-color:rgb(225,242,255)"/>
           <stop offset="0.7921875" style="stop-color:rgb(227,243,255)"/>
           <stop offset="0.80703125" style="stop-color:rgb(227,243,255)"/>
           <stop offset="0.80703125" style="stop-color:rgb(229,244,255)"/>
           <stop offset="0.821875" style="stop-color:rgb(229,244,255)"/>
           <stop offset="0.821875" style="stop-color:rgb(231,245,255)"/>
           <stop offset="0.83671875" style="stop-color:rgb(231,245,255)"/>
           <stop offset="0.83671875" style="stop-color:rgb(233,245,255)"/>
           <stop offset="0.8515625" style="stop-color:rgb(233,245,255)"/>
           <stop offset="0.8515625" style="stop-color:rgb(235,246,255)"/>
           <stop offset="0.86640625" style="stop-color:rgb(235,246,255)"/>
           <stop offset="0.86640625" style="stop-color:rgb(237,247,255)"/>
           <stop offset="0.88125" style="stop-color:rgb(237,247,255)"/>
           <stop offset="0.88125" style="stop-color:rgb(239,248,255)"/>
           <stop offset="0.89609375" style="stop-color:rgb(239,248,255)"/>
           <stop offset="0.89609375" style="stop-color:rgb(241,249,255)"/>
           <stop offset="0.9109375" style="stop-color:rgb(241,249,255)"/>
           <stop offset="0.9109375" style="stop-color:rgb(243,250,255)"/>
           <stop offset="0.92578125" style="stop-color:rgb(243,250,255)"/>
           <stop offset="0.92578125" style="stop-color:rgb(245,250,255)"/>
           <stop offset="0.940625" style="stop-color:rgb(245,250,255)"/>
           <stop offset="0.940625" style="stop-color:rgb(247,251,255)"/>
           <stop offset="0.95546875" style="stop-color:rgb(247,251,255)"/>
           <stop offset="0.95546875" style="stop-color:rgb(249,252,255)"/>
           <stop offset="0.9703125" style="stop-color:rgb(249,252,255)"/>
           <stop offset="0.9703125" style="stop-color:rgb(251,253,255)"/>
           <stop offset="0.98515625" style="stop-color:rgb(251,253,255)"/>
           <stop offset="0.98515625" style="stop-color:rgb(253,254,255)"/>
           <stop offset="1" style="stop-color:rgb(253,254,255)"/>
           <stop offset="1" style="stop-color:rgb(255,255,255)"/>
          </linearGradient>
         </defs>
         <path style="fill:url(#gradient4)" d="M 17521,6744 L 4794,6744 4794,6334 3931,7223 4794,8113 4794,7702 17521,7702 17521,6744 Z"/>
        </g>
       </g>
      </g>
      <g class="com.sun.star.drawing.TextShape">
       <g id="id12">
        <rect class="BoundingBox" stroke="none" fill="none" x="17627" y="3888" width="2370" height="997"/>
        <text class="TextShape"><tspan class="TextParagraph" font-family="Liberation Sans, sans-serif" font-size="635px" font-style="italic" font-weight="400"><tspan class="TextPosition" x="18458" y="4607"><tspan fill="rgb(0,0,0)" stroke="none">str</tspan></tspan></tspan></text>
       </g>
      </g>
      <g class="com.sun.star.drawing.CustomShape">
       <g id="id13">
        <rect class="BoundingBox" stroke="none" fill="none" x="9523" y="3744" width="1263" height="1263"/>
        <image x="9523" y="3744" width="1262" height="1262" preserveAspectRatio="none" xlink:href="data:image/png;base64,iVBORw0KGgoAAAANSUhEUgAAADEAAAAxCAYAAABznEEcAAABFklEQVR4nO2ayw3CMBBEfdgyQh9AH6ERuiJ9IPqAQvCgrAKJ1wkHkkGaJ1l8zGFeMMthYqlMk9e1f34LPrM1yHjIq7Ng813gtFaqL/CMd7wYS/jmOa923VyLmWS0YLNLnBLFjBZsMhJmtNomEdWMloYfcZs+j9C+f7z8Mt1CkCW8yH6cWMcogADyhafEUjxG/RvYesTOnoTS/8TfIQkWJMGCJFiQBAuSYEESLEiCBUmwIAkWJMGCJFiQBAuSYEESLEiChTkJFBxbN0W1xupVwEQSTRoaGlaQcZfXsVbGsxSRpcbKM+K9R62MZxAoMclYK+MZKWZUGb8is2U8brfB3SrjMp4FTElMIfyIwzKe9eo73rOH4/4JT44/MYMQmBsAAAAASUVORK5CYII="/>
        <text class="TextShape"><tspan class="TextParagraph" font-family="Liberation Serif, serif" font-size="847px" font-weight="700"><tspan class="TextPosition" x="9837" y="4674"><tspan fill="rgb(0,0,0)" stroke="none">C</tspan></tspan></tspan></text>
       </g>
      </g>
      <g class="com.sun.star.drawing.CustomShape">
       <g id="id14">
        <rect class="BoundingBox" stroke="none" fill="none" x="12768" y="3744" width="1263" height="1263"/>
        <image x="12768" y="3744" width="1262" height="1262" preserveAspectRatio="none" xlink:href="data:image/png;base64,iVBORw0KGgoAAAANSUhEUgAAADEAAAAxCAYAAABznEEcAAABFklEQVR4nO2ayw3CMBBEfdgyQh9AH6ERuiJ9IPqAQvCgrAKJ1wkHkkGaJ1l8zGFeMMthYqlMk9e1f34LPrM1yHjIq7Ng813gtFaqL/CMd7wYS/jmOa923VyLmWS0YLNLnBLFjBZsMhJmtNomEdWMloYfcZs+j9C+f7z8Mt1CkCW8yH6cWMcogADyhafEUjxG/RvYesTOnoTS/8TfIQkWJMGCJFiQBAuSYEESLEiCBUmwIAkWJMGCJFiQBAuSYEESLEiChTkJFBxbN0W1xupVwEQSTRoaGlaQcZfXsVbGsxSRpcbKM+K9R62MZxAoMclYK+MZKWZUGb8is2U8brfB3SrjMp4FTElMIfyIwzKe9eo73rOH4/4JT44/MYMQmBsAAAAASUVORK5CYII="/>
        <text class="TextShape"><tspan class="TextParagraph" font-family="Liberation Serif, serif" font-size="847px" font-weight="700"><tspan class="TextPosition" x="12964" y="4674"><tspan fill="rgb(0,0,0)" stroke="none">W</tspan></tspan></tspan></text>
       </g>
      </g>
      <g class="com.sun.star.drawing.CustomShape">
       <g id="id15">
        <rect class="BoundingBox" stroke="none" fill="none" x="11686" y="3744" width="1263" height="1263"/>
        <image x="11686" y="3744" width="1262" height="1262" preserveAspectRatio="none" xlink:href="data:image/png;base64,iVBORw0KGgoAAAANSUhEUgAAADEAAAAxCAYAAABznEEcAAABFklEQVR4nO2ayw3CMBBEfdgyQh9AH6ERuiJ9IPqAQvCgrAKJ1wkHkkGaJ1l8zGFeMMthYqlMk9e1f34LPrM1yHjIq7Ng813gtFaqL/CMd7wYS/jmOa923VyLmWS0YLNLnBLFjBZsMhJmtNomEdWMloYfcZs+j9C+f7z8Mt1CkCW8yH6cWMcogADyhafEUjxG/RvYesTOnoTS/8TfIQkWJMGCJFiQBAuSYEESLEiCBUmwIAkWJMGCJFiQBAuSYEESLEiChTkJFBxbN0W1xupVwEQSTRoaGlaQcZfXsVbGsxSRpcbKM+K9R62MZxAoMclYK+MZKWZUGb8is2U8brfB3SrjMp4FTElMIfyIwzKe9eo73rOH4/4JT44/MYMQmBsAAAAASUVORK5CYII="/>
        <text class="TextShape"><tspan class="TextParagraph" font-family="Liberation Serif, serif" font-size="847px" font-weight="700"><tspan class="TextPosition" x="12164" y="4674"><tspan fill="rgb(0,0,0)" stroke="none">t</tspan></tspan></tspan></text>
       </g>
      </g>
      <g class="com.sun.star.drawing.CustomShape">
       <g id="id16">
        <rect class="BoundingBox" stroke="none" fill="none" x="10605" y="3744" width="1264" height="1263"/>
        <image x="10605" y="3744" width="1263" height="1262" preserveAspectRatio="none" xlink:href="data:image/png;base64,iVBORw0KGgoAAAANSUhEUgAAADEAAAAxCAYAAABznEEcAAABFklEQVR4nO2ayw3CMBBEfdgyQh9AH6ERuiJ9IPqAQvCgrAKJ1wkHkkGaJ1l8zGFeMMthYqlMk9e1f34LPrM1yHjIq7Ng813gtFaqL/CMd7wYS/jmOa923VyLmWS0YLNLnBLFjBZsMhJmtNomEdWMloYfcZs+j9C+f7z8Mt1CkCW8yH6cWMcogADyhafEUjxG/RvYesTOnoTS/8TfIQkWJMGCJFiQBAuSYEESLEiCBUmwIAkWJMGCJFiQBAuSYEESLEiChTkJFBxbN0W1xupVwEQSTRoaGlaQcZfXsVbGsxSRpcbKM+K9R62MZxAoMclYK+MZKWZUGb8is2U8brfB3SrjMp4FTElMIfyIwzKe9eo73rOH4/4JT44/MYMQmBsAAAAASUVORK5CYII="/>
        <text class="TextShape"><tspan class="TextParagraph" font-family="Liberation Serif, serif" font-size="847px" font-weight="700"><tspan class="TextPosition" x="10920" y="4674"><tspan fill="rgb(0,0,0)" stroke="none">A</tspan></tspan></tspan></text>
       </g>
      </g>
      <g class="com.sun.star.drawing.CustomShape">
       <g id="id17">
        <rect class="BoundingBox" stroke="none" fill="none" x="13850" y="3744" width="1263" height="1263"/>
        <image x="13850" y="3744" width="1262" height="1262" preserveAspectRatio="none" xlink:href="data:image/png;base64,iVBORw0KGgoAAAANSUhEUgAAADEAAAAxCAYAAABznEEcAAABFklEQVR4nO2ayw3CMBBEfdgyQh9AH6ERuiJ9IPqAQvCgrAKJ1wkHkkGaJ1l8zGFeMMthYqlMk9e1f34LPrM1yHjIq7Ng813gtFaqL/CMd7wYS/jmOa923VyLmWS0YLNLnBLFjBZsMhJmtNomEdWMloYfcZs+j9C+f7z8Mt1CkCW8yH6cWMcogADyhafEUjxG/RvYesTOnoTS/8TfIQkWJMGCJFiQBAuSYEESLEiCBUmwIAkWJMGCJFiQBAuSYEESLEiChTkJFBxbN0W1xupVwEQSTRoaGlaQcZfXsVbGsxSRpcbKM+K9R62MZxAoMclYK+MZKWZUGb8is2U8brfB3SrjMp4FTElMIfyIwzKe9eo73rOH4/4JT44/MYMQmBsAAAAASUVORK5CYII="/>
        <text class="TextShape"><tspan class="TextParagraph" font-family="Liberation Serif, serif" font-size="847px" font-weight="700"><tspan class="TextPosition" x="14188" y="4674"><tspan fill="rgb(0,0,0)" stroke="none">E</tspan></tspan></tspan></text>
       </g>
      </g>
      <g class="com.sun.star.drawing.CustomShape">
       <g id="id18">
        <rect class="BoundingBox" stroke="none" fill="none" x="16014" y="3744" width="1263" height="1263"/>
        <image x="16014" y="3744" width="1262" height="1262" preserveAspectRatio="none" xlink:href="data:image/png;base64,iVBORw0KGgoAAAANSUhEUgAAADEAAAAxCAYAAABznEEcAAABFklEQVR4nO2ayw3CMBBEfdgyQh9AH6ERuiJ9IPqAQvCgrAKJ1wkHkkGaJ1l8zGFeMMthYqlMk9e1f34LPrM1yHjIq7Ng813gtFaqL/CMd7wYS/jmOa923VyLmWS0YLNLnBLFjBZsMhJmtNomEdWMloYfcZs+j9C+f7z8Mt1CkCW8yH6cWMcogADyhafEUjxG/RvYesTOnoTS/8TfIQkWJMGCJFiQBAuSYEESLEiCBUmwIAkWJMGCJFiQBAuSYEESLEiChTkJFBxbN0W1xupVwEQSTRoaGlaQcZfXsVbGsxSRpcbKM+K9R62MZxAoMclYK+MZKWZUGb8is2U8brfB3SrjMp4FTElMIfyIwzKe9eo73rOH4/4JT44/MYMQmBsAAAAASUVORK5CYII="/>
        <text class="TextShape"><tspan class="TextParagraph" font-family="Liberation Serif, serif" font-size="847px" font-weight="700"><tspan class="TextPosition" x="16303" y="4674"><tspan fill="rgb(0,0,0)" stroke="none">K</tspan></tspan></tspan></text>
       </g>
      </g>
      <g class="com.sun.star.drawing.CustomShape">
       <g id="id19">
        <rect class="BoundingBox" stroke="none" fill="none" x="14932" y="3744" width="1264" height="1263"/>
        <image x="14932" y="3744" width="1263" height="1262" preserveAspectRatio="none" xlink:href="data:image/png;base64,iVBORw0KGgoAAAANSUhEUgAAADEAAAAxCAYAAABznEEcAAABFklEQVR4nO2ayw3CMBBEfdgyQh9AH6ERuiJ9IPqAQvCgrAKJ1wkHkkGaJ1l8zGFeMMthYqlMk9e1f34LPrM1yHjIq7Ng813gtFaqL/CMd7wYS/jmOa923VyLmWS0YLNLnBLFjBZsMhJmtNomEdWMloYfcZs+j9C+f7z8Mt1CkCW8yH6cWMcogADyhafEUjxG/RvYesTOnoTS/8TfIQkWJMGCJFiQBAuSYEESLEiCBUmwIAkWJMGCJFiQBAuSYEESLEiChTkJFBxbN0W1xupVwEQSTRoaGlaQcZfXsVbGsxSRpcbKM+K9R62MZxAoMclYK+MZKWZUGb8is2U8brfB3SrjMp4FTElMIfyIwzKe9eo73rOH4/4JT44/MYMQmBsAAAAASUVORK5CYII="/>
        <text class="TextShape"><tspan class="TextParagraph" font-family="Liberation Serif, serif" font-size="847px" font-weight="700"><tspan class="TextPosition" x="15270" y="4674"><tspan fill="rgb(0,0,0)" stroke="none">E</tspan></tspan></tspan></text>
       </g>
      </g>
      <g class="com.sun.star.drawing.TextShape">
       <g id="id20">
        <rect class="BoundingBox" stroke="none" fill="none" x="6312" y="5453" width="1034" height="747"/>
        <text class="TextShape"><tspan class="TextParagraph" font-family="MathJax_Vector, monospace" font-size="529px" font-weight="700"><tspan class="TextPosition" x="6669" y="5962"><tspan fill="rgb(0,0,0)" stroke="none">1</tspan></tspan></tspan></text>
       </g>
      </g>
      <g class="com.sun.star.drawing.TextShape">
       <g id="id21">
        <rect class="BoundingBox" stroke="none" fill="none" x="7412" y="5453" width="1034" height="747"/>
        <text class="TextShape"><tspan class="TextParagraph" font-family="MathJax_Vector, monospace" font-size="529px" font-weight="700"><tspan class="TextPosition" x="7769" y="5962"><tspan fill="rgb(0,0,0)" stroke="none">2</tspan></tspan></tspan></text>
       </g>
      </g>
      <g class="com.sun.star.drawing.TextShape">
       <g id="id22">
        <rect class="BoundingBox" stroke="none" fill="none" x="8512" y="5453" width="1034" height="747"/>
        <text class="TextShape"><tspan class="TextParagraph" font-family="MathJax_Vector, monospace" font-size="529px" font-weight="700"><tspan class="TextPosition" x="8869" y="5962"><tspan fill="rgb(0,0,0)" stroke="none">3</tspan></tspan></tspan></text>
       </g>
      </g>
      <g class="com.sun.star.drawing.TextShape">
       <g id="id23">
        <rect class="BoundingBox" stroke="none" fill="none" x="9513" y="5453" width="1034" height="747"/>
        <text class="TextShape"><tspan class="TextParagraph" font-family="MathJax_Vector, monospace" font-size="529px" font-weight="700"><tspan class="TextPosition" x="9870" y="5962"><tspan fill="rgb(0,0,0)" stroke="none">4</tspan></tspan></tspan></text>
       </g>
      </g>
      <g class="com.sun.star.drawing.TextShape">
       <g id="id24">
        <rect class="BoundingBox" stroke="none" fill="none" x="10614" y="5453" width="1034" height="747"/>
        <text class="TextShape"><tspan class="TextParagraph" font-family="MathJax_Vector, monospace" font-size="529px" font-weight="700"><tspan class="TextPosition" x="10971" y="5962"><tspan fill="rgb(0,0,0)" stroke="none">5</tspan></tspan></tspan></text>
       </g>
      </g>
      <g class="com.sun.star.drawing.TextShape">
       <g id="id25">
        <rect class="BoundingBox" stroke="none" fill="none" x="11715" y="5453" width="1034" height="747"/>
        <text class="TextShape"><tspan class="TextParagraph" font-family="MathJax_Vector, monospace" font-size="529px" font-weight="700"><tspan class="TextPosition" x="12072" y="5962"><tspan fill="rgb(0,0,0)" stroke="none">6</tspan></tspan></tspan></text>
       </g>
      </g>
      <g class="com.sun.star.drawing.TextShape">
       <g id="id26">
        <rect class="BoundingBox" stroke="none" fill="none" x="12816" y="5453" width="1034" height="747"/>
        <text class="TextShape"><tspan class="TextParagraph" font-family="MathJax_Vector, monospace" font-size="529px" font-weight="700"><tspan class="TextPosition" x="13173" y="5962"><tspan fill="rgb(0,0,0)" stroke="none">7</tspan></tspan></tspan></text>
       </g>
      </g>
      <g class="com.sun.star.drawing.TextShape">
       <g id="id27">
        <rect class="BoundingBox" stroke="none" fill="none" x="13917" y="5453" width="1034" height="747"/>
        <text class="TextShape"><tspan class="TextParagraph" font-family="MathJax_Vector, monospace" font-size="529px" font-weight="700"><tspan class="TextPosition" x="14274" y="5962"><tspan fill="rgb(0,0,0)" stroke="none">8</tspan></tspan></tspan></text>
       </g>
      </g>
      <g class="com.sun.star.drawing.TextShape">
       <g id="id28">
        <rect class="BoundingBox" stroke="none" fill="none" x="15018" y="5453" width="1034" height="747"/>
        <text class="TextShape"><tspan class="TextParagraph" font-family="MathJax_Vector, monospace" font-size="529px" font-weight="700"><tspan class="TextPosition" x="15375" y="5962"><tspan fill="rgb(0,0,0)" stroke="none">9</tspan></tspan></tspan></text>
       </g>
      </g>
      <g class="com.sun.star.drawing.TextShape">
       <g id="id29">
        <rect class="BoundingBox" stroke="none" fill="none" x="16119" y="5343" width="1158" height="968"/>
        <text class="TextShape"><tspan class="TextParagraph" font-family="MathJax_Vector, monospace" font-size="529px" font-weight="700"><tspan class="TextPosition" x="16380" y="5962"><tspan fill="rgb(0,0,0)" stroke="none">10</tspan></tspan></tspan></text>
       </g>
      </g>
      <g class="com.sun.star.drawing.TextShape">
       <g id="id30">
        <rect class="BoundingBox" stroke="none" fill="none" x="5212" y="6954" width="1034" height="747"/>
        <text class="TextShape"><tspan class="TextParagraph" font-family="MathJax_Vector, monospace" font-size="529px" font-weight="700"><tspan class="TextPosition" x="5252" y="7463"><tspan fill="rgb(0,0,0)" stroke="none">-11</tspan></tspan></tspan></text>
       </g>
      </g>
      <g class="com.sun.star.drawing.TextShape">
       <g id="id31">
        <rect class="BoundingBox" stroke="none" fill="none" x="6313" y="6954" width="1034" height="747"/>
        <text class="TextShape"><tspan class="TextParagraph" font-family="MathJax_Vector, monospace" font-size="529px" font-weight="700"><tspan class="TextPosition" x="6353" y="7463"><tspan fill="rgb(0,0,0)" stroke="none">-10</tspan></tspan></tspan></text>
       </g>
      </g>
      <g class="com.sun.star.drawing.TextShape">
       <g id="id32">
        <rect class="BoundingBox" stroke="none" fill="none" x="7413" y="6954" width="1034" height="747"/>
        <text class="TextShape"><tspan class="TextParagraph" font-family="MathJax_Vector, monospace" font-size="529px" font-weight="700"><tspan class="TextPosition" x="7612" y="7463"><tspan fill="rgb(0,0,0)" stroke="none">-9</tspan></tspan></tspan></text>
       </g>
      </g>
      <g class="com.sun.star.drawing.TextShape">
       <g id="id33">
        <rect class="BoundingBox" stroke="none" fill="none" x="8513" y="6954" width="1034" height="747"/>
        <text class="TextShape"><tspan class="TextParagraph" font-family="MathJax_Vector, monospace" font-size="529px" font-weight="700"><tspan class="TextPosition" x="8712" y="7463"><tspan fill="rgb(0,0,0)" stroke="none">-8</tspan></tspan></tspan></text>
       </g>
      </g>
      <g class="com.sun.star.drawing.TextShape">
       <g id="id34">
        <rect class="BoundingBox" stroke="none" fill="none" x="9514" y="6954" width="1034" height="747"/>
        <text class="TextShape"><tspan class="TextParagraph" font-family="MathJax_Vector, monospace" font-size="529px" font-weight="700"><tspan class="TextPosition" x="9713" y="7463"><tspan fill="rgb(0,0,0)" stroke="none">-7</tspan></tspan></tspan></text>
       </g>
      </g>
      <g class="com.sun.star.drawing.TextShape">
       <g id="id35">
        <rect class="BoundingBox" stroke="none" fill="none" x="10615" y="6954" width="1034" height="747"/>
        <text class="TextShape"><tspan class="TextParagraph" font-family="MathJax_Vector, monospace" font-size="529px" font-weight="700"><tspan class="TextPosition" x="10814" y="7463"><tspan fill="rgb(0,0,0)" stroke="none">-6</tspan></tspan></tspan></text>
       </g>
      </g>
      <g class="com.sun.star.drawing.TextShape">
       <g id="id36">
        <rect class="BoundingBox" stroke="none" fill="none" x="11716" y="6954" width="1034" height="747"/>
        <text class="TextShape"><tspan class="TextParagraph" font-family="MathJax_Vector, monospace" font-size="529px" font-weight="700"><tspan class="TextPosition" x="11915" y="7463"><tspan fill="rgb(0,0,0)" stroke="none">-5</tspan></tspan></tspan></text>
       </g>
      </g>
      <g class="com.sun.star.drawing.TextShape">
       <g id="id37">
        <rect class="BoundingBox" stroke="none" fill="none" x="12817" y="6954" width="1034" height="747"/>
        <text class="TextShape"><tspan class="TextParagraph" font-family="MathJax_Vector, monospace" font-size="529px" font-weight="700"><tspan class="TextPosition" x="13016" y="7463"><tspan fill="rgb(0,0,0)" stroke="none">-4</tspan></tspan></tspan></text>
       </g>
      </g>
      <g class="com.sun.star.drawing.TextShape">
       <g id="id38">
        <rect class="BoundingBox" stroke="none" fill="none" x="13918" y="6954" width="1034" height="747"/>
        <text class="TextShape"><tspan class="TextParagraph" font-family="MathJax_Vector, monospace" font-size="529px" font-weight="700"><tspan class="TextPosition" x="14117" y="7463"><tspan fill="rgb(0,0,0)" stroke="none">-3</tspan></tspan></tspan></text>
       </g>
      </g>
      <g class="com.sun.star.drawing.TextShape">
       <g id="id39">
        <rect class="BoundingBox" stroke="none" fill="none" x="15019" y="6954" width="1034" height="747"/>
        <text class="TextShape"><tspan class="TextParagraph" font-family="MathJax_Vector, monospace" font-size="529px" font-weight="700"><tspan class="TextPosition" x="15218" y="7463"><tspan fill="rgb(0,0,0)" stroke="none">-2</tspan></tspan></tspan></text>
       </g>
      </g>
      <g class="com.sun.star.drawing.TextShape">
       <g id="id40">
        <rect class="BoundingBox" stroke="none" fill="none" x="16120" y="6844" width="1158" height="968"/>
        <text class="TextShape"><tspan class="TextParagraph" font-family="MathJax_Vector, monospace" font-size="529px" font-weight="700"><tspan class="TextPosition" x="16381" y="7463"><tspan fill="rgb(0,0,0)" stroke="none">-1</tspan></tspan></tspan></text>
       </g>
      </g>
      <g class="com.sun.star.drawing.TextShape">
       <g id="id41">
        <rect class="BoundingBox" stroke="none" fill="none" x="4322" y="3551" width="1034" height="1103"/>
        <text class="TextShape"><tspan class="TextParagraph" font-family="Arial, sans-serif" font-size="988px" font-weight="700"><tspan class="TextPosition" x="4584" y="4445"><tspan fill="rgb(0,0,0)" stroke="none">‘‘</tspan></tspan></tspan></text>
       </g>
      </g>
      <g class="com.sun.star.drawing.TextShape">
       <g id="id42">
        <rect class="BoundingBox" stroke="none" fill="none" x="17123" y="3551" width="1034" height="1103"/>
        <text class="TextShape"><tspan class="TextParagraph" font-family="Arial, sans-serif" font-size="988px" font-weight="700"><tspan class="TextPosition" x="17385" y="4445"><tspan fill="rgb(0,0,0)" stroke="none">‘‘</tspan></tspan></tspan></text>
       </g>
      </g>
     </g>
    </g>
   </g>
  </g>
 </g>
</svg>