# packages in environment at C:\Users\joaquin\p4p:
#
# Name                    Version                   Build  Channel
anaconda-client           1.7.2                    py37_0  
anaconda-navigator        1.9.7                    py37_0  
asn1crypto                1.2.0                    py37_0  
attrs                     19.3.0                     py_0  
backcall                  0.1.0                    py37_0  
beautifulsoup4            4.8.1                    py37_0  
biopython                 1.74             py37he774522_0  
blas                      1.0                         mkl  
bleach                    3.1.0                    py37_0  
blosc                     1.16.3               h7bd577a_0  
bottleneck                1.2.1            py37h452e1ab_1  
bzip2                     1.0.8                he774522_0  
ca-certificates           2019.10.16                    0  
certifi                   2019.9.11                py37_0  
cffi                      1.13.1           py37h7a1dbc1_0  
chardet                   3.0.4                 py37_1003  
clyent                    1.2.2                    py37_1  
colorama                  0.4.1                    py37_0  
conda                     4.7.12                   py37_0  
conda-package-handling    1.6.0            py37h62dcd97_0  
console_shortcut          0.1.1                         3  
cryptography              2.8              py37h7a1dbc1_0  
cycler                    0.10.0                   py37_0  
decorator                 4.4.1                      py_0  
defusedxml                0.6.0                      py_0  
entrypoints               0.3                      py37_0  
et_xmlfile                1.0.1                    py37_0  
freetype                  2.9.1                ha9979f8_1  
hdf5                      1.10.4               h7ebc959_0  
icc_rt                    2019.0.0             h0cc432a_1  
icu                       58.2             vc14hc45fdbb_0  [vc14]  anaconda
idna                      2.8                      py37_0  
importlib_metadata        0.23                     py37_0  
intel-openmp              2019.4                      245  
ipykernel                 5.1.3            py37h39e3cac_0  
ipython                   7.9.0            py37h39e3cac_0  
ipython_genutils          0.2.0                    py37_0  
ipywidgets                7.5.1                      py_0  
jdcal                     1.4.1                      py_0  
jedi                      0.15.1                   py37_0  
jinja2                    2.10.3                     py_0  
joblib                    0.13.2                   py37_0  
jpeg                      9b               vc14h4d7706e_1  [vc14]  anaconda
json5                     0.8.5                      py_0  
jsonschema                3.1.1                    py37_0  
jupyter_client            5.3.4                    py37_0  
jupyter_core              4.6.1                    py37_0  
jupyterlab                1.1.4              pyhf63ae98_0  
jupyterlab_server         1.0.6                      py_0  
kiwisolver                1.1.0            py37ha925a31_0  
libiconv                  1.15             vc14h29686d3_5  [vc14]  anaconda
libpng                    1.6.37               h2a8f88b_0  
libsodium                 1.0.16               h9d3ae62_0  
libtiff                   4.0.10               hb898794_2  
libxml2                   2.9.9                h464c3ec_0  
libxslt                   1.1.33               h579f668_0  
lxml                      4.4.1            py37h1350720_0  
lz4-c                     1.8.1.2              h2fa13f4_0  
lzo                       2.10             vc14h0a64fa6_1  [vc14]  anaconda
m2w64-gcc-libgfortran     5.3.0                         6  
m2w64-gcc-libs            5.3.0                         7  
m2w64-gcc-libs-core       5.3.0                         7  
m2w64-gmp                 6.1.0                         2  
m2w64-libwinpthread-git   5.0.0.4634.697f757               2  
markupsafe                1.1.1            py37he774522_0  
matplotlib                3.1.1            py37hc8f65d3_0  
matplotlib-venn           0.11.5                     py_1    conda-forge
menuinst                  1.4.16           py37he774522_0  
mistune                   0.8.4            py37he774522_0  
mkl                       2019.4                      245  
mkl-service               2.3.0            py37hb782905_0  
mkl_fft                   1.0.15           py37h14836fe_0  
mkl_random                1.1.0            py37h675688f_0  
mock                      3.0.5                    py37_0  
more-itertools            7.2.0                    py37_0  
msys2-conda-epoch         20160418                      1  
nbconvert                 5.6.1                    py37_0  
nbformat                  4.4.0                    py37_0  
notebook                  6.0.1                    py37_0  
numexpr                   2.7.0            py37hdce8814_0  
numpy                     1.17.3           py37h4ceb530_0  
numpy-base                1.17.3           py37hc3f5095_0  
olefile                   0.46                     py37_0  
openpyxl                  3.0.0                      py_0  
openssl                   1.1.1d               he774522_3  
pandas                    0.25.2           py37ha925a31_0  
pandoc                    2.2.3.2                       0  
pandocfilters             1.4.2                    py37_1  
parso                     0.5.1                      py_0  
patsy                     0.5.1                    py37_0  
pickleshare               0.7.5                    py37_0  
pillow                    6.2.1            py37hdc69c19_0  
pip                       19.3.1                   py37_0  
powershell_shortcut       0.0.1                         2  
prometheus_client         0.7.1                      py_0  
prompt_toolkit            2.0.10                     py_0  
pronto                    0.12.2                     py_0    bioconda
psutil                    5.6.3            py37he774522_0  
pycosat                   0.6.3            py37hfa6e2cd_0  
pycparser                 2.19                     py37_0  
pygments                  2.4.2                      py_0  
pyopenssl                 19.0.0                   py37_0  
pyparsing                 2.4.2                      py_0  
pyqt                      5.9.2            py37h6538335_2  
pyrsistent                0.15.4           py37he774522_0  
pysocks                   1.7.1                    py37_0  
pytables                  3.5.2            py37h1da0976_1  
pyteomics                 4.1.2                      py_0    bioconda
python                    3.7.5                h8c8aaf0_0  
python-dateutil           2.8.0                    py37_0  
pytz                      2019.3                     py_0  
pywin32                   223              py37hfa6e2cd_1  
pywinpty                  0.5.5                 py37_1000  
pyyaml                    5.1.2            py37he774522_0  
pyzmq                     18.1.0           py37ha925a31_0  
qt                        5.9.7            vc14h73c81de_0  [vc14]  anaconda
qtconsole                 4.5.5                      py_0  
qtpy                      1.9.0                      py_0  
requests                  2.22.0                   py37_0  
ruamel_yaml               0.15.46          py37hfa6e2cd_0  
scikit-learn              0.21.3           py37h6288b17_0  
scipy                     1.3.1            py37h29ff71c_0  
seaborn                   0.9.0                    py37_0  
send2trash                1.5.0                    py37_0  
setuptools                41.6.0                   py37_0  
sip                       4.19.8           py37h6538335_0  
six                       1.12.0                   py37_0  
snappy                    1.1.7            vc14h2dea872_1  [vc14]  anaconda
soupsieve                 1.9.3                    py37_0  
sqlalchemy                1.3.10           py37he774522_0  
sqlite                    3.30.1               he774522_0  
statsmodels               0.10.1           py37h8c2d366_0  
terminado                 0.8.2                    py37_0  
testpath                  0.4.2                    py37_0  
tk                        8.6.8                hfa6e2cd_0  
tornado                   6.0.3            py37he774522_0  
tqdm                      4.36.1                     py_0  
traitlets                 4.3.3                    py37_0  
urllib3                   1.24.2                   py37_0  
vc                        14.1                 h0510ff6_4  
vs2015_runtime            14.16.27012          hf0eaf9b_0  
wcwidth                   0.1.7                    py37_0  
webencodings              0.5.1                    py37_1  
wheel                     0.33.6                   py37_0  
widgetsnbextension        3.5.1                    py37_0  
win_inet_pton             1.1.0                    py37_0  
wincertstore              0.2                      py37_0  
winpty                    0.4.3                         4  
xlrd                      1.2.0                    py37_0  
xlsxwriter                1.2.2                      py_0  
xlwt                      1.3.0                    py37_0  
xz                        5.2.4                h2fa13f4_4  
yaml                      0.1.7            vc14h4cb57cf_1  [vc14]  anaconda
zeromq                    4.3.1                h33f27b4_3  
zipp                      0.6.0                      py_0  
zlib                      1.2.11           vc14h1cdd9ab_1  [vc14]  anaconda
zstd                      1.3.7                h508b16e_0  
